(module CONV_PDSE1-S5-S9-S (layer F.Cu) (tedit 5EBD4E80)
  (fp_text reference REF** (at -2.225 -4.815) (layer F.SilkS)
    (effects (font (size 1 1) (thickness 0.015)))
  )
  (fp_text value CONV_PDSE1-S5-S9-S (at 6.13 4.375) (layer F.Fab)
    (effects (font (size 1 1) (thickness 0.015)))
  )
  (fp_line (start 6.05 3.25) (end 6.05 -3.25) (layer F.CrtYd) (width 0.05))
  (fp_line (start -6.05 3.25) (end 6.05 3.25) (layer F.CrtYd) (width 0.05))
  (fp_line (start -6.05 -3.25) (end -6.05 3.25) (layer F.CrtYd) (width 0.05))
  (fp_line (start 6.05 -3.25) (end -6.05 -3.25) (layer F.CrtYd) (width 0.05))
  (fp_line (start 5.8 3) (end 5.8 -3) (layer F.Fab) (width 0.127))
  (fp_line (start -5.8 3) (end 5.8 3) (layer F.Fab) (width 0.127))
  (fp_line (start -5.8 -3) (end -5.8 3) (layer F.Fab) (width 0.127))
  (fp_line (start -2.1 3) (end -3 3) (layer F.SilkS) (width 0.127))
  (fp_line (start 0.4 3) (end -0.4 3) (layer F.SilkS) (width 0.127))
  (fp_line (start 2.7 3) (end 2.1 3) (layer F.SilkS) (width 0.127))
  (fp_line (start -4.6 3) (end -5.8 3) (layer F.SilkS) (width 0.127))
  (fp_line (start 5.8 3) (end 4.9 3) (layer F.SilkS) (width 0.127))
  (fp_line (start 5.8 -3) (end -5.8 -3) (layer F.Fab) (width 0.127))
  (fp_line (start -5.8 -3) (end -5.8 3) (layer F.SilkS) (width 0.127))
  (fp_line (start 5.8 -3) (end -5.8 -3) (layer F.SilkS) (width 0.127))
  (fp_line (start 5.8 3) (end 5.8 -3) (layer F.SilkS) (width 0.127))
  (fp_circle (center -6.81 2.1) (end -6.71 2.1) (layer F.Fab) (width 0.2))
  (fp_circle (center -6.81 2.1) (end -6.71 2.1) (layer F.SilkS) (width 0.2))
  (pad 4 thru_hole circle (at 3.81 2.1) (size 1.508 1.508) (drill 1) (layers *.Cu *.Mask))
  (pad 3 thru_hole circle (at 1.27 2.1) (size 1.508 1.508) (drill 1) (layers *.Cu *.Mask))
  (pad 2 thru_hole circle (at -1.27 2.1) (size 1.508 1.508) (drill 1) (layers *.Cu *.Mask))
  (pad 1 thru_hole rect (at -3.81 2.1) (size 1.508 1.508) (drill 1) (layers *.Cu *.Mask))
)
