(module IC_FDMQ8205A (layer F.Cu) (tedit 5E924AF2)
  (attr smd)
  (fp_text reference REF** (at 0.635 -3.683) (layer F.SilkS)
    (effects (font (size 1 1) (thickness 0.015)))
  )
  (fp_text value IC_FDMQ8205A (at 5.08 3.556) (layer F.Fab)
    (effects (font (size 1 1) (thickness 0.015)))
  )
  (fp_poly (pts (xy 0.085 0.859) (xy 1.415 0.859) (xy 1.415 1.491) (xy 0.085 1.491)) (layer F.Paste) (width 0.01))
  (fp_poly (pts (xy -1.415 0.859) (xy -0.085 0.859) (xy -0.085 1.491) (xy -1.415 1.491)) (layer F.Paste) (width 0.01))
  (fp_line (start -2.25 -2.5) (end 2.25 -2.5) (layer F.Fab) (width 0.127))
  (fp_line (start 2.25 -2.5) (end 2.25 2.5) (layer F.Fab) (width 0.127))
  (fp_line (start 2.25 2.5) (end -2.25 2.5) (layer F.Fab) (width 0.127))
  (fp_line (start -2.25 2.5) (end -2.25 -2.5) (layer F.Fab) (width 0.127))
  (fp_circle (center -3.1 -2.3) (end -3 -2.3) (layer F.SilkS) (width 0.2))
  (fp_circle (center -3.1 -2.3) (end -3 -2.3) (layer F.Fab) (width 0.2))
  (fp_line (start -2.25 -2.5385) (end 2.25 -2.5385) (layer F.SilkS) (width 0.127))
  (fp_line (start 2.25 2.5385) (end -2.25 2.5385) (layer F.SilkS) (width 0.127))
  (fp_line (start -2.65 -2.75) (end 2.65 -2.75) (layer F.CrtYd) (width 0.05))
  (fp_line (start 2.65 -2.75) (end 2.65 2.75) (layer F.CrtYd) (width 0.05))
  (fp_line (start 2.65 2.75) (end -2.65 2.75) (layer F.CrtYd) (width 0.05))
  (fp_line (start -2.65 2.75) (end -2.65 -2.75) (layer F.CrtYd) (width 0.05))
  (pad 10 smd rect (at 2.075 -0.4) (size 0.65 0.4) (layers F.Cu F.Paste F.Mask))
  (pad 9 smd rect (at 2.075 0.4) (size 0.65 0.4) (layers F.Cu F.Paste F.Mask))
  (pad 11 smd rect (at 2.075 -1.2) (size 0.65 0.4) (layers F.Cu F.Paste F.Mask))
  (pad 8 smd rect (at 2.075 1.2) (size 0.65 0.4) (layers F.Cu F.Paste F.Mask))
  (pad 12 smd rect (at 2.075 -2) (size 0.65 0.4) (layers F.Cu F.Paste F.Mask))
  (pad 7 smd rect (at 2.075 2) (size 0.65 0.4) (layers F.Cu F.Paste F.Mask))
  (pad 3 smd rect (at -2.075 -0.4) (size 0.65 0.4) (layers F.Cu F.Paste F.Mask))
  (pad 4 smd rect (at -2.075 0.4) (size 0.65 0.4) (layers F.Cu F.Paste F.Mask))
  (pad 2 smd rect (at -2.075 -1.2) (size 0.65 0.4) (layers F.Cu F.Paste F.Mask))
  (pad 5 smd rect (at -2.075 1.2) (size 0.65 0.4) (layers F.Cu F.Paste F.Mask))
  (pad 1 smd rect (at -2.075 -2) (size 0.65 0.4) (layers F.Cu F.Paste F.Mask))
  (pad 6 smd rect (at -2.075 2) (size 0.65 0.4) (layers F.Cu F.Paste F.Mask))
  (pad 2 smd rect (at 0 -1.33) (size 2.5 1.78) (layers F.Cu F.Mask))
  (pad 10 smd rect (at 0.75 1.175) (size 1 2.1) (layers F.Cu F.Mask))
  (pad 3 smd rect (at -0.75 1.175) (size 1 2.1) (layers F.Cu F.Mask))
  (model ${KIPRJMOD}/Footprint/packages3D/FDMQ8205A--3DModel-STEP-56544.STEP
    (at (xyz 0 0 0))
    (scale (xyz 1 1 1))
    (rotate (xyz -90 0 90))
  )
)
