(module Molex_Pico-Clasp_501331-0207_1x02-1MP_P1.00mm_Vertical (layer F.Cu) (tedit 5E924771)
  (descr "Molex Pico-Clasp series connector, 501331-0207 (http://www.molex.com/pdm_docs/sd/5013310207_sd.pdf), generated with kicad-footprint-generator")
  (tags "connector Molex Pico-Clasp side entry")
  (attr smd)
  (fp_text reference REF** (at 0 -3.3) (layer F.SilkS)
    (effects (font (size 1 1) (thickness 0.15)))
  )
  (fp_text value Molex_Pico-Clasp_501331-0207_1x02-1MP_P1.00mm_Vertical (at 0 3.3) (layer F.Fab)
    (effects (font (size 1 1) (thickness 0.15)))
  )
  (fp_line (start -2 1.15) (end 2 1.15) (layer F.Fab) (width 0.1))
  (fp_line (start -2.11 -0.04) (end -2.11 1.26) (layer F.SilkS) (width 0.12))
  (fp_line (start -2.11 1.26) (end -1.06 1.26) (layer F.SilkS) (width 0.12))
  (fp_line (start -1.06 1.26) (end -1.06 2.1) (layer F.SilkS) (width 0.12))
  (fp_line (start 2.11 -0.04) (end 2.11 1.26) (layer F.SilkS) (width 0.12))
  (fp_line (start 2.11 1.26) (end 1.06 1.26) (layer F.SilkS) (width 0.12))
  (fp_line (start -0.94 -1.96) (end 0.94 -1.96) (layer F.SilkS) (width 0.12))
  (fp_line (start -2 -1.85) (end 2 -1.85) (layer F.Fab) (width 0.1))
  (fp_line (start -2 1.15) (end -2 -1.85) (layer F.Fab) (width 0.1))
  (fp_line (start 2 1.15) (end 2 -1.85) (layer F.Fab) (width 0.1))
  (fp_line (start -0.625 -0.25) (end -0.625 0.25) (layer F.Fab) (width 0.1))
  (fp_line (start -0.625 0.25) (end -0.375 0.25) (layer F.Fab) (width 0.1))
  (fp_line (start -0.375 0.25) (end -0.375 -0.25) (layer F.Fab) (width 0.1))
  (fp_line (start -0.375 -0.25) (end -0.625 -0.25) (layer F.Fab) (width 0.1))
  (fp_line (start 0.375 -0.25) (end 0.375 0.25) (layer F.Fab) (width 0.1))
  (fp_line (start 0.375 0.25) (end 0.625 0.25) (layer F.Fab) (width 0.1))
  (fp_line (start 0.625 0.25) (end 0.625 -0.25) (layer F.Fab) (width 0.1))
  (fp_line (start 0.625 -0.25) (end 0.375 -0.25) (layer F.Fab) (width 0.1))
  (fp_line (start -2.9 -2.6) (end -2.9 2.6) (layer F.CrtYd) (width 0.05))
  (fp_line (start -2.9 2.6) (end 2.9 2.6) (layer F.CrtYd) (width 0.05))
  (fp_line (start 2.9 2.6) (end 2.9 -2.6) (layer F.CrtYd) (width 0.05))
  (fp_line (start 2.9 -2.6) (end -2.9 -2.6) (layer F.CrtYd) (width 0.05))
  (fp_line (start -1 1.15) (end -0.5 0.442893) (layer F.Fab) (width 0.1))
  (fp_line (start -0.5 0.442893) (end 0 1.15) (layer F.Fab) (width 0.1))
  (fp_text user %R (at 0 -1.15) (layer F.Fab)
    (effects (font (size 1 1) (thickness 0.15)))
  )
  (pad 1 smd roundrect (at -0.5 1.325) (size 0.6 1.55) (layers F.Cu F.Paste F.Mask) (roundrect_rratio 0.25))
  (pad 2 smd roundrect (at 0.5 1.325) (size 0.6 1.55) (layers F.Cu F.Paste F.Mask) (roundrect_rratio 0.25))
  (pad MP smd roundrect (at -1.8 -1.2) (size 1.2 1.8) (layers F.Cu F.Paste F.Mask) (roundrect_rratio 0.208333))
  (pad MP smd roundrect (at 1.8 -1.2) (size 1.2 1.8) (layers F.Cu F.Paste F.Mask) (roundrect_rratio 0.208333))
  (model ${KIPRJMOD}/Footprint/packages3D/5013310207.stp
    (offset (xyz 0 0.3 2.5))
    (scale (xyz 1 1 1))
    (rotate (xyz -90 0 180))
  )
)
