(module MOLEX_Micro-Lock_Plus_Con2_P1.25mm (layer F.Cu) (tedit 5E931EEB)
  (attr smd)
  (fp_text reference REF** (at -0.381115 -1.778475) (layer F.SilkS)
    (effects (font (size 0.800213 0.800213) (thickness 0.015)))
  )
  (fp_text value MOLEX_Micro-Lock_Plus_Con2_P1.25mm (at 5.33642 4.49001) (layer F.Fab)
    (effects (font (size 0.800362 0.800362) (thickness 0.015)))
  )
  (fp_line (start -2.875 -0.2) (end 2.875 -0.2) (layer F.Fab) (width 0.127))
  (fp_line (start 2.875 -0.2) (end 2.875 3.65) (layer F.Fab) (width 0.127))
  (fp_line (start 2.875 3.65) (end -2.875 3.65) (layer F.Fab) (width 0.127))
  (fp_line (start -2.875 3.65) (end -2.875 -0.2) (layer F.Fab) (width 0.127))
  (fp_line (start 2.875 3.65) (end -2.875 3.65) (layer F.SilkS) (width 0.127))
  (fp_line (start -2.875 0.9) (end -2.875 -0.2) (layer F.SilkS) (width 0.127))
  (fp_line (start 2.875 -0.2) (end 2.875 0.9) (layer F.SilkS) (width 0.127))
  (fp_line (start -2.875 -0.2) (end -1.5925 -0.2) (layer F.SilkS) (width 0.127))
  (fp_line (start 1.5925 -0.2) (end 2.875 -0.2) (layer F.SilkS) (width 0.127))
  (fp_line (start -3.125 0.97) (end -3.125 -0.45) (layer F.CrtYd) (width 0.05))
  (fp_line (start -3.125 -0.45) (end -1.275 -0.45) (layer F.CrtYd) (width 0.05))
  (fp_line (start -1.275 -0.45) (end -1.275 -0.85) (layer F.CrtYd) (width 0.05))
  (fp_line (start -1.275 -0.85) (end 1.275 -0.85) (layer F.CrtYd) (width 0.05))
  (fp_line (start 1.275 -0.85) (end 1.275 -0.45) (layer F.CrtYd) (width 0.05))
  (fp_line (start 1.275 -0.45) (end 3.125 -0.45) (layer F.CrtYd) (width 0.05))
  (fp_line (start 3.125 -0.45) (end 3.125 0.97) (layer F.CrtYd) (width 0.05))
  (fp_line (start 3.125 0.97) (end 3.425 0.97) (layer F.CrtYd) (width 0.05))
  (fp_line (start 3.425 0.97) (end 3.425 3.9) (layer F.CrtYd) (width 0.05))
  (fp_line (start 3.425 3.9) (end -3.425 3.9) (layer F.CrtYd) (width 0.05))
  (fp_line (start -3.425 3.9) (end -3.425 0.97) (layer F.CrtYd) (width 0.05))
  (fp_line (start -3.425 0.97) (end -3.125 0.97) (layer F.CrtYd) (width 0.05))
  (fp_circle (center 0.627 -0.969) (end 0.727 -0.969) (layer F.SilkS) (width 0.2))
  (pad 1 smd rect (at 0.625 0) (size 0.8 1.2) (layers F.Cu F.Paste F.Mask))
  (pad 2 smd rect (at -0.625 0) (size 0.8 1.2) (layers F.Cu F.Paste F.Mask))
  (pad S1 smd rect (at 2.525 2.295) (size 1.3 2.15) (layers F.Cu F.Paste F.Mask))
  (pad S2 smd rect (at -2.525 2.295) (size 1.3 2.15) (layers F.Cu F.Paste F.Mask))
  (model ${KIPRJMOD}/Footprint/packages3D/5055680271.stp
    (offset (xyz 4.8 33.7 7.5))
    (scale (xyz 1 1 1))
    (rotate (xyz -90 0 0))
  )
)
