(module PTS526SM15SMTR2LFS (layer F.Cu) (tedit 5F155A75)
  (fp_text reference REF** (at 0.2921 0.0889) (layer F.SilkS)
    (effects (font (size 1 1) (thickness 0.15)))
  )
  (fp_text value PTS526SM15SMTR2LFS (at 0.381 -3.9243) (layer F.Fab)
    (effects (font (size 1 1) (thickness 0.15)))
  )
  (fp_line (start -1.3873 2.5746) (end -2.5873 1.3746) (layer F.Fab) (width 0.1))
  (fp_line (start 2.6127 1.3746) (end 1.4127 2.5746) (layer F.Fab) (width 0.1))
  (fp_line (start 1.4127 -2.6254) (end 2.6127 -1.4254) (layer F.Fab) (width 0.1))
  (fp_line (start -4.2373 2.8246) (end 4.2627 2.8246) (layer F.CrtYd) (width 0.05))
  (fp_line (start -1.3873 -2.6254) (end 1.4127 -2.6254) (layer F.Fab) (width 0.1))
  (fp_line (start 4.2627 -2.8754) (end -4.2373 -2.8754) (layer F.CrtYd) (width 0.05))
  (fp_line (start -2.5873 -1.4254) (end -1.3873 -2.6254) (layer F.Fab) (width 0.1))
  (fp_line (start 1.4127 2.5746) (end -1.3873 2.5746) (layer F.Fab) (width 0.1))
  (fp_line (start -1.4373 2.6946) (end 1.4627 2.6946) (layer F.SilkS) (width 0.12))
  (fp_line (start 4.2627 2.8246) (end 4.2627 -2.8754) (layer F.CrtYd) (width 0.05))
  (fp_line (start -4.2373 -2.8754) (end -4.2373 2.8246) (layer F.CrtYd) (width 0.05))
  (fp_line (start 1.4627 2.6946) (end 1.9527 2.2046) (layer F.SilkS) (width 0.12))
  (fp_line (start 2.6127 -1.4254) (end 2.6127 1.3746) (layer F.Fab) (width 0.1))
  (fp_line (start 2.7327 1.0146) (end 2.7327 -1.0654) (layer F.SilkS) (width 0.12))
  (fp_line (start -1.4373 2.6946) (end -1.9273 2.2046) (layer F.SilkS) (width 0.12))
  (fp_line (start -1.4373 -2.7454) (end 1.4627 -2.7454) (layer F.SilkS) (width 0.12))
  (fp_circle (center 0 0) (end 1.5 0) (layer F.Fab) (width 0.1))
  (fp_line (start 1.4627 -2.7454) (end 1.9527 -2.2554) (layer F.SilkS) (width 0.12))
  (fp_line (start -1.4373 -2.7454) (end -1.9273 -2.2554) (layer F.SilkS) (width 0.12))
  (fp_line (start -2.7073 1.0146) (end -2.7073 -1.0654) (layer F.SilkS) (width 0.12))
  (fp_line (start -2.5873 1.3746) (end -2.5873 -1.4254) (layer F.Fab) (width 0.1))
  (pad 2 smd rect (at 3 1.8246) (size 1.5 0.8) (layers F.Cu F.Paste F.Mask))
  (pad 1 smd rect (at -3 -1.8923) (size 1.5 0.8) (layers F.Cu F.Paste F.Mask))
  (pad 2 smd rect (at -3 1.8246) (size 1.5 0.8) (layers F.Cu F.Paste F.Mask))
  (pad 1 smd rect (at 3 -1.8754) (size 1.5 0.8) (layers F.Cu F.Paste F.Mask))
  (model ${KIPRJMOD}/Footprint/packages3D/PTS526SM15SMTR2LFS.stp
    (at (xyz 0 0 0))
    (scale (xyz 1 1 1))
    (rotate (xyz 0 0 0))
  )
)
