EESchema Schematic File Version 4
EELAYER 30 0
EELAYER END
$Descr A4 11693 8268
encoding utf-8
Sheet 2 5
Title ""
Date ""
Rev ""
Comp ""
Comment1 ""
Comment2 ""
Comment3 ""
Comment4 ""
$EndDescr
$Comp
L MCU_ST_STM32F7:STM32F765VGTx U1
U 1 1 5F1509E4
P 4475 4000
F 0 "U1" H 4900 1275 50  0000 C CNN
F 1 "STM32F765VGTx" H 5150 1175 50  0000 C CNN
F 2 "Package_QFP:LQFP-100_14x14mm_P0.5mm" H 3775 1400 50  0001 R CNN
F 3 "http://www.st.com/st-web-ui/static/active/en/resource/technical/document/datasheet/DM00273119.pdf" H 4475 4000 50  0001 C CNN
F 4 "497-19661-1-ND" H 4475 4000 50  0001 C CNN "Digi-Key Part Number"
	1    4475 4000
	1    0    0    -1  
$EndComp
$Comp
L Device:C C1
U 1 1 5F1509EA
P 1725 2800
F 0 "C1" V 1575 2550 50  0000 C CNN
F 1 "10pF" V 1564 2800 50  0000 C CNN
F 2 "Capacitor_SMD:C_0402_1005Metric" H 1763 2650 50  0001 C CNN
F 3 "~" H 1725 2800 50  0001 C CNN
F 4 "445-4896-1-ND" H 1725 2800 50  0001 C CNN "Digi-Key Part Number"
	1    1725 2800
	0    1    1    0   
$EndComp
$Comp
L Device:C C2
U 1 1 5F1509F0
P 1725 3325
F 0 "C2" V 1975 3300 50  0000 C CNN
F 1 "10pF" V 1875 3300 50  0000 C CNN
F 2 "Capacitor_SMD:C_0402_1005Metric" H 1763 3175 50  0001 C CNN
F 3 "~" H 1725 3325 50  0001 C CNN
F 4 "445-4896-1-ND" H 1725 3325 50  0001 C CNN "Digi-Key Part Number"
	1    1725 3325
	0    1    1    0   
$EndComp
$Comp
L Device:C C4
U 1 1 5F1509F6
P 2150 2250
F 0 "C4" H 2265 2296 50  0000 L CNN
F 1 "2.2uF" H 2265 2205 50  0000 L CNN
F 2 "Capacitor_SMD:C_0603_1608Metric" H 2188 2100 50  0001 C CNN
F 3 "~" H 2150 2250 50  0001 C CNN
F 4 "587-1430-1-ND" H 2150 2250 50  0001 C CNN "Digi-Key Part Number"
	1    2150 2250
	1    0    0    -1  
$EndComp
$Comp
L Device:C C3
U 1 1 5F1509FC
P 1750 2150
F 0 "C3" H 1865 2196 50  0000 L CNN
F 1 "2.2uF" H 1865 2105 50  0000 L CNN
F 2 "Capacitor_SMD:C_0603_1608Metric" H 1788 2000 50  0001 C CNN
F 3 "~" H 1750 2150 50  0001 C CNN
F 4 "587-1430-1-ND" H 1750 2150 50  0001 C CNN "Digi-Key Part Number"
	1    1750 2150
	1    0    0    -1  
$EndComp
$Comp
L power:GND #PWR04
U 1 1 5F150A02
P 2150 2400
F 0 "#PWR04" H 2150 2150 50  0001 C CNN
F 1 "GND" H 2155 2227 50  0000 C CNN
F 2 "" H 2150 2400 50  0001 C CNN
F 3 "" H 2150 2400 50  0001 C CNN
	1    2150 2400
	1    0    0    -1  
$EndComp
$Comp
L power:GND #PWR02
U 1 1 5F150A08
P 1750 2300
F 0 "#PWR02" H 1750 2050 50  0001 C CNN
F 1 "GND" H 1755 2127 50  0000 C CNN
F 2 "" H 1750 2300 50  0001 C CNN
F 3 "" H 1750 2300 50  0001 C CNN
	1    1750 2300
	1    0    0    -1  
$EndComp
Text Notes 2675 1950 0    50   ~ 0
ESR <2 Ohm
$Comp
L Device:R R1
U 1 1 5F150A0F
P 2100 3325
F 0 "R1" V 2300 3325 50  0000 C CNN
F 1 "200K" V 2200 3325 50  0000 C CNN
F 2 "Resistor_SMD:R_0402_1005Metric" V 2030 3325 50  0001 C CNN
F 3 "~" H 2100 3325 50  0001 C CNN
F 4 "RMCF0402FT200KCT-ND" H 2100 3325 50  0001 C CNN "Digi-Key Part Number"
	1    2100 3325
	0    1    1    0   
$EndComp
Wire Wire Line
	1900 2925 1900 2800
Wire Wire Line
	1900 2800 1875 2800
Wire Wire Line
	1875 3325 1900 3325
Wire Wire Line
	1900 3325 1900 3225
Wire Wire Line
	1950 3325 1900 3325
Connection ~ 1900 3325
Wire Wire Line
	3575 3000 2500 3000
Wire Wire Line
	2500 3000 2500 2800
Wire Wire Line
	2500 2800 1900 2800
Connection ~ 1900 2800
Wire Wire Line
	2250 3325 2500 3325
Wire Wire Line
	2500 3325 2500 3100
Wire Wire Line
	2500 3100 3575 3100
$Comp
L power:GND #PWR01
U 1 1 5F150A22
P 1275 3450
F 0 "#PWR01" H 1275 3200 50  0001 C CNN
F 1 "GND" H 1280 3277 50  0000 C CNN
F 2 "" H 1275 3450 50  0001 C CNN
F 3 "" H 1275 3450 50  0001 C CNN
	1    1275 3450
	1    0    0    -1  
$EndComp
Wire Wire Line
	1575 2800 1275 2800
Wire Wire Line
	1275 2800 1275 3325
Wire Wire Line
	1575 3325 1275 3325
Connection ~ 1275 3325
Wire Wire Line
	1275 3325 1275 3450
$Comp
L Device:C C6
U 1 1 5F150A2D
P 3425 2400
F 0 "C6" H 3540 2446 50  0000 L CNN
F 1 "0.1uF" H 3540 2355 50  0000 L CNN
F 2 "Capacitor_SMD:C_0402_1005Metric" H 3463 2250 50  0001 C CNN
F 3 "~" H 3425 2400 50  0001 C CNN
F 4 "1276-1043-1-ND" H 3425 2400 50  0001 C CNN "Digi-Key Part Number"
	1    3425 2400
	1    0    0    -1  
$EndComp
Wire Wire Line
	3425 2200 3425 2250
$Comp
L Device:C C5
U 1 1 5F150A34
P 3000 2400
F 0 "C5" H 3115 2446 50  0000 L CNN
F 1 "1uF" H 3115 2355 50  0000 L CNN
F 2 "Capacitor_SMD:C_0603_1608Metric" H 3038 2250 50  0001 C CNN
F 3 "~" H 3000 2400 50  0001 C CNN
F 4 "1276-1102-1-ND" H 3000 2400 50  0001 C CNN "Digi-Key Part Number"
	1    3000 2400
	1    0    0    -1  
$EndComp
Wire Wire Line
	3000 2250 3000 2200
Wire Wire Line
	3000 2200 3425 2200
Connection ~ 3425 2200
Wire Wire Line
	3425 2200 3575 2200
$Comp
L power:GND #PWR06
U 1 1 5F150A3E
P 3000 2550
F 0 "#PWR06" H 3000 2300 50  0001 C CNN
F 1 "GND" H 3005 2377 50  0000 C CNN
F 2 "" H 3000 2550 50  0001 C CNN
F 3 "" H 3000 2550 50  0001 C CNN
	1    3000 2550
	1    0    0    -1  
$EndComp
$Comp
L power:GND #PWR07
U 1 1 5F150A44
P 3425 2550
F 0 "#PWR07" H 3425 2300 50  0001 C CNN
F 1 "GND" H 3430 2377 50  0000 C CNN
F 2 "" H 3425 2550 50  0001 C CNN
F 3 "" H 3425 2550 50  0001 C CNN
	1    3425 2550
	1    0    0    -1  
$EndComp
$Comp
L power:+3.3V #PWR09
U 1 1 5F150A4A
P 4475 1100
F 0 "#PWR09" H 4475 950 50  0001 C CNN
F 1 "+3.3V" H 4490 1273 50  0000 C CNN
F 2 "" H 4475 1100 50  0001 C CNN
F 3 "" H 4475 1100 50  0001 C CNN
	1    4475 1100
	1    0    0    -1  
$EndComp
Wire Wire Line
	4775 1300 4775 1175
Wire Wire Line
	4775 1175 4675 1175
Wire Wire Line
	4475 1175 4475 1100
Wire Wire Line
	4175 1300 4175 1175
Connection ~ 4475 1175
Wire Wire Line
	4175 1175 4275 1175
Wire Wire Line
	4275 1300 4275 1175
Connection ~ 4275 1175
Wire Wire Line
	4375 1300 4375 1175
Wire Wire Line
	4275 1175 4375 1175
Connection ~ 4375 1175
Wire Wire Line
	4375 1175 4475 1175
Wire Wire Line
	4475 1300 4475 1175
Wire Wire Line
	4575 1300 4575 1175
Connection ~ 4575 1175
Wire Wire Line
	4575 1175 4475 1175
Wire Wire Line
	4675 1300 4675 1175
Connection ~ 4675 1175
Wire Wire Line
	4675 1175 4575 1175
Wire Wire Line
	2150 2100 3575 2100
Wire Wire Line
	1750 2000 3575 2000
Text GLabel 2875 2200 0    50   Input ~ 0
VRef
Wire Wire Line
	2875 2200 3000 2200
Connection ~ 3000 2200
Wire Wire Line
	3575 1600 3375 1600
Wire Wire Line
	3375 1600 3375 1150
Wire Wire Line
	3375 1150 2950 1150
$Comp
L Jumper:Jumper_3_Open JP1
U 1 1 5F150A71
P 2425 1550
F 0 "JP1" H 2425 1774 50  0000 C CNN
F 1 "Boot Config" H 2425 1683 50  0000 C CNN
F 2 "Connector_PinHeader_2.54mm:PinHeader_1x03_P2.54mm_Vertical" H 2425 1550 50  0001 C CNN
F 3 "~" H 2425 1550 50  0001 C CNN
F 4 "2057-PH1-12-UA-ND" H 2425 1550 50  0001 C CNN "Digi-Key Part Number"
	1    2425 1550
	1    0    0    -1  
$EndComp
$Comp
L power:GND #PWR03
U 1 1 5F150A77
P 2000 1575
F 0 "#PWR03" H 2000 1325 50  0001 C CNN
F 1 "GND" H 2005 1402 50  0000 C CNN
F 2 "" H 2000 1575 50  0001 C CNN
F 3 "" H 2000 1575 50  0001 C CNN
	1    2000 1575
	1    0    0    -1  
$EndComp
$Comp
L power:+3.3V #PWR05
U 1 1 5F150A7D
P 2850 1525
F 0 "#PWR05" H 2850 1375 50  0001 C CNN
F 1 "+3.3V" H 2865 1698 50  0000 C CNN
F 2 "" H 2850 1525 50  0001 C CNN
F 3 "" H 2850 1525 50  0001 C CNN
	1    2850 1525
	1    0    0    -1  
$EndComp
Wire Wire Line
	3575 1800 2425 1800
Wire Wire Line
	2425 1800 2425 1700
Wire Wire Line
	2675 1550 2850 1550
Wire Wire Line
	2850 1550 2850 1525
Wire Wire Line
	2175 1550 2000 1550
Wire Wire Line
	2000 1550 2000 1575
Wire Wire Line
	2000 1150 2000 1550
Connection ~ 2000 1550
Text GLabel 5275 3300 2    50   Input ~ 0
VInputRef_ADC
Text GLabel 5275 3400 2    50   Input ~ 0
AC_Feedback_ADC
Text GLabel 5275 2800 2    50   Input ~ 0
USB_P
Text GLabel 5275 2700 2    50   Input ~ 0
USB_N
Text GLabel 3500 1150 2    50   Input ~ 0
NRST
Wire Wire Line
	3500 1150 3375 1150
Connection ~ 3375 1150
Text GLabel 5275 3000 2    50   Input ~ 0
SWDCLK
Text GLabel 5275 2900 2    50   Input ~ 0
SWDIO
Text GLabel 5275 3600 2    50   Input ~ 0
SWO
$Comp
L Device:Crystal_GND24 Y1
U 1 1 5F150A9E
P 1900 3075
F 0 "Y1" V 1750 3150 50  0000 L CNN
F 1 "24MHz" V 2000 3250 50  0000 L CNN
F 2 "Crystal:Crystal_SMD_2016-4Pin_2.0x1.6mm" H 1900 3075 50  0001 C CNN
F 3 "~" H 1900 3075 50  0001 C CNN
F 4 "490-5575-1-ND" H 1900 3075 50  0001 C CNN "Digi-Key Part Number"
	1    1900 3075
	0    1    1    0   
$EndComp
Wire Wire Line
	6175 4300 6175 4375
Wire Wire Line
	6050 4300 6175 4300
Wire Wire Line
	5675 4300 5750 4300
Wire Wire Line
	5275 4300 5375 4300
$Comp
L power:GND #PWR011
U 1 1 5F150AAA
P 6175 4375
F 0 "#PWR011" H 6175 4125 50  0001 C CNN
F 1 "GND" H 6180 4202 50  0000 C CNN
F 2 "" H 6175 4375 50  0001 C CNN
F 3 "" H 6175 4375 50  0001 C CNN
	1    6175 4375
	1    0    0    -1  
$EndComp
$Comp
L Device:R R2
U 1 1 5F150AB0
P 5525 4300
F 0 "R2" V 5725 4300 50  0000 C CNN
F 1 "51" V 5625 4300 50  0000 C CNN
F 2 "Resistor_SMD:R_0805_2012Metric" V 5455 4300 50  0001 C CNN
F 3 "~" H 5525 4300 50  0001 C CNN
F 4 "RMCF0805JT51R0CT-ND" H 5525 4300 50  0001 C CNN "Digi-Key Part Number"
	1    5525 4300
	0    1    1    0   
$EndComp
$Comp
L Device:LED D1
U 1 1 5F150AB6
P 5900 4300
F 0 "D1" H 5893 4045 50  0000 C CNN
F 1 "LED" H 5893 4136 50  0000 C CNN
F 2 "LED_SMD:LED_0805_2012Metric" H 5900 4300 50  0001 C CNN
F 3 "~" H 5900 4300 50  0001 C CNN
F 4 "732-4983-1-ND" H 5900 4300 50  0001 C CNN "Digi-Key Part Number"
	1    5900 4300
	-1   0    0    1   
$EndComp
Text GLabel 5275 3900 2    50   Input ~ 0
I2C_Clock
Text GLabel 5275 4000 2    50   Input ~ 0
I2C_Data
Wire Wire Line
	4575 6900 4675 6900
Connection ~ 4575 6900
Wire Wire Line
	4575 6800 4575 6900
Wire Wire Line
	4475 6900 4575 6900
Connection ~ 4475 6900
Wire Wire Line
	4425 6900 4475 6900
Wire Wire Line
	4475 6800 4475 6900
Wire Wire Line
	4375 6900 4425 6900
Connection ~ 4375 6900
Wire Wire Line
	4375 6800 4375 6900
Wire Wire Line
	4275 6900 4375 6900
Connection ~ 4275 6900
Wire Wire Line
	4275 6800 4275 6900
Connection ~ 4425 6900
Wire Wire Line
	4675 6800 4675 6900
Wire Wire Line
	4425 6900 4425 6975
Wire Wire Line
	4175 6900 4275 6900
Wire Wire Line
	4175 6800 4175 6900
$Comp
L power:GND #PWR08
U 1 1 5F150AD0
P 4425 6975
F 0 "#PWR08" H 4425 6725 50  0001 C CNN
F 1 "GND" H 4430 6802 50  0000 C CNN
F 2 "" H 4425 6975 50  0001 C CNN
F 3 "" H 4425 6975 50  0001 C CNN
	1    4425 6975
	1    0    0    -1  
$EndComp
$Comp
L Device:C C?
U 1 1 5F158DEF
P 8125 3625
AR Path="/5F158DEF" Ref="C?"  Part="1" 
AR Path="/5F10EA41/5F158DEF" Ref="C8"  Part="1" 
F 0 "C8" H 8240 3671 50  0000 L CNN
F 1 "0.1uF" H 8225 3500 50  0000 L CNN
F 2 "Capacitor_SMD:C_0402_1005Metric" H 8163 3475 50  0001 C CNN
F 3 "~" H 8125 3625 50  0001 C CNN
F 4 "1276-1043-1-ND" H 8125 3625 50  0001 C CNN "Digi-Key Part Number"
	1    8125 3625
	1    0    0    -1  
$EndComp
$Comp
L Device:C C?
U 1 1 5F158DF5
P 8500 3625
AR Path="/5F158DF5" Ref="C?"  Part="1" 
AR Path="/5F10EA41/5F158DF5" Ref="C9"  Part="1" 
F 0 "C9" H 8615 3671 50  0000 L CNN
F 1 "0.1uF" H 8600 3500 50  0000 L CNN
F 2 "Capacitor_SMD:C_0402_1005Metric" H 8538 3475 50  0001 C CNN
F 3 "~" H 8500 3625 50  0001 C CNN
F 4 "1276-1043-1-ND" H 8500 3625 50  0001 C CNN "Digi-Key Part Number"
	1    8500 3625
	1    0    0    -1  
$EndComp
$Comp
L Device:C C?
U 1 1 5F158DFB
P 8875 3625
AR Path="/5F158DFB" Ref="C?"  Part="1" 
AR Path="/5F10EA41/5F158DFB" Ref="C10"  Part="1" 
F 0 "C10" H 8990 3671 50  0000 L CNN
F 1 "0.1uF" H 8975 3500 50  0000 L CNN
F 2 "Capacitor_SMD:C_0402_1005Metric" H 8913 3475 50  0001 C CNN
F 3 "~" H 8875 3625 50  0001 C CNN
F 4 "1276-1043-1-ND" H 8875 3625 50  0001 C CNN "Digi-Key Part Number"
	1    8875 3625
	1    0    0    -1  
$EndComp
$Comp
L power:+3V3 #PWR?
U 1 1 5F158E01
P 7775 3375
AR Path="/5F158E01" Ref="#PWR?"  Part="1" 
AR Path="/5F10EA41/5F158E01" Ref="#PWR012"  Part="1" 
F 0 "#PWR012" H 7775 3225 50  0001 C CNN
F 1 "+3V3" H 7675 3550 50  0000 L CNN
F 2 "" H 7775 3375 50  0001 C CNN
F 3 "" H 7775 3375 50  0001 C CNN
	1    7775 3375
	1    0    0    -1  
$EndComp
$Comp
L power:GND #PWR?
U 1 1 5F158E07
P 7775 3850
AR Path="/5F158E07" Ref="#PWR?"  Part="1" 
AR Path="/5F10EA41/5F158E07" Ref="#PWR013"  Part="1" 
F 0 "#PWR013" H 7775 3600 50  0001 C CNN
F 1 "GND" H 7780 3677 50  0000 C CNN
F 2 "" H 7775 3850 50  0001 C CNN
F 3 "" H 7775 3850 50  0001 C CNN
	1    7775 3850
	1    0    0    -1  
$EndComp
Wire Wire Line
	8875 3475 8875 3375
Wire Wire Line
	8875 3375 8500 3375
Wire Wire Line
	8500 3375 8500 3475
Wire Wire Line
	8125 3475 8125 3375
Wire Wire Line
	8875 3775 8875 3850
Wire Wire Line
	8125 3775 8125 3850
Wire Wire Line
	8500 3775 8500 3850
Wire Wire Line
	8125 3850 8500 3850
Connection ~ 8500 3850
Wire Wire Line
	8875 3850 8500 3850
$Comp
L Device:C C?
U 1 1 5F158E17
P 7775 3625
AR Path="/5F158E17" Ref="C?"  Part="1" 
AR Path="/5F10EA41/5F158E17" Ref="C7"  Part="1" 
F 0 "C7" H 7890 3671 50  0000 L CNN
F 1 "4.7uF" H 7875 3500 50  0000 L CNN
F 2 "Capacitor_SMD:C_0805_2012Metric" H 7813 3475 50  0001 C CNN
F 3 "~" H 7775 3625 50  0001 C CNN
F 4 "1276-1244-1-ND" H 7775 3625 50  0001 C CNN "Digi-Key Part Number"
	1    7775 3625
	1    0    0    -1  
$EndComp
$Comp
L Device:C C?
U 1 1 5F158E1D
P 9250 3625
AR Path="/5F158E1D" Ref="C?"  Part="1" 
AR Path="/5F10EA41/5F158E1D" Ref="C11"  Part="1" 
F 0 "C11" H 9365 3671 50  0000 L CNN
F 1 "0.1uF" H 9350 3500 50  0000 L CNN
F 2 "Capacitor_SMD:C_0402_1005Metric" H 9288 3475 50  0001 C CNN
F 3 "~" H 9250 3625 50  0001 C CNN
F 4 "1276-1043-1-ND" H 9250 3625 50  0001 C CNN "Digi-Key Part Number"
	1    9250 3625
	1    0    0    -1  
$EndComp
$Comp
L Device:C C?
U 1 1 5F158E23
P 9625 3625
AR Path="/5F158E23" Ref="C?"  Part="1" 
AR Path="/5F10EA41/5F158E23" Ref="C12"  Part="1" 
F 0 "C12" H 9740 3671 50  0000 L CNN
F 1 "0.1uF" H 9725 3500 50  0000 L CNN
F 2 "Capacitor_SMD:C_0402_1005Metric" H 9663 3475 50  0001 C CNN
F 3 "~" H 9625 3625 50  0001 C CNN
F 4 "1276-1043-1-ND" H 9625 3625 50  0001 C CNN "Digi-Key Part Number"
	1    9625 3625
	1    0    0    -1  
$EndComp
$Comp
L Device:C C?
U 1 1 5F158E29
P 10000 3625
AR Path="/5F158E29" Ref="C?"  Part="1" 
AR Path="/5F10EA41/5F158E29" Ref="C13"  Part="1" 
F 0 "C13" H 10115 3671 50  0000 L CNN
F 1 "0.1uF" H 10100 3500 50  0000 L CNN
F 2 "Capacitor_SMD:C_0402_1005Metric" H 10038 3475 50  0001 C CNN
F 3 "~" H 10000 3625 50  0001 C CNN
F 4 "1276-1043-1-ND" H 10000 3625 50  0001 C CNN "Digi-Key Part Number"
	1    10000 3625
	1    0    0    -1  
$EndComp
$Comp
L Device:C C?
U 1 1 5F158E35
P 10375 3625
AR Path="/5F158E35" Ref="C?"  Part="1" 
AR Path="/5F10EA41/5F158E35" Ref="C15"  Part="1" 
F 0 "C15" H 10490 3671 50  0000 L CNN
F 1 "0.1uF" H 10475 3500 50  0000 L CNN
F 2 "Capacitor_SMD:C_0402_1005Metric" H 10413 3475 50  0001 C CNN
F 3 "~" H 10375 3625 50  0001 C CNN
F 4 "1276-1043-1-ND" H 10375 3625 50  0001 C CNN "Digi-Key Part Number"
	1    10375 3625
	1    0    0    -1  
$EndComp
Wire Wire Line
	7775 3475 7775 3375
Wire Wire Line
	7775 3375 8125 3375
Connection ~ 8125 3375
Wire Wire Line
	7775 3775 7775 3850
Wire Wire Line
	7775 3850 8125 3850
Connection ~ 8125 3850
Wire Wire Line
	8875 3375 9250 3375
Connection ~ 8875 3375
Connection ~ 8875 3850
Wire Wire Line
	9250 3775 9250 3850
Connection ~ 9250 3850
Wire Wire Line
	9250 3850 8875 3850
Wire Wire Line
	9250 3475 9250 3375
Connection ~ 9250 3375
Wire Wire Line
	9250 3375 9625 3375
Wire Wire Line
	9625 3475 9625 3375
Connection ~ 9625 3375
Wire Wire Line
	9625 3375 10000 3375
Wire Wire Line
	9625 3775 9625 3850
Connection ~ 9625 3850
Wire Wire Line
	9625 3850 9250 3850
Wire Wire Line
	10000 3775 10000 3850
Connection ~ 10000 3850
Wire Wire Line
	10000 3850 9625 3850
Wire Wire Line
	10000 3475 10000 3375
Connection ~ 10000 3375
Wire Wire Line
	10000 3375 10375 3375
Wire Wire Line
	10375 3475 10375 3375
Wire Wire Line
	10375 3775 10375 3850
Wire Wire Line
	10375 3850 10000 3850
Text Notes 9150 3175 0    50   ~ 0
MCU Bypass
Connection ~ 7775 3375
Connection ~ 7775 3850
Wire Wire Line
	8125 3375 8500 3375
Connection ~ 8500 3375
Text GLabel 5900 5000 2    50   Input ~ 0
VCurrent
$Comp
L Switch:SW_SPST SW1
U 1 1 5F295537
P 2750 1150
F 0 "SW1" H 2750 1385 50  0000 C CNN
F 1 "SW_SPST" H 2750 1294 50  0000 C CNN
F 2 "Li-ion_Thesis_Footprint_Library:PTS526SM15SMTR2LFS" H 2750 1150 50  0001 C CNN
F 3 "~" H 2750 1150 50  0001 C CNN
F 4 "CKN12220-1-ND" H 2750 1150 50  0001 C CNN "Digi-Key Part Number"
	1    2750 1150
	1    0    0    -1  
$EndComp
Wire Wire Line
	2000 1150 2550 1150
NoConn ~ 2100 3075
NoConn ~ 1700 3075
Text Label 5275 2100 0    50   ~ 0
PA5
Text Label 5275 2300 0    50   ~ 0
PA7
Text Label 5275 5400 0    50   ~ 0
PC4
Text Label 8500 2100 0    50   ~ 0
PC4
Text Label 5275 5500 0    50   ~ 0
PC5
Text Label 6050 3500 0    50   ~ 0
PB2
Text Label 9625 1525 2    50   ~ 0
PB2
Text Label 3575 4000 2    50   ~ 0
PE7
Text Label 3575 4100 2    50   ~ 0
PE8
Text Label 9625 1725 2    50   ~ 0
PE8
Text Label 3575 4200 2    50   ~ 0
PE9
Text Label 3575 4300 2    50   ~ 0
PE10
Text Label 9625 1925 2    50   ~ 0
PE10
Text Label 3575 4400 2    50   ~ 0
PE11
Text Label 9625 2025 2    50   ~ 0
PE11
Text Label 3575 4500 2    50   ~ 0
PE12
Text Label 9625 2125 2    50   ~ 0
PE12
Text Label 3575 4600 2    50   ~ 0
PE13
Text Label 9625 2225 2    50   ~ 0
PE13
Text Label 3575 4700 2    50   ~ 0
PE14
Text Label 9625 2325 2    50   ~ 0
PE14
Text Label 3575 4800 2    50   ~ 0
PE15
Text Label 9625 2425 2    50   ~ 0
PE15
$Comp
L Device:C C?
U 1 1 5F1ED871
P 5675 5150
AR Path="/5F1ED871" Ref="C?"  Part="1" 
AR Path="/5F10EA41/5F1ED871" Ref="C14"  Part="1" 
F 0 "C14" H 5790 5196 50  0000 L CNN
F 1 "0.1uF" H 5775 5025 50  0000 L CNN
F 2 "Capacitor_SMD:C_0402_1005Metric" H 5713 5000 50  0001 C CNN
F 3 "~" H 5675 5150 50  0001 C CNN
F 4 "1276-1043-1-ND" H 5675 5150 50  0001 C CNN "Digi-Key Part Number"
	1    5675 5150
	1    0    0    -1  
$EndComp
Wire Wire Line
	5900 5000 5675 5000
Connection ~ 5675 5000
Wire Wire Line
	5675 5000 5275 5000
$Comp
L power:GND #PWR0101
U 1 1 5F1F0F5F
P 5675 5300
F 0 "#PWR0101" H 5675 5050 50  0001 C CNN
F 1 "GND" H 5680 5127 50  0000 C CNN
F 2 "" H 5675 5300 50  0001 C CNN
F 3 "" H 5675 5300 50  0001 C CNN
	1    5675 5300
	1    0    0    -1  
$EndComp
Text Label 9625 1825 2    50   ~ 0
PE9
Text Label 9625 1625 2    50   ~ 0
PE7
Text Label 8500 2200 0    50   ~ 0
PC5
$Comp
L Connector_Generic:Conn_01x12 J8
U 1 1 5F2542E0
P 9825 1825
F 0 "J8" H 9905 1817 50  0000 L CNN
F 1 "Conn_01x12" H 9905 1726 50  0000 L CNN
F 2 "Connector_PinHeader_2.54mm:PinHeader_1x12_P2.54mm_Vertical" H 9825 1825 50  0001 C CNN
F 3 "~" H 9825 1825 50  0001 C CNN
F 4 "2057-PH1-12-UA-ND" H 9825 1825 50  0001 C CNN "Digi-Key Part Number"
	1    9825 1825
	1    0    0    -1  
$EndComp
$Comp
L power:+3V3 #PWR?
U 1 1 5F255897
P 9375 1300
AR Path="/5F255897" Ref="#PWR?"  Part="1" 
AR Path="/5F10EA41/5F255897" Ref="#PWR043"  Part="1" 
F 0 "#PWR043" H 9375 1150 50  0001 C CNN
F 1 "+3V3" H 9275 1475 50  0000 L CNN
F 2 "" H 9375 1300 50  0001 C CNN
F 3 "" H 9375 1300 50  0001 C CNN
	1    9375 1300
	1    0    0    -1  
$EndComp
$Comp
L power:GND #PWR?
U 1 1 5F255D26
P 9375 1425
AR Path="/5F255D26" Ref="#PWR?"  Part="1" 
AR Path="/5F10EA41/5F255D26" Ref="#PWR044"  Part="1" 
F 0 "#PWR044" H 9375 1175 50  0001 C CNN
F 1 "GND" H 9380 1252 50  0000 C CNN
F 2 "" H 9375 1425 50  0001 C CNN
F 3 "" H 9375 1425 50  0001 C CNN
	1    9375 1425
	1    0    0    -1  
$EndComp
Wire Wire Line
	9625 1425 9375 1425
Wire Wire Line
	9375 1325 9375 1300
Wire Wire Line
	9375 1325 9625 1325
$Comp
L power:+3V3 #PWR?
U 1 1 5F26D95F
P 7550 1600
AR Path="/5F26D95F" Ref="#PWR?"  Part="1" 
AR Path="/5F10EA41/5F26D95F" Ref="#PWR045"  Part="1" 
F 0 "#PWR045" H 7550 1450 50  0001 C CNN
F 1 "+3V3" H 7450 1775 50  0000 L CNN
F 2 "" H 7550 1600 50  0001 C CNN
F 3 "" H 7550 1600 50  0001 C CNN
	1    7550 1600
	1    0    0    -1  
$EndComp
Wire Wire Line
	8000 1600 7550 1600
$Comp
L power:GND #PWR?
U 1 1 5F27393E
P 7575 2250
AR Path="/5F27393E" Ref="#PWR?"  Part="1" 
AR Path="/5F10EA41/5F27393E" Ref="#PWR046"  Part="1" 
F 0 "#PWR046" H 7575 2000 50  0001 C CNN
F 1 "GND" H 7580 2077 50  0000 C CNN
F 2 "" H 7575 2250 50  0001 C CNN
F 3 "" H 7575 2250 50  0001 C CNN
	1    7575 2250
	1    0    0    -1  
$EndComp
Wire Wire Line
	8000 2200 7575 2200
Wire Wire Line
	7575 2200 7575 2250
Wire Wire Line
	8000 1700 7575 1700
Wire Wire Line
	7575 1700 7575 2000
Connection ~ 7575 2200
Text Label 5275 1600 0    50   ~ 0
PA0
Text Label 5275 1700 0    50   ~ 0
PA1
Text Label 5275 1800 0    50   ~ 0
PA2
Text Label 5275 1900 0    50   ~ 0
PA3
Text Label 5275 2000 0    50   ~ 0
PA4
Text Label 5275 2200 0    50   ~ 0
PA6
NoConn ~ 5275 2400
NoConn ~ 5275 2600
Text Label 8500 1500 0    50   ~ 0
PA0
Text Label 8500 1600 0    50   ~ 0
PA1
Text Label 8500 1700 0    50   ~ 0
PA2
Text Label 8000 1800 2    50   ~ 0
PA3
$Comp
L power:+3V3 #PWR?
U 1 1 5F2901D5
P 8875 1700
AR Path="/5F2901D5" Ref="#PWR?"  Part="1" 
AR Path="/5F10EA41/5F2901D5" Ref="#PWR047"  Part="1" 
F 0 "#PWR047" H 8875 1550 50  0001 C CNN
F 1 "+3V3" H 8775 1875 50  0000 L CNN
F 2 "" H 8875 1700 50  0001 C CNN
F 3 "" H 8875 1700 50  0001 C CNN
	1    8875 1700
	1    0    0    -1  
$EndComp
Wire Wire Line
	8875 1800 8875 1700
Wire Wire Line
	8500 1800 8875 1800
Text Label 8500 1900 0    50   ~ 0
PA4
Text Label 8500 2000 0    50   ~ 0
PA5
Text Label 8000 1900 2    50   ~ 0
PA6
Text Label 8000 2100 2    50   ~ 0
PA7
Text Label 5275 5300 0    50   ~ 0
PC3
Text Label 8000 1500 2    50   ~ 0
PC3
$Comp
L Connector_Generic:Conn_02x08_Odd_Even J1
U 1 1 5F2B23F6
P 8200 1800
F 0 "J1" H 8250 2317 50  0000 C CNN
F 1 "Expansion Header" H 8250 2226 50  0000 C CNN
F 2 "Connector_PinHeader_2.54mm:PinHeader_2x08_P2.54mm_Vertical" H 8200 1800 50  0001 C CNN
F 3 "~" H 8200 1800 50  0001 C CNN
F 4 "2057-PH1-12-UA-ND" H 8200 1800 50  0001 C CNN "Digi-Key Part Number"
	1    8200 1800
	1    0    0    -1  
$EndComp
Wire Wire Line
	8000 2000 7575 2000
Connection ~ 7575 2000
Wire Wire Line
	7575 2000 7575 2200
Text GLabel 7600 5325 3    50   Input ~ 0
I2C_Clock
Text GLabel 7925 5325 3    50   Input ~ 0
I2C_Data
$Comp
L Device:R R18
U 1 1 5F2E03C9
P 7600 5125
F 0 "R18" V 7800 5125 50  0000 C CNN
F 1 "3K" V 7700 5125 50  0000 C CNN
F 2 "Resistor_SMD:R_0805_2012Metric" V 7530 5125 50  0001 C CNN
F 3 "~" H 7600 5125 50  0001 C CNN
F 4 "RMCF0805JT3K00CT-ND" H 7600 5125 50  0001 C CNN "Digi-Key Part Number"
	1    7600 5125
	-1   0    0    1   
$EndComp
$Comp
L Device:R R19
U 1 1 5F2E07A3
P 7925 5125
F 0 "R19" V 8125 5125 50  0000 C CNN
F 1 "3K" V 8025 5125 50  0000 C CNN
F 2 "Resistor_SMD:R_0805_2012Metric" V 7855 5125 50  0001 C CNN
F 3 "~" H 7925 5125 50  0001 C CNN
F 4 "RMCF0805JT3K00CT-ND" H 7925 5125 50  0001 C CNN "Digi-Key Part Number"
	1    7925 5125
	-1   0    0    1   
$EndComp
$Comp
L power:+3V3 #PWR?
U 1 1 5F2E0F24
P 7750 4875
AR Path="/5F2E0F24" Ref="#PWR?"  Part="1" 
AR Path="/5F10EA41/5F2E0F24" Ref="#PWR048"  Part="1" 
F 0 "#PWR048" H 7750 4725 50  0001 C CNN
F 1 "+3V3" H 7650 5050 50  0000 L CNN
F 2 "" H 7750 4875 50  0001 C CNN
F 3 "" H 7750 4875 50  0001 C CNN
	1    7750 4875
	1    0    0    -1  
$EndComp
Wire Wire Line
	7600 4975 7600 4925
Wire Wire Line
	7600 4925 7750 4925
Wire Wire Line
	7925 4925 7925 4975
Wire Wire Line
	7750 4925 7750 4875
Connection ~ 7750 4925
Wire Wire Line
	7750 4925 7925 4925
Wire Wire Line
	7925 5275 7925 5325
Wire Wire Line
	7600 5275 7600 5325
NoConn ~ 3575 3300
NoConn ~ 3575 3400
NoConn ~ 3575 3500
NoConn ~ 3575 3600
NoConn ~ 3575 3700
NoConn ~ 3575 3800
NoConn ~ 3575 3900
NoConn ~ 5275 3100
NoConn ~ 5275 3700
NoConn ~ 5275 3800
NoConn ~ 5275 4100
NoConn ~ 5275 4200
NoConn ~ 5275 4400
NoConn ~ 5275 4500
NoConn ~ 5275 4600
NoConn ~ 5275 4700
NoConn ~ 5275 4800
NoConn ~ 3575 5000
NoConn ~ 3575 5100
NoConn ~ 3575 5200
NoConn ~ 3575 5300
NoConn ~ 3575 5400
NoConn ~ 3575 5500
NoConn ~ 3575 5600
NoConn ~ 3575 5700
NoConn ~ 3575 5800
NoConn ~ 3575 5900
NoConn ~ 3575 6000
NoConn ~ 3575 6100
NoConn ~ 3575 6200
NoConn ~ 3575 6300
NoConn ~ 3575 6400
NoConn ~ 3575 6500
NoConn ~ 5275 6500
NoConn ~ 5275 6400
NoConn ~ 5275 6300
NoConn ~ 5275 6200
NoConn ~ 5275 6100
NoConn ~ 5275 6000
NoConn ~ 5275 5900
NoConn ~ 5275 5800
NoConn ~ 5275 5700
NoConn ~ 5275 5600
NoConn ~ 5275 5200
NoConn ~ 5275 5100
Wire Wire Line
	5275 3500 6050 3500
$Comp
L Device:R R20
U 1 1 5F556D48
P 5925 2200
F 0 "R20" V 6125 2200 50  0000 C CNN
F 1 "3K" V 6025 2200 50  0000 C CNN
F 2 "Resistor_SMD:R_0805_2012Metric" V 5855 2200 50  0001 C CNN
F 3 "~" H 5925 2200 50  0001 C CNN
F 4 "RMCF0805JT3K00CT-ND" H 5925 2200 50  0001 C CNN "Digi-Key Part Number"
	1    5925 2200
	-1   0    0    1   
$EndComp
$Comp
L power:+5V #PWR010
U 1 1 5F150A90
P 5925 2000
F 0 "#PWR010" H 5925 1850 50  0001 C CNN
F 1 "+5V" H 6075 2075 50  0000 C CNN
F 2 "" H 5925 2000 50  0001 C CNN
F 3 "" H 5925 2000 50  0001 C CNN
	1    5925 2000
	1    0    0    -1  
$EndComp
$Comp
L Device:R R21
U 1 1 5F55C609
P 5925 2600
F 0 "R21" V 6125 2600 50  0000 C CNN
F 1 "3K" V 6025 2600 50  0000 C CNN
F 2 "Resistor_SMD:R_0805_2012Metric" V 5855 2600 50  0001 C CNN
F 3 "~" H 5925 2600 50  0001 C CNN
F 4 "RMCF0805JT3K00CT-ND" H 5925 2600 50  0001 C CNN "Digi-Key Part Number"
	1    5925 2600
	-1   0    0    1   
$EndComp
$Comp
L power:GND #PWR?
U 1 1 5F55C905
P 5925 2800
AR Path="/5F55C905" Ref="#PWR?"  Part="1" 
AR Path="/5F10EA41/5F55C905" Ref="#PWR049"  Part="1" 
F 0 "#PWR049" H 5925 2550 50  0001 C CNN
F 1 "GND" H 5930 2627 50  0000 C CNN
F 2 "" H 5925 2800 50  0001 C CNN
F 3 "" H 5925 2800 50  0001 C CNN
	1    5925 2800
	1    0    0    -1  
$EndComp
Wire Wire Line
	5275 2500 5550 2500
Wire Wire Line
	5550 2500 5550 2400
Wire Wire Line
	5550 2400 5925 2400
Wire Wire Line
	5925 2400 5925 2450
Wire Wire Line
	5925 2350 5925 2400
Connection ~ 5925 2400
Wire Wire Line
	5925 2750 5925 2800
Wire Wire Line
	5925 2050 5925 2000
$EndSCHEMATC
