EESchema Schematic File Version 4
EELAYER 30 0
EELAYER END
$Descr A4 11693 8268
encoding utf-8
Sheet 3 5
Title ""
Date ""
Rev ""
Comp ""
Comment1 ""
Comment2 ""
Comment3 ""
Comment4 ""
$EndDescr
$Comp
L Amplifier_Operational:MCP6002-xSN U?
U 1 1 5F1787FF
P 3600 3075
AR Path="/5F1787FF" Ref="U?"  Part="1" 
AR Path="/5F15CAB1/5F1787FF" Ref="U2"  Part="1" 
F 0 "U2" H 3600 3442 50  0000 C CNN
F 1 "MCP6002-xSN" H 3600 3351 50  0000 C CNN
F 2 "Package_SO:SOIC-8_3.9x4.9mm_P1.27mm" H 3600 3075 50  0001 C CNN
F 3 "http://ww1.microchip.com/downloads/en/DeviceDoc/21733j.pdf" H 3600 3075 50  0001 C CNN
F 4 "MCP6002T-I/SNCT-ND" H 3600 3075 50  0001 C CNN "Digi-Key Part Number"
	1    3600 3075
	1    0    0    -1  
$EndComp
$Comp
L Amplifier_Operational:MCP6002-xSN U?
U 2 1 5F178805
P 8500 3175
AR Path="/5F178805" Ref="U?"  Part="2" 
AR Path="/5F15CAB1/5F178805" Ref="U2"  Part="2" 
F 0 "U2" H 8500 3542 50  0000 C CNN
F 1 "MCP6002-xSN" H 8500 3451 50  0000 C CNN
F 2 "Package_SO:SOIC-8_3.9x4.9mm_P1.27mm" H 8500 3175 50  0001 C CNN
F 3 "http://ww1.microchip.com/downloads/en/DeviceDoc/21733j.pdf" H 8500 3175 50  0001 C CNN
F 4 "MCP6002T-I/SNCT-ND" H 8500 3175 50  0001 C CNN "Digi-Key Part Number"
	2    8500 3175
	1    0    0    -1  
$EndComp
$Comp
L Amplifier_Operational:MCP6002-xSN U?
U 3 1 5F17880B
P 4425 1475
AR Path="/5F17880B" Ref="U?"  Part="3" 
AR Path="/5F15CAB1/5F17880B" Ref="U2"  Part="3" 
F 0 "U2" H 4383 1521 50  0000 L CNN
F 1 "MCP6002-xSN" H 4383 1430 50  0000 L CNN
F 2 "Package_SO:SOIC-8_3.9x4.9mm_P1.27mm" H 4425 1475 50  0001 C CNN
F 3 "http://ww1.microchip.com/downloads/en/DeviceDoc/21733j.pdf" H 4425 1475 50  0001 C CNN
F 4 "MCP6002T-I/SNCT-ND" H 4425 1475 50  0001 C CNN "Digi-Key Part Number"
	3    4425 1475
	1    0    0    -1  
$EndComp
$Comp
L power:+3V3 #PWR?
U 1 1 5F178811
P 4075 1100
AR Path="/5F178811" Ref="#PWR?"  Part="1" 
AR Path="/5F15CAB1/5F178811" Ref="#PWR017"  Part="1" 
F 0 "#PWR017" H 4075 950 50  0001 C CNN
F 1 "+3V3" H 3975 1275 50  0000 L CNN
F 2 "" H 4075 1100 50  0001 C CNN
F 3 "" H 4075 1100 50  0001 C CNN
	1    4075 1100
	1    0    0    -1  
$EndComp
$Comp
L power:GND #PWR?
U 1 1 5F178817
P 4100 1875
AR Path="/5F178817" Ref="#PWR?"  Part="1" 
AR Path="/5F15CAB1/5F178817" Ref="#PWR018"  Part="1" 
F 0 "#PWR018" H 4100 1625 50  0001 C CNN
F 1 "GND" H 4105 1702 50  0000 C CNN
F 2 "" H 4100 1875 50  0001 C CNN
F 3 "" H 4100 1875 50  0001 C CNN
	1    4100 1875
	1    0    0    -1  
$EndComp
$Comp
L Device:C C?
U 1 1 5F17881D
P 3575 3600
AR Path="/5F17881D" Ref="C?"  Part="1" 
AR Path="/5F15CAB1/5F17881D" Ref="C18"  Part="1" 
F 0 "C18" V 3300 3550 50  0000 L CNN
F 1 "0.1uF" V 3400 3500 50  0000 L CNN
F 2 "Capacitor_SMD:C_0402_1005Metric" H 3613 3450 50  0001 C CNN
F 3 "~" H 3575 3600 50  0001 C CNN
F 4 "1276-1043-1-ND" H 3575 3600 50  0001 C CNN "Digi-Key Part Number"
	1    3575 3600
	0    1    1    0   
$EndComp
$Comp
L Device:R R?
U 1 1 5F178823
P 3575 3775
AR Path="/5F178823" Ref="R?"  Part="1" 
AR Path="/5F15CAB1/5F178823" Ref="R8"  Part="1" 
F 0 "R8" V 3775 3775 50  0000 C CNN
F 1 "14K" V 3675 3775 50  0000 C CNN
F 2 "Resistor_SMD:R_0805_2012Metric" V 3505 3775 50  0001 C CNN
F 3 "~" H 3575 3775 50  0001 C CNN
F 4 "RMCF0805FT14K0CT-ND" H 3575 3775 50  0001 C CNN "Digi-Key Part Number"
	1    3575 3775
	0    1    1    0   
$EndComp
$Comp
L Device:R R?
U 1 1 5F178829
P 3150 3925
AR Path="/5F178829" Ref="R?"  Part="1" 
AR Path="/5F15CAB1/5F178829" Ref="R7"  Part="1" 
F 0 "R7" V 3350 3925 50  0000 C CNN
F 1 "8.2K" V 3250 3925 50  0000 C CNN
F 2 "Resistor_SMD:R_0805_2012Metric" V 3080 3925 50  0001 C CNN
F 3 "~" H 3150 3925 50  0001 C CNN
F 4 "RMCF0805FT8K20CT-ND" H 3150 3925 50  0001 C CNN "Digi-Key Part Number"
	1    3150 3925
	-1   0    0    1   
$EndComp
Wire Wire Line
	3425 3775 3150 3775
Wire Wire Line
	3150 3775 3150 3600
Wire Wire Line
	3150 3175 3300 3175
Connection ~ 3150 3775
Wire Wire Line
	3425 3600 3150 3600
Connection ~ 3150 3600
Wire Wire Line
	3150 3600 3150 3175
$Comp
L power:GND #PWR?
U 1 1 5F178836
P 3150 4500
AR Path="/5F178836" Ref="#PWR?"  Part="1" 
AR Path="/5F15CAB1/5F178836" Ref="#PWR015"  Part="1" 
F 0 "#PWR015" H 3150 4250 50  0001 C CNN
F 1 "GND" H 3155 4327 50  0000 C CNN
F 2 "" H 3150 4500 50  0001 C CNN
F 3 "" H 3150 4500 50  0001 C CNN
	1    3150 4500
	1    0    0    -1  
$EndComp
Wire Wire Line
	3150 4075 3150 4125
Wire Wire Line
	3725 3775 4125 3775
Wire Wire Line
	4125 3775 4125 3600
Wire Wire Line
	4125 3075 3900 3075
Wire Wire Line
	3725 3600 4125 3600
Connection ~ 4125 3600
Wire Wire Line
	4125 3600 4125 3075
Text GLabel 2550 2375 0    50   Input ~ 0
AC_Feedback
$Comp
L Device:C C?
U 1 1 5F17886E
P 8475 3700
AR Path="/5F17886E" Ref="C?"  Part="1" 
AR Path="/5F15CAB1/5F17886E" Ref="C23"  Part="1" 
F 0 "C23" V 8200 3650 50  0000 L CNN
F 1 "0.1uF" V 8300 3600 50  0000 L CNN
F 2 "Capacitor_SMD:C_0402_1005Metric" H 8513 3550 50  0001 C CNN
F 3 "~" H 8475 3700 50  0001 C CNN
F 4 "1276-1043-1-ND" H 8475 3700 50  0001 C CNN "Digi-Key Part Number"
	1    8475 3700
	0    1    1    0   
$EndComp
$Comp
L Device:R R?
U 1 1 5F178874
P 8475 3875
AR Path="/5F178874" Ref="R?"  Part="1" 
AR Path="/5F15CAB1/5F178874" Ref="R16"  Part="1" 
F 0 "R16" V 8675 3875 50  0000 C CNN
F 1 "100K" V 8575 3875 50  0000 C CNN
F 2 "Resistor_SMD:R_0805_2012Metric" V 8405 3875 50  0001 C CNN
F 3 "~" H 8475 3875 50  0001 C CNN
F 4 "RMCF0805FT100KCT-ND" H 8475 3875 50  0001 C CNN "Digi-Key Part Number"
	1    8475 3875
	0    1    1    0   
$EndComp
Wire Wire Line
	8325 3875 8050 3875
Wire Wire Line
	8050 3875 8050 3700
Wire Wire Line
	8050 3275 8200 3275
Wire Wire Line
	8325 3700 8050 3700
Connection ~ 8050 3700
Wire Wire Line
	8050 3700 8050 3275
$Comp
L power:GND #PWR?
U 1 1 5F178887
P 8325 4675
AR Path="/5F178887" Ref="#PWR?"  Part="1" 
AR Path="/5F15CAB1/5F178887" Ref="#PWR020"  Part="1" 
F 0 "#PWR020" H 8325 4425 50  0001 C CNN
F 1 "GND" H 8330 4502 50  0000 C CNN
F 2 "" H 8325 4675 50  0001 C CNN
F 3 "" H 8325 4675 50  0001 C CNN
	1    8325 4675
	1    0    0    -1  
$EndComp
Wire Wire Line
	8325 4625 8325 4675
Wire Wire Line
	8625 3875 9025 3875
Wire Wire Line
	9025 3875 9025 3700
Wire Wire Line
	9025 3175 8800 3175
Wire Wire Line
	8625 3700 9025 3700
Connection ~ 9025 3700
Wire Wire Line
	9025 3700 9025 3175
$Comp
L Device:R R?
U 1 1 5F178894
P 7550 2825
AR Path="/5F178894" Ref="R?"  Part="1" 
AR Path="/5F15CAB1/5F178894" Ref="R12"  Part="1" 
F 0 "R12" V 7750 2825 50  0000 C CNN
F 1 "330K" V 7650 2825 50  0000 C CNN
F 2 "Resistor_SMD:R_0805_2012Metric" V 7480 2825 50  0001 C CNN
F 3 "~" H 7550 2825 50  0001 C CNN
F 4 "RMCF0805FT330KCT-ND" H 7550 2825 50  0001 C CNN "Digi-Key Part Number"
	1    7550 2825
	-1   0    0    1   
$EndComp
$Comp
L Device:R R?
U 1 1 5F17889A
P 7550 3300
AR Path="/5F17889A" Ref="R?"  Part="1" 
AR Path="/5F15CAB1/5F17889A" Ref="R13"  Part="1" 
F 0 "R13" V 7750 3300 50  0000 C CNN
F 1 "3.3K" V 7650 3300 50  0000 C CNN
F 2 "Resistor_SMD:R_0805_2012Metric" V 7480 3300 50  0001 C CNN
F 3 "~" H 7550 3300 50  0001 C CNN
F 4 "RMCF0805FG3K30CT-ND" H 7550 3300 50  0001 C CNN "Digi-Key Part Number"
	1    7550 3300
	-1   0    0    1   
$EndComp
$Comp
L power:GND #PWR?
U 1 1 5F1788A0
P 7150 3625
AR Path="/5F1788A0" Ref="#PWR?"  Part="1" 
AR Path="/5F15CAB1/5F1788A0" Ref="#PWR019"  Part="1" 
F 0 "#PWR019" H 7150 3375 50  0001 C CNN
F 1 "GND" H 7155 3452 50  0000 C CNN
F 2 "" H 7150 3625 50  0001 C CNN
F 3 "" H 7150 3625 50  0001 C CNN
	1    7150 3625
	1    0    0    -1  
$EndComp
Wire Wire Line
	8200 3075 7925 3075
Wire Wire Line
	7550 3075 7550 2975
Wire Wire Line
	7550 3150 7550 3075
Connection ~ 7550 3075
$Comp
L Device:R R?
U 1 1 5F1788AB
P 7925 2825
AR Path="/5F1788AB" Ref="R?"  Part="1" 
AR Path="/5F15CAB1/5F1788AB" Ref="R15"  Part="1" 
F 0 "R15" V 8125 2825 50  0000 C CNN
F 1 "14K" V 8025 2825 50  0000 C CNN
F 2 "Resistor_SMD:R_0805_2012Metric" V 7855 2825 50  0001 C CNN
F 3 "~" H 7925 2825 50  0001 C CNN
F 4 "RMCF0805FT14K0CT-ND" H 7925 2825 50  0001 C CNN "Digi-Key Part Number"
	1    7925 2825
	-1   0    0    1   
$EndComp
Wire Wire Line
	7925 2525 7925 2675
Wire Wire Line
	7925 2975 7925 3075
Text GLabel 7925 2525 1    50   Input ~ 0
VRef
Text Notes 2650 2300 0    50   ~ 0
30Vp
Text GLabel 4925 3075 2    50   Input ~ 0
AC_Feedback_ADC
Wire Wire Line
	4250 3075 4125 3075
Connection ~ 4125 3075
Text GLabel 9850 3175 2    50   Input ~ 0
VInputRef_ADC
Wire Wire Line
	9175 3175 9025 3175
Connection ~ 9025 3175
$Comp
L Device:C C?
U 1 1 5F1788C0
P 3875 1450
AR Path="/5F1788C0" Ref="C?"  Part="1" 
AR Path="/5F15CAB1/5F1788C0" Ref="C20"  Part="1" 
F 0 "C20" H 3990 1496 50  0000 L CNN
F 1 "0.1uF" H 3975 1325 50  0000 L CNN
F 2 "Capacitor_SMD:C_0402_1005Metric" H 3913 1300 50  0001 C CNN
F 3 "~" H 3875 1450 50  0001 C CNN
F 4 "1276-1043-1-ND" H 3875 1450 50  0001 C CNN "Digi-Key Part Number"
	1    3875 1450
	1    0    0    -1  
$EndComp
Wire Wire Line
	4325 1175 4325 1125
Wire Wire Line
	4325 1125 4075 1125
Wire Wire Line
	3875 1125 3875 1300
Wire Wire Line
	3875 1600 3875 1825
Wire Wire Line
	3875 1825 4100 1825
Wire Wire Line
	4325 1825 4325 1775
Wire Wire Line
	4100 1875 4100 1825
Connection ~ 4100 1825
Wire Wire Line
	4100 1825 4325 1825
Wire Wire Line
	4075 1100 4075 1125
Connection ~ 4075 1125
Wire Wire Line
	4075 1125 3875 1125
$Comp
L Device:R R?
U 1 1 5F196F33
P 7550 2350
AR Path="/5F196F33" Ref="R?"  Part="1" 
AR Path="/5F15CAB1/5F196F33" Ref="R11"  Part="1" 
F 0 "R11" V 7750 2350 50  0000 C CNN
F 1 "330K" V 7650 2350 50  0000 C CNN
F 2 "Resistor_SMD:R_0805_2012Metric" V 7480 2350 50  0001 C CNN
F 3 "~" H 7550 2350 50  0001 C CNN
F 4 "RMCF0805FT330KCT-ND" H 7550 2350 50  0001 C CNN "Digi-Key Part Number"
	1    7550 2350
	-1   0    0    1   
$EndComp
$Comp
L Device:R R?
U 1 1 5F197261
P 7550 1925
AR Path="/5F197261" Ref="R?"  Part="1" 
AR Path="/5F15CAB1/5F197261" Ref="R10"  Part="1" 
F 0 "R10" V 7750 1925 50  0000 C CNN
F 1 "330K" V 7650 1925 50  0000 C CNN
F 2 "Resistor_SMD:R_0805_2012Metric" V 7480 1925 50  0001 C CNN
F 3 "~" H 7550 1925 50  0001 C CNN
F 4 "RMCF0805FT330KCT-ND" H 7550 1925 50  0001 C CNN "Digi-Key Part Number"
	1    7550 1925
	-1   0    0    1   
$EndComp
$Comp
L Device:C C?
U 1 1 5F197558
P 7150 3325
AR Path="/5F197558" Ref="C?"  Part="1" 
AR Path="/5F15CAB1/5F197558" Ref="C21"  Part="1" 
F 0 "C21" V 6875 3275 50  0000 L CNN
F 1 "100 pF" V 6975 3175 50  0000 L CNN
F 2 "Capacitor_SMD:C_0603_1608Metric" H 7188 3175 50  0001 C CNN
F 3 "~" H 7150 3325 50  0001 C CNN
F 4 "1276-1102-1-ND" H 7150 3325 50  0001 C CNN "Digi-Key Part Number"
	1    7150 3325
	1    0    0    -1  
$EndComp
$Comp
L Device:D_TVS D3
U 1 1 5F19B360
P 6700 3350
F 0 "D3" V 6625 3175 50  0000 L CNN
F 1 "D_TVS" V 6750 3025 50  0000 L CNN
F 2 "Diode_SMD:D_0402_1005Metric" H 6700 3350 50  0001 C CNN
F 3 "~" H 6700 3350 50  0001 C CNN
F 4 "31-D3V3S1B2LP-7BCT-ND" H 6700 3350 50  0001 C CNN "Digi-Key Part Number"
	1    6700 3350
	0    1    1    0   
$EndComp
Wire Wire Line
	7550 3075 7150 3075
Wire Wire Line
	6700 3075 6700 3200
Wire Wire Line
	7150 3175 7150 3075
Connection ~ 7150 3075
Wire Wire Line
	7150 3075 6700 3075
Wire Wire Line
	6700 3500 6700 3550
Wire Wire Line
	6700 3550 7150 3550
Wire Wire Line
	7550 3550 7550 3450
Wire Wire Line
	7150 3475 7150 3550
Connection ~ 7150 3550
Wire Wire Line
	7150 3550 7550 3550
Wire Wire Line
	7150 3550 7150 3625
Wire Wire Line
	7550 2500 7550 2675
Wire Wire Line
	7550 2200 7550 2075
Text GLabel 7400 1625 0    50   Input ~ 0
VRefLive
Wire Wire Line
	7400 1625 7550 1625
Wire Wire Line
	7550 1625 7550 1775
Text Notes 7625 1675 0    50   ~ 0
400 Vp
Text Notes 7100 2175 0    50   ~ 0
266 Vp
Text Notes 7125 2625 0    50   ~ 0
134 Vp
Text Notes 7150 3025 0    50   ~ 0
1.34 Vp
$Comp
L Device:R R?
U 1 1 5F1A9A45
P 7750 3075
AR Path="/5F1A9A45" Ref="R?"  Part="1" 
AR Path="/5F15CAB1/5F1A9A45" Ref="R14"  Part="1" 
F 0 "R14" V 7550 3075 50  0000 C CNN
F 1 "8.2K" V 7650 3075 50  0000 C CNN
F 2 "Resistor_SMD:R_0805_2012Metric" V 7680 3075 50  0001 C CNN
F 3 "~" H 7750 3075 50  0001 C CNN
F 4 "RMCF0805FT8K20CT-ND" H 7750 3075 50  0001 C CNN "Digi-Key Part Number"
	1    7750 3075
	0    -1   -1   0   
$EndComp
Wire Wire Line
	7600 3075 7550 3075
Wire Wire Line
	7900 3075 7925 3075
Connection ~ 7925 3075
$Comp
L Device:C C?
U 1 1 5F1B416C
P 8050 4150
AR Path="/5F1B416C" Ref="C?"  Part="1" 
AR Path="/5F15CAB1/5F1B416C" Ref="C22"  Part="1" 
F 0 "C22" V 7775 4100 50  0000 L CNN
F 1 "4.7uF" V 7875 4050 50  0000 L CNN
F 2 "Capacitor_SMD:C_0805_2012Metric" H 8088 4000 50  0001 C CNN
F 3 "~" H 8050 4150 50  0001 C CNN
F 4 "1276-1244-1-ND" H 8050 4150 50  0001 C CNN "Digi-Key Part Number"
	1    8050 4150
	1    0    0    -1  
$EndComp
$Comp
L Device:R_POT_TRIM RV1
U 1 1 5F1B5523
P 8325 4475
F 0 "RV1" V 8118 4475 50  0000 C CNN
F 1 "100K" V 8209 4475 50  0000 C CNN
F 2 "digikey-footprints:Trimpot_3.8mmx3.6mm_TC33X-2-103E" H 8325 4475 50  0001 C CNN
F 3 "~" H 8325 4475 50  0001 C CNN
F 4 "TC33X-104ECT-ND" H 8325 4475 50  0001 C CNN "Digi-Key Part Number"
	1    8325 4475
	0    1    1    0   
$EndComp
Wire Wire Line
	8175 4475 8050 4475
Wire Wire Line
	8050 4475 8050 4300
Wire Wire Line
	8050 4000 8050 3875
Connection ~ 8050 3875
NoConn ~ 8475 4475
$Comp
L Device:R R?
U 1 1 5F1BBF8F
P 9325 3175
AR Path="/5F1BBF8F" Ref="R?"  Part="1" 
AR Path="/5F15CAB1/5F1BBF8F" Ref="R17"  Part="1" 
F 0 "R17" V 9525 3175 50  0000 C CNN
F 1 "100" V 9425 3175 50  0000 C CNN
F 2 "Resistor_SMD:R_0805_2012Metric" V 9255 3175 50  0001 C CNN
F 3 "~" H 9325 3175 50  0001 C CNN
F 4 "RMCF0805JT100RCT-ND" H 9325 3175 50  0001 C CNN "Digi-Key Part Number"
	1    9325 3175
	0    1    1    0   
$EndComp
$Comp
L Device:C C?
U 1 1 5F1BC2EC
P 9650 3400
AR Path="/5F1BC2EC" Ref="C?"  Part="1" 
AR Path="/5F15CAB1/5F1BC2EC" Ref="C24"  Part="1" 
F 0 "C24" V 9375 3350 50  0000 L CNN
F 1 "100p" V 9475 3300 50  0000 L CNN
F 2 "Capacitor_SMD:C_0603_1608Metric" H 9688 3250 50  0001 C CNN
F 3 "~" H 9650 3400 50  0001 C CNN
F 4 "732-7972-1-ND" H 9650 3400 50  0001 C CNN "Digi-Key Part Number"
	1    9650 3400
	-1   0    0    1   
$EndComp
$Comp
L power:GND #PWR?
U 1 1 5F1BC770
P 9650 3650
AR Path="/5F1BC770" Ref="#PWR?"  Part="1" 
AR Path="/5F15CAB1/5F1BC770" Ref="#PWR021"  Part="1" 
F 0 "#PWR021" H 9650 3400 50  0001 C CNN
F 1 "GND" H 9655 3477 50  0000 C CNN
F 2 "" H 9650 3650 50  0001 C CNN
F 3 "" H 9650 3650 50  0001 C CNN
	1    9650 3650
	1    0    0    -1  
$EndComp
Wire Wire Line
	9475 3175 9650 3175
Wire Wire Line
	9650 3175 9650 3250
Wire Wire Line
	9650 3550 9650 3650
Wire Wire Line
	9850 3175 9650 3175
Connection ~ 9650 3175
$Comp
L Device:R R?
U 1 1 5F1C837D
P 2650 2725
AR Path="/5F1C837D" Ref="R?"  Part="1" 
AR Path="/5F15CAB1/5F1C837D" Ref="R3"  Part="1" 
F 0 "R3" V 2850 2725 50  0000 C CNN
F 1 "100K" V 2750 2725 50  0000 C CNN
F 2 "Resistor_SMD:R_0805_2012Metric" V 2580 2725 50  0001 C CNN
F 3 "~" H 2650 2725 50  0001 C CNN
F 4 "RMCF0805FT100KCT-ND" H 2650 2725 50  0001 C CNN "Digi-Key Part Number"
	1    2650 2725
	-1   0    0    1   
$EndComp
$Comp
L Device:R R?
U 1 1 5F1C8387
P 2650 3200
AR Path="/5F1C8387" Ref="R?"  Part="1" 
AR Path="/5F15CAB1/5F1C8387" Ref="R4"  Part="1" 
F 0 "R4" V 2850 3200 50  0000 C CNN
F 1 "3.3K" V 2750 3200 50  0000 C CNN
F 2 "Resistor_SMD:R_0805_2012Metric" V 2580 3200 50  0001 C CNN
F 3 "~" H 2650 3200 50  0001 C CNN
F 4 "RMCF0805FG3K30CT-ND" H 2650 3200 50  0001 C CNN "Digi-Key Part Number"
	1    2650 3200
	-1   0    0    1   
$EndComp
$Comp
L power:GND #PWR?
U 1 1 5F1C8391
P 2250 3525
AR Path="/5F1C8391" Ref="#PWR?"  Part="1" 
AR Path="/5F15CAB1/5F1C8391" Ref="#PWR014"  Part="1" 
F 0 "#PWR014" H 2250 3275 50  0001 C CNN
F 1 "GND" H 2255 3352 50  0000 C CNN
F 2 "" H 2250 3525 50  0001 C CNN
F 3 "" H 2250 3525 50  0001 C CNN
	1    2250 3525
	1    0    0    -1  
$EndComp
Wire Wire Line
	3300 2975 3025 2975
Wire Wire Line
	2650 2975 2650 2875
Wire Wire Line
	2650 3050 2650 2975
Connection ~ 2650 2975
$Comp
L Device:R R?
U 1 1 5F1C839F
P 3025 2725
AR Path="/5F1C839F" Ref="R?"  Part="1" 
AR Path="/5F15CAB1/5F1C839F" Ref="R6"  Part="1" 
F 0 "R6" V 3225 2725 50  0000 C CNN
F 1 "14K" V 3125 2725 50  0000 C CNN
F 2 "Resistor_SMD:R_0805_2012Metric" V 2955 2725 50  0001 C CNN
F 3 "~" H 3025 2725 50  0001 C CNN
F 4 "RMCF0805FT14K0CT-ND" H 3025 2725 50  0001 C CNN "Digi-Key Part Number"
	1    3025 2725
	-1   0    0    1   
$EndComp
Wire Wire Line
	3025 2425 3025 2575
Wire Wire Line
	3025 2875 3025 2975
Text GLabel 3025 2425 1    50   Input ~ 0
VRef
$Comp
L Device:C C?
U 1 1 5F1C83C0
P 2250 3225
AR Path="/5F1C83C0" Ref="C?"  Part="1" 
AR Path="/5F15CAB1/5F1C83C0" Ref="C16"  Part="1" 
F 0 "C16" V 1975 3175 50  0000 L CNN
F 1 "100pF" V 2075 3075 50  0000 L CNN
F 2 "Capacitor_SMD:C_0603_1608Metric" H 2288 3075 50  0001 C CNN
F 3 "~" H 2250 3225 50  0001 C CNN
F 4 "1276-1102-1-ND" H 2250 3225 50  0001 C CNN "Digi-Key Part Number"
	1    2250 3225
	1    0    0    -1  
$EndComp
$Comp
L Device:D_TVS D2
U 1 1 5F1C83CA
P 1800 3250
F 0 "D2" V 1725 3075 50  0000 L CNN
F 1 "D_TVS" V 1850 2925 50  0000 L CNN
F 2 "Diode_SMD:D_0402_1005Metric" H 1800 3250 50  0001 C CNN
F 3 "~" H 1800 3250 50  0001 C CNN
F 4 "31-D3V3S1B2LP-7BCT-ND" H 1800 3250 50  0001 C CNN "Digi-Key Part Number"
	1    1800 3250
	0    1    1    0   
$EndComp
Wire Wire Line
	2650 2975 2250 2975
Wire Wire Line
	1800 2975 1800 3100
Wire Wire Line
	2250 3075 2250 2975
Connection ~ 2250 2975
Wire Wire Line
	2250 2975 1800 2975
Wire Wire Line
	1800 3400 1800 3450
Wire Wire Line
	1800 3450 2250 3450
Wire Wire Line
	2650 3450 2650 3350
Wire Wire Line
	2250 3375 2250 3450
Connection ~ 2250 3450
Wire Wire Line
	2250 3450 2650 3450
Wire Wire Line
	2250 3450 2250 3525
$Comp
L Device:R R?
U 1 1 5F1C83E5
P 2850 2975
AR Path="/5F1C83E5" Ref="R?"  Part="1" 
AR Path="/5F15CAB1/5F1C83E5" Ref="R5"  Part="1" 
F 0 "R5" V 2650 2975 50  0000 C CNN
F 1 "8.2K" V 2750 2975 50  0000 C CNN
F 2 "Resistor_SMD:R_0805_2012Metric" V 2780 2975 50  0001 C CNN
F 3 "~" H 2850 2975 50  0001 C CNN
F 4 "RMCF0805FT8K20CT-ND" H 2850 2975 50  0001 C CNN "Digi-Key Part Number"
	1    2850 2975
	0    -1   -1   0   
$EndComp
Wire Wire Line
	2700 2975 2650 2975
Wire Wire Line
	3000 2975 3025 2975
Connection ~ 3025 2975
Wire Wire Line
	2650 2375 2550 2375
Wire Wire Line
	2650 2375 2650 2575
$Comp
L Device:C C?
U 1 1 5F1E4E1C
P 3150 4275
AR Path="/5F1E4E1C" Ref="C?"  Part="1" 
AR Path="/5F15CAB1/5F1E4E1C" Ref="C17"  Part="1" 
F 0 "C17" V 2875 4225 50  0000 L CNN
F 1 "4.7uF" V 2975 4175 50  0000 L CNN
F 2 "Capacitor_SMD:C_0805_2012Metric" H 3188 4125 50  0001 C CNN
F 3 "~" H 3150 4275 50  0001 C CNN
F 4 "1276-1244-1-ND" H 3150 4275 50  0001 C CNN "Digi-Key Part Number"
	1    3150 4275
	1    0    0    -1  
$EndComp
Wire Wire Line
	3150 4425 3150 4500
$Comp
L Device:R R?
U 1 1 5F1E906B
P 4400 3075
AR Path="/5F1E906B" Ref="R?"  Part="1" 
AR Path="/5F15CAB1/5F1E906B" Ref="R9"  Part="1" 
F 0 "R9" V 4600 3075 50  0000 C CNN
F 1 "100" V 4500 3075 50  0000 C CNN
F 2 "Resistor_SMD:R_0805_2012Metric" V 4330 3075 50  0001 C CNN
F 3 "~" H 4400 3075 50  0001 C CNN
F 4 "RMCF0805JT100RCT-ND" H 4400 3075 50  0001 C CNN "Digi-Key Part Number"
	1    4400 3075
	0    1    1    0   
$EndComp
$Comp
L Device:C C?
U 1 1 5F1E9075
P 4725 3300
AR Path="/5F1E9075" Ref="C?"  Part="1" 
AR Path="/5F15CAB1/5F1E9075" Ref="C19"  Part="1" 
F 0 "C19" V 4450 3250 50  0000 L CNN
F 1 "100p" V 4550 3200 50  0000 L CNN
F 2 "Capacitor_SMD:C_0603_1608Metric" H 4763 3150 50  0001 C CNN
F 3 "~" H 4725 3300 50  0001 C CNN
F 4 "732-7972-1-ND" H 4725 3300 50  0001 C CNN "Digi-Key Part Number"
	1    4725 3300
	-1   0    0    1   
$EndComp
$Comp
L power:GND #PWR?
U 1 1 5F1E907F
P 4725 3550
AR Path="/5F1E907F" Ref="#PWR?"  Part="1" 
AR Path="/5F15CAB1/5F1E907F" Ref="#PWR016"  Part="1" 
F 0 "#PWR016" H 4725 3300 50  0001 C CNN
F 1 "GND" H 4730 3377 50  0000 C CNN
F 2 "" H 4725 3550 50  0001 C CNN
F 3 "" H 4725 3550 50  0001 C CNN
	1    4725 3550
	1    0    0    -1  
$EndComp
Wire Wire Line
	4550 3075 4725 3075
Wire Wire Line
	4725 3075 4725 3150
Wire Wire Line
	4725 3450 4725 3550
Wire Wire Line
	4925 3075 4725 3075
Connection ~ 4725 3075
$EndSCHEMATC
