(module Li-ion_Thesis_Footprint_Library:1984976_HV_Terminal (layer F.Cu) (tedit 5F16EB42)
  (fp_text reference J4 (at 10.082 3.663) (layer F.SilkS)
    (effects (font (size 0.5 0.5) (thickness 0.1)))
  )
  (fp_text value "Input Voltage AC" (at 2.716 3.917) (layer F.SilkS)
    (effects (font (size 0.8 0.8) (thickness 0.12)))
  )
  (fp_line (start -3.160397 4.801598) (end 9.093599 4.801598) (layer F.SilkS) (width 0.1524))
  (fp_line (start 9.093599 4.801598) (end 9.093599 -7.452401) (layer F.SilkS) (width 0.1524))
  (fp_line (start 9.093599 -7.452401) (end -3.160397 -7.452401) (layer F.SilkS) (width 0.1524))
  (fp_line (start -3.160397 -7.452401) (end -3.160397 4.801598) (layer F.SilkS) (width 0.1524))
  (fp_line (start -3.033397 4.674598) (end 8.966599 4.674598) (layer F.Fab) (width 0.1524))
  (fp_line (start 8.966599 4.674598) (end 8.966599 -7.325401) (layer F.Fab) (width 0.1524))
  (fp_line (start 8.966599 -7.325401) (end -3.033397 -7.325401) (layer F.Fab) (width 0.1524))
  (fp_line (start -3.033397 -7.325401) (end -3.033397 4.674598) (layer F.Fab) (width 0.1524))
  (fp_line (start -3.287397 -7.579401) (end -3.287397 4.928598) (layer F.CrtYd) (width 0.1524))
  (fp_line (start -3.287397 4.928598) (end 9.220599 4.928598) (layer F.CrtYd) (width 0.1524))
  (fp_line (start 9.220599 4.928598) (end 9.220599 -7.579401) (layer F.CrtYd) (width 0.1524))
  (fp_line (start 9.220599 -7.579401) (end -3.287397 -7.579401) (layer F.CrtYd) (width 0.1524))
  (fp_circle (center -3.795399 -0.0254) (end -3.414399 -0.0254) (layer F.SilkS) (width 0.1524))
  (pad 3 thru_hole circle (at 7.000001 0) (size 1.4986 1.4986) (drill 0.9906) (layers *.Cu *.Mask))
  (pad 2 thru_hole circle (at 3.500001 0) (size 1.4986 1.4986) (drill 0.9906) (layers *.Cu *.Mask))
  (pad 1 thru_hole circle (at 0 0) (size 1.4986 1.4986) (drill 0.9906) (layers *.Cu *.Mask))
  (model ${KIPRJMOD}/Footprint/packages3D/pxc_1984976_04_PTSA-1-5-3-3-5-F_3D.stp
    (offset (xyz -3.3 7.2 0))
    (scale (xyz 1 1 1))
    (rotate (xyz -90 0 90))
  )
)
