(module Li-ion_Thesis_Footprint_Library:1984976_HV_Terminal_2_Way (layer F.Cu) (tedit 5F20D866)
  (fp_text reference J7 (at -4.1206 -1.7627) (layer F.SilkS)
    (effects (font (size 0.5 0.5) (thickness 0.1)))
  )
  (fp_text value "Power Input" (at 0.934 -8.862) (layer F.SilkS)
    (effects (font (size 0.9 0.9) (thickness 0.15)))
  )
  (fp_text user * (at -0.4826 -0.0127) (layer F.Fab)
    (effects (font (size 1 1) (thickness 0.15)))
  )
  (fp_text user * (at -0.4826 -0.0127) (layer F.SilkS)
    (effects (font (size 1 1) (thickness 0.15)))
  )
  (fp_text user "Copyright 2016 Accelerated Designs. All rights reserved." (at -0.4826 -0.0127) (layer Cmts.User)
    (effects (font (size 0.127 0.127) (thickness 0.002)))
  )
  (fp_line (start -3.109597 4.814298) (end 5.4229 4.8006) (layer F.SilkS) (width 0.1524))
  (fp_line (start 5.423299 4.788898) (end 5.423299 -7.465101) (layer F.SilkS) (width 0.1524))
  (fp_line (start 5.423299 -7.465101) (end -3.109597 -7.439701) (layer F.SilkS) (width 0.1524))
  (fp_line (start -3.109597 -7.439701) (end -3.109597 4.814298) (layer F.SilkS) (width 0.1524))
  (fp_line (start -2.982597 4.687298) (end 5.2705 4.6863) (layer F.Fab) (width 0.1524))
  (fp_line (start 5.296299 4.661898) (end 5.296299 -7.338101) (layer F.Fab) (width 0.1524))
  (fp_line (start 5.296299 -7.338101) (end -2.982597 -7.312701) (layer F.Fab) (width 0.1524))
  (fp_line (start -2.982597 -7.312701) (end -2.982597 4.687298) (layer F.Fab) (width 0.1524))
  (fp_line (start -3.236597 -7.566701) (end -3.236597 4.941298) (layer F.CrtYd) (width 0.1524))
  (fp_line (start -3.236597 4.941298) (end 5.5626 4.9149) (layer F.CrtYd) (width 0.1524))
  (fp_line (start 5.550299 4.915898) (end 5.550299 -7.592101) (layer F.CrtYd) (width 0.1524))
  (fp_line (start 5.5626 -7.5819) (end -3.236597 -7.566701) (layer F.CrtYd) (width 0.1524))
  (fp_circle (center -0.4826 -1.9177) (end -0.1016 -1.9177) (layer F.Fab) (width 0.1524))
  (fp_circle (center -3.744599 -0.0127) (end -3.363599 -0.0127) (layer F.SilkS) (width 0.1524))
  (fp_circle (center -3.744599 -0.0127) (end -3.363599 -0.0127) (layer B.SilkS) (width 0.1524))
  (pad 2 thru_hole circle (at 3.500001 0) (size 1.4986 1.4986) (drill 0.9906) (layers *.Cu *.Mask))
  (pad 1 thru_hole circle (at 0 0) (size 1.4986 1.4986) (drill 0.9906) (layers *.Cu *.Mask))
  (model ${KIPRJMOD}/Footprint/packages3D/pxc_1984963_04_PTSA-1-5-2-3-5-F_3D.stp
    (offset (xyz -3.2 7.2 0))
    (scale (xyz 1 1 1))
    (rotate (xyz -90 0 90))
  )
)
