%TF.GenerationSoftware,KiCad,Pcbnew,(5.1.6)-1*%
%TF.CreationDate,2020-07-29T13:56:55+10:00*%
%TF.ProjectId,Motherboard_Li-ion_Project,4d6f7468-6572-4626-9f61-72645f4c692d,1*%
%TF.SameCoordinates,Original*%
%TF.FileFunction,Copper,L2,Bot*%
%TF.FilePolarity,Positive*%
%FSLAX46Y46*%
G04 Gerber Fmt 4.6, Leading zero omitted, Abs format (unit mm)*
G04 Created by KiCad (PCBNEW (5.1.6)-1) date 2020-07-29 13:56:55*
%MOMM*%
%LPD*%
G01*
G04 APERTURE LIST*
%TA.AperFunction,ComponentPad*%
%ADD10C,1.498600*%
%TD*%
%TA.AperFunction,ComponentPad*%
%ADD11O,1.700000X1.700000*%
%TD*%
%TA.AperFunction,ComponentPad*%
%ADD12R,1.700000X1.700000*%
%TD*%
%TA.AperFunction,ComponentPad*%
%ADD13O,0.900000X1.600000*%
%TD*%
%TA.AperFunction,ViaPad*%
%ADD14C,0.400000*%
%TD*%
%TA.AperFunction,ViaPad*%
%ADD15C,0.800000*%
%TD*%
%TA.AperFunction,ViaPad*%
%ADD16C,0.700000*%
%TD*%
%TA.AperFunction,Conductor*%
%ADD17C,0.600000*%
%TD*%
%TA.AperFunction,Conductor*%
%ADD18C,1.000000*%
%TD*%
%TA.AperFunction,Conductor*%
%ADD19C,0.250000*%
%TD*%
%TA.AperFunction,Conductor*%
%ADD20C,0.500000*%
%TD*%
%TA.AperFunction,Conductor*%
%ADD21C,0.400000*%
%TD*%
%TA.AperFunction,Conductor*%
%ADD22C,0.300000*%
%TD*%
%TA.AperFunction,Conductor*%
%ADD23C,3.000000*%
%TD*%
%TA.AperFunction,Conductor*%
%ADD24C,0.254000*%
%TD*%
G04 APERTURE END LIST*
D10*
%TO.P,J7,1*%
%TO.N,+5V*%
X163150000Y-103350000D03*
%TO.P,J7,2*%
%TO.N,GND*%
X166650001Y-103350000D03*
%TD*%
D11*
%TO.P,J1,16*%
%TO.N,/CPU/PC5*%
X105590000Y-99745000D03*
%TO.P,J1,15*%
%TO.N,GND*%
X103050000Y-99745000D03*
%TO.P,J1,14*%
%TO.N,/CPU/PC4*%
X105590000Y-97205000D03*
%TO.P,J1,13*%
%TO.N,/CPU/PA7*%
X103050000Y-97205000D03*
%TO.P,J1,12*%
%TO.N,/CPU/PA5*%
X105590000Y-94665000D03*
%TO.P,J1,11*%
%TO.N,GND*%
X103050000Y-94665000D03*
%TO.P,J1,10*%
%TO.N,/CPU/PA4*%
X105590000Y-92125000D03*
%TO.P,J1,9*%
%TO.N,/CPU/PA6*%
X103050000Y-92125000D03*
%TO.P,J1,8*%
%TO.N,+3V3*%
X105590000Y-89585000D03*
%TO.P,J1,7*%
%TO.N,/CPU/PA3*%
X103050000Y-89585000D03*
%TO.P,J1,6*%
%TO.N,/CPU/PA2*%
X105590000Y-87045000D03*
%TO.P,J1,5*%
%TO.N,GND*%
X103050000Y-87045000D03*
%TO.P,J1,4*%
%TO.N,/CPU/PA1*%
X105590000Y-84505000D03*
%TO.P,J1,3*%
%TO.N,+3V3*%
X103050000Y-84505000D03*
%TO.P,J1,2*%
%TO.N,/CPU/PA0*%
X105590000Y-81965000D03*
D12*
%TO.P,J1,1*%
%TO.N,/CPU/PC3*%
X103050000Y-81965000D03*
%TD*%
D11*
%TO.P,J8,12*%
%TO.N,/CPU/PE15*%
X139540000Y-106650000D03*
%TO.P,J8,11*%
%TO.N,/CPU/PE14*%
X137000000Y-106650000D03*
%TO.P,J8,10*%
%TO.N,/CPU/PE13*%
X134460000Y-106650000D03*
%TO.P,J8,9*%
%TO.N,/CPU/PE12*%
X131920000Y-106650000D03*
%TO.P,J8,8*%
%TO.N,/CPU/PE11*%
X129380000Y-106650000D03*
%TO.P,J8,7*%
%TO.N,/CPU/PE10*%
X126840000Y-106650000D03*
%TO.P,J8,6*%
%TO.N,/CPU/PE9*%
X124300000Y-106650000D03*
%TO.P,J8,5*%
%TO.N,/CPU/PE8*%
X121760000Y-106650000D03*
%TO.P,J8,4*%
%TO.N,/CPU/PE7*%
X119220000Y-106650000D03*
%TO.P,J8,3*%
%TO.N,/CPU/PB2*%
X116680000Y-106650000D03*
%TO.P,J8,2*%
%TO.N,GND*%
X114140000Y-106650000D03*
D12*
%TO.P,J8,1*%
%TO.N,+3V3*%
X111600000Y-106650000D03*
%TD*%
D10*
%TO.P,J5,1*%
%TO.N,AC_Feedback*%
X174275000Y-103375000D03*
%TO.P,J5,2*%
X177775001Y-103375000D03*
%TO.P,J5,3*%
%TO.N,GND*%
X181275001Y-103375000D03*
%TD*%
%TO.P,J4,1*%
%TO.N,GND*%
X186075000Y-90600000D03*
%TO.P,J4,2*%
X186075000Y-87099999D03*
%TO.P,J4,3*%
%TO.N,VRefLive*%
X186075000Y-83599999D03*
%TD*%
D11*
%TO.P,J3,10*%
%TO.N,NRST*%
X113165000Y-78415000D03*
%TO.P,J3,9*%
%TO.N,GND*%
X113165000Y-75875000D03*
%TO.P,J3,8*%
%TO.N,Net-(J3-Pad8)*%
X115705000Y-78415000D03*
%TO.P,J3,7*%
%TO.N,Net-(J3-Pad7)*%
X115705000Y-75875000D03*
%TO.P,J3,6*%
%TO.N,SWO*%
X118245000Y-78415000D03*
%TO.P,J3,5*%
%TO.N,GND*%
X118245000Y-75875000D03*
%TO.P,J3,4*%
%TO.N,SWDCLK*%
X120785000Y-78415000D03*
%TO.P,J3,3*%
%TO.N,GND*%
X120785000Y-75875000D03*
%TO.P,J3,2*%
%TO.N,SWDIO*%
X123325000Y-78415000D03*
D12*
%TO.P,J3,1*%
%TO.N,+3V3*%
X123325000Y-75875000D03*
%TD*%
D11*
%TO.P,JP1,3*%
%TO.N,+3V3*%
X134080000Y-76950000D03*
%TO.P,JP1,2*%
%TO.N,Net-(JP1-Pad2)*%
X131540000Y-76950000D03*
D12*
%TO.P,JP1,1*%
%TO.N,GND*%
X129000000Y-76950000D03*
%TD*%
D13*
%TO.P,J6,SH*%
%TO.N,GND*%
X149400000Y-105325000D03*
X156000000Y-105325000D03*
%TD*%
D11*
%TO.P,J2,6*%
%TO.N,I2C_Clock*%
X152400000Y-77750000D03*
%TO.P,J2,5*%
%TO.N,I2C_Data*%
X149860000Y-77750000D03*
%TO.P,J2,4*%
%TO.N,AC_Neutral_C*%
X147320000Y-77750000D03*
%TO.P,J2,3*%
X144780000Y-77750000D03*
%TO.P,J2,2*%
%TO.N,GND*%
X142240000Y-77750000D03*
D12*
%TO.P,J2,1*%
%TO.N,+5V*%
X139700000Y-77750000D03*
%TD*%
D14*
%TO.N,GND*%
X126950000Y-91050000D03*
X128000000Y-89625000D03*
D15*
%TO.N,+5V*%
X151125000Y-100775000D03*
D14*
X146500000Y-90025000D03*
X149675000Y-92750000D03*
%TO.N,+3V3*%
X127100000Y-87500000D03*
X146875000Y-84975000D03*
D16*
X152125000Y-90550000D03*
D15*
X162475000Y-90750000D03*
D14*
X168050000Y-85200000D03*
X144525000Y-99100000D03*
X130425000Y-83325000D03*
X130900000Y-91050000D03*
X127825000Y-96100000D03*
X151050000Y-80175000D03*
X130625000Y-99325000D03*
X154900000Y-81175000D03*
%TO.N,I2C_Clock*%
X135626409Y-83051409D03*
%TO.N,I2C_Data*%
X134825000Y-83075000D03*
X146225000Y-79900000D03*
%TO.N,VRef*%
X178350000Y-88200000D03*
X131550000Y-95550000D03*
%TO.N,VInputRef_ADC*%
X162450000Y-97325000D03*
X152900000Y-97350000D03*
X136200007Y-97349993D03*
%TO.N,NRST*%
X131250000Y-92350000D03*
X114253416Y-83106000D03*
%TO.N,SWDIO*%
X143575000Y-87375000D03*
%TO.N,AC_Feedback_ADC*%
X136450000Y-97925000D03*
X163725000Y-97925000D03*
X147650000Y-97925000D03*
%TO.N,VCurrent*%
X140750000Y-86175000D03*
X154475000Y-83650000D03*
%TO.N,Net-(JP1-Pad2)*%
X134050000Y-83100000D03*
%TO.N,/CPU/PA7*%
X133897590Y-101601191D03*
%TO.N,/CPU/PB2*%
X135925000Y-102325000D03*
%TO.N,/CPU/PE7*%
X136850000Y-102300000D03*
%TO.N,/CPU/PC3*%
X128475000Y-94525000D03*
%TO.N,/CPU/PA6*%
X133274999Y-101575001D03*
%TO.N,/CPU/PA4*%
X132200000Y-101025000D03*
%TD*%
D17*
%TO.N,GND*%
X126950000Y-90675000D02*
X128000000Y-89625000D01*
X126950000Y-91050000D02*
X126950000Y-90675000D01*
D18*
%TO.N,+5V*%
X160575000Y-100775000D02*
X163150000Y-103350000D01*
X151125000Y-100775000D02*
X160575000Y-100775000D01*
D19*
X146500000Y-90025000D02*
X149225000Y-92750000D01*
X149225000Y-92750000D02*
X149675000Y-92750000D01*
D20*
%TO.N,I2C_Clock*%
X149400000Y-80750000D02*
X152400000Y-77750000D01*
X135626409Y-83051409D02*
X137927818Y-80750000D01*
X137927818Y-80750000D02*
X149400000Y-80750000D01*
%TO.N,I2C_Data*%
X149860000Y-77750000D02*
X149860000Y-78265000D01*
X148225000Y-79900000D02*
X146225000Y-79900000D01*
X149860000Y-78265000D02*
X148225000Y-79900000D01*
X146225000Y-79900000D02*
X137800000Y-79900000D01*
X134825000Y-82875000D02*
X134825000Y-83075000D01*
X137800000Y-79900000D02*
X134825000Y-82875000D01*
D17*
%TO.N,VRef*%
X171000000Y-95550000D02*
X131550000Y-95550000D01*
X178350000Y-88200000D02*
X171000000Y-95550000D01*
D21*
%TO.N,VInputRef_ADC*%
X162425000Y-97350000D02*
X162450000Y-97325000D01*
X152900000Y-97350000D02*
X162425000Y-97350000D01*
X152900000Y-97350000D02*
X136200000Y-97350000D01*
X136200000Y-97350000D02*
X136200007Y-97349993D01*
D22*
%TO.N,NRST*%
X131750001Y-89375001D02*
X125481000Y-83106000D01*
X131250000Y-92350000D02*
X131750001Y-91849999D01*
X125481000Y-83106000D02*
X114253416Y-83106000D01*
X131750001Y-91849999D02*
X131750001Y-89375001D01*
%TO.N,SWDIO*%
X132285000Y-87375000D02*
X143575000Y-87375000D01*
X123325000Y-78415000D02*
X132285000Y-87375000D01*
D21*
%TO.N,AC_Feedback_ADC*%
X136450000Y-97925000D02*
X147650000Y-97925000D01*
X147650000Y-97925000D02*
X163725000Y-97925000D01*
D23*
%TO.N,AC_Neutral_C*%
X144780000Y-77750000D02*
X147320000Y-77750000D01*
D22*
%TO.N,VCurrent*%
X140750000Y-86175000D02*
X149325000Y-86175000D01*
X149325000Y-86175000D02*
X153400000Y-86175000D01*
X153400000Y-86175000D02*
X154475000Y-85100000D01*
X154475000Y-85100000D02*
X154475000Y-83650000D01*
%TO.N,Net-(JP1-Pad2)*%
X134050000Y-79460000D02*
X134050000Y-83100000D01*
X131540000Y-76950000D02*
X134050000Y-79460000D01*
%TO.N,/CPU/PA7*%
X133631623Y-102150000D02*
X133897590Y-101884033D01*
X104202401Y-98357401D02*
X105907955Y-98357401D01*
X103050000Y-97205000D02*
X104202401Y-98357401D01*
X109700554Y-102150000D02*
X133631623Y-102150000D01*
X105907955Y-98357401D02*
X109700554Y-102150000D01*
X133897590Y-101884033D02*
X133897590Y-101601191D01*
%TO.N,/CPU/PB2*%
X119000000Y-104100000D02*
X116600000Y-106500000D01*
X135925000Y-102325000D02*
X134150000Y-104100000D01*
X134150000Y-104100000D02*
X119000000Y-104100000D01*
%TO.N,/CPU/PE7*%
X120890000Y-104750000D02*
X119140000Y-106500000D01*
X136850000Y-102300000D02*
X134400000Y-104750000D01*
X134400000Y-104750000D02*
X120890000Y-104750000D01*
%TO.N,/CPU/PC3*%
X104202401Y-83117401D02*
X103050000Y-81965000D01*
X106143153Y-83117401D02*
X104202401Y-83117401D01*
X117550752Y-94525000D02*
X106143153Y-83117401D01*
X128475000Y-94525000D02*
X117550752Y-94525000D01*
%TO.N,/CPU/PA6*%
X104437599Y-93512599D02*
X106687599Y-93512599D01*
X106687599Y-93512599D02*
X107750000Y-94575000D01*
X103050000Y-92125000D02*
X104437599Y-93512599D01*
X107750000Y-94575000D02*
X107567777Y-94392777D01*
X107750000Y-94575000D02*
X114750001Y-101575001D01*
X132992157Y-101575001D02*
X133274999Y-101575001D01*
X114750001Y-101575001D02*
X132992157Y-101575001D01*
%TO.N,/CPU/PA4*%
X115694482Y-101027401D02*
X106792081Y-92125000D01*
X130268554Y-101025000D02*
X130266153Y-101027401D01*
X106792081Y-92125000D02*
X105590000Y-92125000D01*
X130266153Y-101027401D02*
X115694482Y-101027401D01*
X132200000Y-101025000D02*
X130268554Y-101025000D01*
%TD*%
D24*
%TO.N,+3V3*%
G36*
X185447350Y-74259042D02*
G01*
X186372898Y-74473573D01*
X187255350Y-74825635D01*
X188074388Y-75307124D01*
X188811175Y-75906962D01*
X189448759Y-76611353D01*
X189972454Y-77404071D01*
X190370218Y-78266887D01*
X190632892Y-79179934D01*
X190756626Y-80139192D01*
X190765000Y-80458958D01*
X190765001Y-101523968D01*
X190690958Y-102497350D01*
X190476427Y-103422898D01*
X190124365Y-104305350D01*
X189642874Y-105124392D01*
X189043033Y-105861181D01*
X188338644Y-106498762D01*
X187545932Y-107022453D01*
X186683113Y-107420218D01*
X185770066Y-107682892D01*
X184810808Y-107806626D01*
X184491042Y-107815000D01*
X140469384Y-107815000D01*
X140486632Y-107803475D01*
X140693475Y-107596632D01*
X140855990Y-107353411D01*
X140967932Y-107083158D01*
X141025000Y-106796260D01*
X141025000Y-106503740D01*
X140967932Y-106216842D01*
X140855990Y-105946589D01*
X140693475Y-105703368D01*
X140486632Y-105496525D01*
X140243411Y-105334010D01*
X139973158Y-105222068D01*
X139686260Y-105165000D01*
X139393740Y-105165000D01*
X139106842Y-105222068D01*
X138836589Y-105334010D01*
X138593368Y-105496525D01*
X138386525Y-105703368D01*
X138270000Y-105877760D01*
X138153475Y-105703368D01*
X137946632Y-105496525D01*
X137703411Y-105334010D01*
X137433158Y-105222068D01*
X137146260Y-105165000D01*
X136853740Y-105165000D01*
X136566842Y-105222068D01*
X136296589Y-105334010D01*
X136053368Y-105496525D01*
X135846525Y-105703368D01*
X135730000Y-105877760D01*
X135613475Y-105703368D01*
X135406632Y-105496525D01*
X135163411Y-105334010D01*
X134995640Y-105264517D01*
X135338450Y-104921707D01*
X148315000Y-104921707D01*
X148315000Y-105728294D01*
X148330700Y-105887697D01*
X148392742Y-106092220D01*
X148493492Y-106280710D01*
X148629079Y-106445922D01*
X148794291Y-106581509D01*
X148982781Y-106682259D01*
X149187304Y-106744300D01*
X149400000Y-106765249D01*
X149612697Y-106744300D01*
X149817220Y-106682259D01*
X150005710Y-106581509D01*
X150170922Y-106445922D01*
X150306509Y-106280710D01*
X150407259Y-106092220D01*
X150469300Y-105887696D01*
X150485000Y-105728293D01*
X150485000Y-104921707D01*
X154915000Y-104921707D01*
X154915000Y-105728294D01*
X154930700Y-105887697D01*
X154992742Y-106092220D01*
X155093492Y-106280710D01*
X155229079Y-106445922D01*
X155394291Y-106581509D01*
X155582781Y-106682259D01*
X155787304Y-106744300D01*
X156000000Y-106765249D01*
X156212697Y-106744300D01*
X156417220Y-106682259D01*
X156605710Y-106581509D01*
X156770922Y-106445922D01*
X156906509Y-106280710D01*
X157007259Y-106092220D01*
X157069300Y-105887696D01*
X157085000Y-105728293D01*
X157085000Y-104921706D01*
X157069300Y-104762303D01*
X157007259Y-104557780D01*
X156906509Y-104369290D01*
X156770922Y-104204078D01*
X156605710Y-104068491D01*
X156417219Y-103967741D01*
X156212696Y-103905700D01*
X156000000Y-103884751D01*
X155787303Y-103905700D01*
X155582780Y-103967741D01*
X155394290Y-104068491D01*
X155229078Y-104204078D01*
X155093491Y-104369290D01*
X154992741Y-104557781D01*
X154930700Y-104762304D01*
X154915000Y-104921707D01*
X150485000Y-104921707D01*
X150485000Y-104921706D01*
X150469300Y-104762303D01*
X150407259Y-104557780D01*
X150306509Y-104369290D01*
X150170922Y-104204078D01*
X150005710Y-104068491D01*
X149817219Y-103967741D01*
X149612696Y-103905700D01*
X149400000Y-103884751D01*
X149187303Y-103905700D01*
X148982780Y-103967741D01*
X148794290Y-104068491D01*
X148629078Y-104204078D01*
X148493491Y-104369290D01*
X148392741Y-104557781D01*
X148330700Y-104762304D01*
X148315000Y-104921707D01*
X135338450Y-104921707D01*
X137202280Y-103057878D01*
X137245521Y-103039967D01*
X137382281Y-102948587D01*
X137498587Y-102832281D01*
X137589967Y-102695521D01*
X137652911Y-102543560D01*
X137685000Y-102382240D01*
X137685000Y-102217760D01*
X137652911Y-102056440D01*
X137589967Y-101904479D01*
X137498587Y-101767719D01*
X137382281Y-101651413D01*
X137245521Y-101560033D01*
X137093560Y-101497089D01*
X136932240Y-101465000D01*
X136767760Y-101465000D01*
X136606440Y-101497089D01*
X136454479Y-101560033D01*
X136368792Y-101617287D01*
X136320521Y-101585033D01*
X136168560Y-101522089D01*
X136007240Y-101490000D01*
X135842760Y-101490000D01*
X135681440Y-101522089D01*
X135529479Y-101585033D01*
X135392719Y-101676413D01*
X135276413Y-101792719D01*
X135185033Y-101929479D01*
X135167122Y-101972720D01*
X133824843Y-103315000D01*
X119038556Y-103315000D01*
X119000000Y-103311203D01*
X118961444Y-103315000D01*
X118961439Y-103315000D01*
X118921026Y-103318980D01*
X118846113Y-103326358D01*
X118698140Y-103371246D01*
X118561767Y-103444138D01*
X118442236Y-103542236D01*
X118417655Y-103572188D01*
X116824843Y-105165000D01*
X116533740Y-105165000D01*
X116246842Y-105222068D01*
X115976589Y-105334010D01*
X115733368Y-105496525D01*
X115526525Y-105703368D01*
X115410000Y-105877760D01*
X115293475Y-105703368D01*
X115086632Y-105496525D01*
X114843411Y-105334010D01*
X114573158Y-105222068D01*
X114286260Y-105165000D01*
X113993740Y-105165000D01*
X113706842Y-105222068D01*
X113436589Y-105334010D01*
X113193368Y-105496525D01*
X113061513Y-105628380D01*
X113039502Y-105555820D01*
X112980537Y-105445506D01*
X112901185Y-105348815D01*
X112804494Y-105269463D01*
X112694180Y-105210498D01*
X112574482Y-105174188D01*
X112450000Y-105161928D01*
X111885750Y-105165000D01*
X111727000Y-105323750D01*
X111727000Y-106523000D01*
X111747000Y-106523000D01*
X111747000Y-106777000D01*
X111727000Y-106777000D01*
X111727000Y-106797000D01*
X111473000Y-106797000D01*
X111473000Y-106777000D01*
X110273750Y-106777000D01*
X110115000Y-106935750D01*
X110111928Y-107500000D01*
X110124188Y-107624482D01*
X110160498Y-107744180D01*
X110198353Y-107815000D01*
X107426019Y-107815000D01*
X106452650Y-107740958D01*
X105527102Y-107526427D01*
X104644650Y-107174365D01*
X103825608Y-106692874D01*
X103088819Y-106093033D01*
X102823579Y-105800000D01*
X110111928Y-105800000D01*
X110115000Y-106364250D01*
X110273750Y-106523000D01*
X111473000Y-106523000D01*
X111473000Y-105323750D01*
X111314250Y-105165000D01*
X110750000Y-105161928D01*
X110625518Y-105174188D01*
X110505820Y-105210498D01*
X110395506Y-105269463D01*
X110298815Y-105348815D01*
X110219463Y-105445506D01*
X110160498Y-105555820D01*
X110124188Y-105675518D01*
X110111928Y-105800000D01*
X102823579Y-105800000D01*
X102451238Y-105388644D01*
X101927547Y-104595932D01*
X101529782Y-103733113D01*
X101267108Y-102820066D01*
X101143374Y-101860808D01*
X101135000Y-101541042D01*
X101135000Y-81115000D01*
X101561928Y-81115000D01*
X101561928Y-82815000D01*
X101574188Y-82939482D01*
X101610498Y-83059180D01*
X101669463Y-83169494D01*
X101748815Y-83266185D01*
X101845506Y-83345537D01*
X101955820Y-83404502D01*
X102036466Y-83428966D01*
X101952412Y-83504731D01*
X101778359Y-83738080D01*
X101653175Y-84000901D01*
X101608524Y-84148110D01*
X101729845Y-84378000D01*
X102923000Y-84378000D01*
X102923000Y-84358000D01*
X103177000Y-84358000D01*
X103177000Y-84378000D01*
X103197000Y-84378000D01*
X103197000Y-84632000D01*
X103177000Y-84632000D01*
X103177000Y-84652000D01*
X102923000Y-84652000D01*
X102923000Y-84632000D01*
X101729845Y-84632000D01*
X101608524Y-84861890D01*
X101653175Y-85009099D01*
X101778359Y-85271920D01*
X101952412Y-85505269D01*
X102168645Y-85700178D01*
X102285534Y-85769805D01*
X102103368Y-85891525D01*
X101896525Y-86098368D01*
X101734010Y-86341589D01*
X101622068Y-86611842D01*
X101565000Y-86898740D01*
X101565000Y-87191260D01*
X101622068Y-87478158D01*
X101734010Y-87748411D01*
X101896525Y-87991632D01*
X102103368Y-88198475D01*
X102277760Y-88315000D01*
X102103368Y-88431525D01*
X101896525Y-88638368D01*
X101734010Y-88881589D01*
X101622068Y-89151842D01*
X101565000Y-89438740D01*
X101565000Y-89731260D01*
X101622068Y-90018158D01*
X101734010Y-90288411D01*
X101896525Y-90531632D01*
X102103368Y-90738475D01*
X102277760Y-90855000D01*
X102103368Y-90971525D01*
X101896525Y-91178368D01*
X101734010Y-91421589D01*
X101622068Y-91691842D01*
X101565000Y-91978740D01*
X101565000Y-92271260D01*
X101622068Y-92558158D01*
X101734010Y-92828411D01*
X101896525Y-93071632D01*
X102103368Y-93278475D01*
X102277760Y-93395000D01*
X102103368Y-93511525D01*
X101896525Y-93718368D01*
X101734010Y-93961589D01*
X101622068Y-94231842D01*
X101565000Y-94518740D01*
X101565000Y-94811260D01*
X101622068Y-95098158D01*
X101734010Y-95368411D01*
X101896525Y-95611632D01*
X102103368Y-95818475D01*
X102277760Y-95935000D01*
X102103368Y-96051525D01*
X101896525Y-96258368D01*
X101734010Y-96501589D01*
X101622068Y-96771842D01*
X101565000Y-97058740D01*
X101565000Y-97351260D01*
X101622068Y-97638158D01*
X101734010Y-97908411D01*
X101896525Y-98151632D01*
X102103368Y-98358475D01*
X102277760Y-98475000D01*
X102103368Y-98591525D01*
X101896525Y-98798368D01*
X101734010Y-99041589D01*
X101622068Y-99311842D01*
X101565000Y-99598740D01*
X101565000Y-99891260D01*
X101622068Y-100178158D01*
X101734010Y-100448411D01*
X101896525Y-100691632D01*
X102103368Y-100898475D01*
X102346589Y-101060990D01*
X102616842Y-101172932D01*
X102903740Y-101230000D01*
X103196260Y-101230000D01*
X103483158Y-101172932D01*
X103753411Y-101060990D01*
X103996632Y-100898475D01*
X104203475Y-100691632D01*
X104320000Y-100517240D01*
X104436525Y-100691632D01*
X104643368Y-100898475D01*
X104886589Y-101060990D01*
X105156842Y-101172932D01*
X105443740Y-101230000D01*
X105736260Y-101230000D01*
X106023158Y-101172932D01*
X106293411Y-101060990D01*
X106536632Y-100898475D01*
X106743475Y-100691632D01*
X106899108Y-100458711D01*
X109118212Y-102677816D01*
X109142790Y-102707764D01*
X109172738Y-102732342D01*
X109172741Y-102732345D01*
X109179916Y-102738233D01*
X109262321Y-102805862D01*
X109385572Y-102871740D01*
X109398694Y-102878754D01*
X109546667Y-102923642D01*
X109621580Y-102931020D01*
X109661993Y-102935000D01*
X109661998Y-102935000D01*
X109700554Y-102938797D01*
X109739109Y-102935000D01*
X133593070Y-102935000D01*
X133631623Y-102938797D01*
X133670176Y-102935000D01*
X133670184Y-102935000D01*
X133785510Y-102923641D01*
X133933483Y-102878754D01*
X134069856Y-102805862D01*
X134189387Y-102707764D01*
X134213970Y-102677810D01*
X134425401Y-102466379D01*
X134455354Y-102441797D01*
X134553452Y-102322266D01*
X134626344Y-102185893D01*
X134654398Y-102093411D01*
X134671231Y-102037921D01*
X134673662Y-102013234D01*
X134682590Y-101922594D01*
X134682590Y-101922587D01*
X134686387Y-101884034D01*
X134685973Y-101879826D01*
X134700501Y-101844751D01*
X134732590Y-101683431D01*
X134732590Y-101518951D01*
X134700501Y-101357631D01*
X134637557Y-101205670D01*
X134546177Y-101068910D01*
X134429871Y-100952604D01*
X134293111Y-100861224D01*
X134141150Y-100798280D01*
X134024116Y-100775000D01*
X149984509Y-100775000D01*
X150006423Y-100997499D01*
X150071324Y-101211447D01*
X150176716Y-101408623D01*
X150318551Y-101581449D01*
X150491377Y-101723284D01*
X150688553Y-101828676D01*
X150902501Y-101893577D01*
X151069248Y-101910000D01*
X160104869Y-101910000D01*
X161786679Y-103591811D01*
X161818898Y-103753785D01*
X161923249Y-104005712D01*
X162074744Y-104232440D01*
X162267560Y-104425256D01*
X162494288Y-104576751D01*
X162746215Y-104681102D01*
X163013658Y-104734300D01*
X163286342Y-104734300D01*
X163553785Y-104681102D01*
X163805712Y-104576751D01*
X164032440Y-104425256D01*
X164225256Y-104232440D01*
X164376751Y-104005712D01*
X164481102Y-103753785D01*
X164534300Y-103486342D01*
X164534300Y-103213658D01*
X165265701Y-103213658D01*
X165265701Y-103486342D01*
X165318899Y-103753785D01*
X165423250Y-104005712D01*
X165574745Y-104232440D01*
X165767561Y-104425256D01*
X165994289Y-104576751D01*
X166246216Y-104681102D01*
X166513659Y-104734300D01*
X166786343Y-104734300D01*
X167053786Y-104681102D01*
X167305713Y-104576751D01*
X167532441Y-104425256D01*
X167725257Y-104232440D01*
X167876752Y-104005712D01*
X167981103Y-103753785D01*
X168034301Y-103486342D01*
X168034301Y-103238658D01*
X172890700Y-103238658D01*
X172890700Y-103511342D01*
X172943898Y-103778785D01*
X173048249Y-104030712D01*
X173199744Y-104257440D01*
X173392560Y-104450256D01*
X173619288Y-104601751D01*
X173871215Y-104706102D01*
X174138658Y-104759300D01*
X174411342Y-104759300D01*
X174678785Y-104706102D01*
X174930712Y-104601751D01*
X175157440Y-104450256D01*
X175350256Y-104257440D01*
X175501751Y-104030712D01*
X175606102Y-103778785D01*
X175659300Y-103511342D01*
X175659300Y-103238658D01*
X176390701Y-103238658D01*
X176390701Y-103511342D01*
X176443899Y-103778785D01*
X176548250Y-104030712D01*
X176699745Y-104257440D01*
X176892561Y-104450256D01*
X177119289Y-104601751D01*
X177371216Y-104706102D01*
X177638659Y-104759300D01*
X177911343Y-104759300D01*
X178178786Y-104706102D01*
X178430713Y-104601751D01*
X178657441Y-104450256D01*
X178850257Y-104257440D01*
X179001752Y-104030712D01*
X179106103Y-103778785D01*
X179159301Y-103511342D01*
X179159301Y-103238658D01*
X179890701Y-103238658D01*
X179890701Y-103511342D01*
X179943899Y-103778785D01*
X180048250Y-104030712D01*
X180199745Y-104257440D01*
X180392561Y-104450256D01*
X180619289Y-104601751D01*
X180871216Y-104706102D01*
X181138659Y-104759300D01*
X181411343Y-104759300D01*
X181678786Y-104706102D01*
X181930713Y-104601751D01*
X182157441Y-104450256D01*
X182350257Y-104257440D01*
X182501752Y-104030712D01*
X182606103Y-103778785D01*
X182659301Y-103511342D01*
X182659301Y-103238658D01*
X182606103Y-102971215D01*
X182501752Y-102719288D01*
X182350257Y-102492560D01*
X182157441Y-102299744D01*
X181930713Y-102148249D01*
X181678786Y-102043898D01*
X181411343Y-101990700D01*
X181138659Y-101990700D01*
X180871216Y-102043898D01*
X180619289Y-102148249D01*
X180392561Y-102299744D01*
X180199745Y-102492560D01*
X180048250Y-102719288D01*
X179943899Y-102971215D01*
X179890701Y-103238658D01*
X179159301Y-103238658D01*
X179106103Y-102971215D01*
X179001752Y-102719288D01*
X178850257Y-102492560D01*
X178657441Y-102299744D01*
X178430713Y-102148249D01*
X178178786Y-102043898D01*
X177911343Y-101990700D01*
X177638659Y-101990700D01*
X177371216Y-102043898D01*
X177119289Y-102148249D01*
X176892561Y-102299744D01*
X176699745Y-102492560D01*
X176548250Y-102719288D01*
X176443899Y-102971215D01*
X176390701Y-103238658D01*
X175659300Y-103238658D01*
X175606102Y-102971215D01*
X175501751Y-102719288D01*
X175350256Y-102492560D01*
X175157440Y-102299744D01*
X174930712Y-102148249D01*
X174678785Y-102043898D01*
X174411342Y-101990700D01*
X174138658Y-101990700D01*
X173871215Y-102043898D01*
X173619288Y-102148249D01*
X173392560Y-102299744D01*
X173199744Y-102492560D01*
X173048249Y-102719288D01*
X172943898Y-102971215D01*
X172890700Y-103238658D01*
X168034301Y-103238658D01*
X168034301Y-103213658D01*
X167981103Y-102946215D01*
X167876752Y-102694288D01*
X167725257Y-102467560D01*
X167532441Y-102274744D01*
X167305713Y-102123249D01*
X167053786Y-102018898D01*
X166786343Y-101965700D01*
X166513659Y-101965700D01*
X166246216Y-102018898D01*
X165994289Y-102123249D01*
X165767561Y-102274744D01*
X165574745Y-102467560D01*
X165423250Y-102694288D01*
X165318899Y-102946215D01*
X165265701Y-103213658D01*
X164534300Y-103213658D01*
X164481102Y-102946215D01*
X164376751Y-102694288D01*
X164225256Y-102467560D01*
X164032440Y-102274744D01*
X163805712Y-102123249D01*
X163553785Y-102018898D01*
X163391811Y-101986679D01*
X161416996Y-100011865D01*
X161381449Y-99968551D01*
X161208623Y-99826716D01*
X161011447Y-99721324D01*
X160797499Y-99656423D01*
X160630752Y-99640000D01*
X160630751Y-99640000D01*
X160575000Y-99634509D01*
X160519249Y-99640000D01*
X151069248Y-99640000D01*
X150902501Y-99656423D01*
X150688553Y-99721324D01*
X150491377Y-99826716D01*
X150318551Y-99968551D01*
X150176716Y-100141377D01*
X150071324Y-100338553D01*
X150006423Y-100552501D01*
X149984509Y-100775000D01*
X134024116Y-100775000D01*
X133979830Y-100766191D01*
X133815350Y-100766191D01*
X133654030Y-100798280D01*
X133617909Y-100813242D01*
X133518559Y-100772090D01*
X133357239Y-100740001D01*
X133192759Y-100740001D01*
X133031439Y-100772090D01*
X133003364Y-100783719D01*
X133002911Y-100781440D01*
X132939967Y-100629479D01*
X132848587Y-100492719D01*
X132732281Y-100376413D01*
X132595521Y-100285033D01*
X132443560Y-100222089D01*
X132282240Y-100190000D01*
X132117760Y-100190000D01*
X131956440Y-100222089D01*
X131913199Y-100240000D01*
X130307110Y-100240000D01*
X130268554Y-100236203D01*
X130229999Y-100240000D01*
X130229993Y-100240000D01*
X130205616Y-100242401D01*
X116019640Y-100242401D01*
X113127239Y-97350000D01*
X135360960Y-97350000D01*
X135365007Y-97391090D01*
X135365007Y-97432233D01*
X135373034Y-97472585D01*
X135377082Y-97513689D01*
X135389072Y-97553216D01*
X135397096Y-97593553D01*
X135412834Y-97631548D01*
X135424828Y-97671087D01*
X135444304Y-97707524D01*
X135460040Y-97745514D01*
X135482886Y-97779706D01*
X135502364Y-97816146D01*
X135528576Y-97848085D01*
X135551420Y-97882274D01*
X135580495Y-97911349D01*
X135606709Y-97943291D01*
X135613294Y-97948695D01*
X135615000Y-97966019D01*
X135615000Y-98007240D01*
X135623042Y-98047668D01*
X135627082Y-98088689D01*
X135639048Y-98128136D01*
X135647089Y-98168560D01*
X135662861Y-98206638D01*
X135674828Y-98246087D01*
X135694260Y-98282442D01*
X135710033Y-98320521D01*
X135732933Y-98354793D01*
X135752364Y-98391146D01*
X135778513Y-98423009D01*
X135801413Y-98457281D01*
X135830559Y-98486427D01*
X135856709Y-98518291D01*
X135888573Y-98544441D01*
X135917719Y-98573587D01*
X135951991Y-98596487D01*
X135983854Y-98622636D01*
X136020207Y-98642067D01*
X136054479Y-98664967D01*
X136092558Y-98680740D01*
X136128913Y-98700172D01*
X136168362Y-98712139D01*
X136206440Y-98727911D01*
X136246864Y-98735952D01*
X136286311Y-98747918D01*
X136327332Y-98751958D01*
X136367760Y-98760000D01*
X163807240Y-98760000D01*
X163847668Y-98751958D01*
X163888689Y-98747918D01*
X163928136Y-98735952D01*
X163968560Y-98727911D01*
X164006638Y-98712139D01*
X164046087Y-98700172D01*
X164082442Y-98680740D01*
X164120521Y-98664967D01*
X164154793Y-98642067D01*
X164191146Y-98622636D01*
X164223009Y-98596487D01*
X164257281Y-98573587D01*
X164286427Y-98544441D01*
X164318291Y-98518291D01*
X164344441Y-98486427D01*
X164373587Y-98457281D01*
X164396487Y-98423009D01*
X164422636Y-98391146D01*
X164442067Y-98354793D01*
X164464967Y-98320521D01*
X164480740Y-98282442D01*
X164500172Y-98246087D01*
X164512139Y-98206638D01*
X164527911Y-98168560D01*
X164535952Y-98128136D01*
X164547918Y-98088689D01*
X164551958Y-98047668D01*
X164560000Y-98007240D01*
X164560000Y-97966019D01*
X164564040Y-97925000D01*
X164560000Y-97883981D01*
X164560000Y-97842760D01*
X164551958Y-97802332D01*
X164547918Y-97761311D01*
X164535952Y-97721864D01*
X164527911Y-97681440D01*
X164512139Y-97643362D01*
X164500172Y-97603913D01*
X164480740Y-97567558D01*
X164464967Y-97529479D01*
X164442067Y-97495207D01*
X164422636Y-97458854D01*
X164396487Y-97426991D01*
X164373587Y-97392719D01*
X164344441Y-97363573D01*
X164318291Y-97331709D01*
X164286427Y-97305559D01*
X164257281Y-97276413D01*
X164223009Y-97253513D01*
X164191146Y-97227364D01*
X164154793Y-97207933D01*
X164120521Y-97185033D01*
X164082442Y-97169260D01*
X164046087Y-97149828D01*
X164006638Y-97137861D01*
X163968560Y-97122089D01*
X163928136Y-97114048D01*
X163888689Y-97102082D01*
X163847668Y-97098042D01*
X163807240Y-97090000D01*
X163254614Y-97090000D01*
X163252911Y-97081440D01*
X163237134Y-97043350D01*
X163225171Y-97003914D01*
X163205744Y-96967569D01*
X163189967Y-96929479D01*
X163167063Y-96895201D01*
X163147636Y-96858855D01*
X163121492Y-96826998D01*
X163098587Y-96792719D01*
X163069433Y-96763565D01*
X163043290Y-96731710D01*
X163011435Y-96705567D01*
X162982281Y-96676413D01*
X162948002Y-96653508D01*
X162916145Y-96627364D01*
X162879799Y-96607937D01*
X162845521Y-96585033D01*
X162807431Y-96569256D01*
X162771086Y-96549829D01*
X162731650Y-96537866D01*
X162693560Y-96522089D01*
X162653121Y-96514045D01*
X162613687Y-96502083D01*
X162572680Y-96498044D01*
X162532240Y-96490000D01*
X162491007Y-96490000D01*
X162449999Y-96485961D01*
X162408991Y-96490000D01*
X162367760Y-96490000D01*
X162327321Y-96498044D01*
X162286312Y-96502083D01*
X162246877Y-96514046D01*
X162242078Y-96515000D01*
X136282282Y-96515000D01*
X136282247Y-96514993D01*
X136241025Y-96514993D01*
X136200007Y-96510953D01*
X136158989Y-96514993D01*
X136117767Y-96514993D01*
X136077338Y-96523035D01*
X136036319Y-96527075D01*
X135996874Y-96539040D01*
X135956447Y-96547082D01*
X135918367Y-96562855D01*
X135878921Y-96574821D01*
X135842569Y-96594251D01*
X135804486Y-96610026D01*
X135770210Y-96632929D01*
X135733862Y-96652357D01*
X135702003Y-96678503D01*
X135667726Y-96701406D01*
X135638573Y-96730559D01*
X135606709Y-96756709D01*
X135580561Y-96788571D01*
X135551420Y-96817712D01*
X135528526Y-96851976D01*
X135502364Y-96883854D01*
X135482924Y-96920224D01*
X135460040Y-96954472D01*
X135444278Y-96992524D01*
X135424828Y-97028913D01*
X135412850Y-97068399D01*
X135397096Y-97106433D01*
X135389064Y-97146811D01*
X135377082Y-97186311D01*
X135373036Y-97227388D01*
X135365007Y-97267753D01*
X135365007Y-97308910D01*
X135360960Y-97350000D01*
X113127239Y-97350000D01*
X111327239Y-95550000D01*
X130610476Y-95550000D01*
X130628529Y-95733292D01*
X130681993Y-95909540D01*
X130768814Y-96071972D01*
X130885656Y-96214344D01*
X131028028Y-96331186D01*
X131190460Y-96418007D01*
X131366708Y-96471471D01*
X131504068Y-96485000D01*
X170954068Y-96485000D01*
X171000000Y-96489524D01*
X171045932Y-96485000D01*
X171183292Y-96471471D01*
X171359540Y-96418007D01*
X171521972Y-96331186D01*
X171664344Y-96214344D01*
X171693630Y-96178659D01*
X177408631Y-90463658D01*
X184690700Y-90463658D01*
X184690700Y-90736342D01*
X184743898Y-91003785D01*
X184848249Y-91255712D01*
X184999744Y-91482440D01*
X185192560Y-91675256D01*
X185419288Y-91826751D01*
X185671215Y-91931102D01*
X185938658Y-91984300D01*
X186211342Y-91984300D01*
X186478785Y-91931102D01*
X186730712Y-91826751D01*
X186957440Y-91675256D01*
X187150256Y-91482440D01*
X187301751Y-91255712D01*
X187406102Y-91003785D01*
X187459300Y-90736342D01*
X187459300Y-90463658D01*
X187406102Y-90196215D01*
X187301751Y-89944288D01*
X187150256Y-89717560D01*
X186957440Y-89524744D01*
X186730712Y-89373249D01*
X186478785Y-89268898D01*
X186211342Y-89215700D01*
X185938658Y-89215700D01*
X185671215Y-89268898D01*
X185419288Y-89373249D01*
X185192560Y-89524744D01*
X184999744Y-89717560D01*
X184848249Y-89944288D01*
X184743898Y-90196215D01*
X184690700Y-90463658D01*
X177408631Y-90463658D01*
X179043623Y-88828666D01*
X179131185Y-88721972D01*
X179218007Y-88559541D01*
X179271472Y-88383292D01*
X179289524Y-88200000D01*
X179271472Y-88016708D01*
X179218007Y-87840460D01*
X179131185Y-87678029D01*
X179014344Y-87535656D01*
X178871971Y-87418815D01*
X178709540Y-87331993D01*
X178533292Y-87278528D01*
X178350000Y-87260476D01*
X178166708Y-87278528D01*
X177990459Y-87331993D01*
X177828028Y-87418815D01*
X177721334Y-87506377D01*
X170612711Y-94615000D01*
X131504068Y-94615000D01*
X131366708Y-94628529D01*
X131190460Y-94681993D01*
X131028028Y-94768814D01*
X130885656Y-94885656D01*
X130768814Y-95028028D01*
X130681993Y-95190460D01*
X130628529Y-95366708D01*
X130610476Y-95550000D01*
X111327239Y-95550000D01*
X107374428Y-91597190D01*
X107349845Y-91567236D01*
X107230314Y-91469138D01*
X107093941Y-91396246D01*
X106945968Y-91351359D01*
X106852942Y-91342196D01*
X106743475Y-91178368D01*
X106536632Y-90971525D01*
X106354466Y-90849805D01*
X106471355Y-90780178D01*
X106687588Y-90585269D01*
X106861641Y-90351920D01*
X106986825Y-90089099D01*
X107031476Y-89941890D01*
X106910155Y-89712000D01*
X105717000Y-89712000D01*
X105717000Y-89732000D01*
X105463000Y-89732000D01*
X105463000Y-89712000D01*
X105443000Y-89712000D01*
X105443000Y-89458000D01*
X105463000Y-89458000D01*
X105463000Y-89438000D01*
X105717000Y-89438000D01*
X105717000Y-89458000D01*
X106910155Y-89458000D01*
X107031476Y-89228110D01*
X106986825Y-89080901D01*
X106861641Y-88818080D01*
X106687588Y-88584731D01*
X106471355Y-88389822D01*
X106354466Y-88320195D01*
X106536632Y-88198475D01*
X106743475Y-87991632D01*
X106905990Y-87748411D01*
X107017932Y-87478158D01*
X107075000Y-87191260D01*
X107075000Y-86898740D01*
X107017932Y-86611842D01*
X106905990Y-86341589D01*
X106743475Y-86098368D01*
X106536632Y-85891525D01*
X106362240Y-85775000D01*
X106536632Y-85658475D01*
X106743475Y-85451632D01*
X106905990Y-85208411D01*
X106969845Y-85054250D01*
X116968410Y-95052816D01*
X116992988Y-95082764D01*
X117022936Y-95107342D01*
X117022939Y-95107345D01*
X117052311Y-95131450D01*
X117112519Y-95180862D01*
X117248892Y-95253754D01*
X117362424Y-95288194D01*
X117396864Y-95298641D01*
X117411242Y-95300057D01*
X117512191Y-95310000D01*
X117512198Y-95310000D01*
X117550751Y-95313797D01*
X117589304Y-95310000D01*
X128188199Y-95310000D01*
X128231440Y-95327911D01*
X128392760Y-95360000D01*
X128557240Y-95360000D01*
X128718560Y-95327911D01*
X128870521Y-95264967D01*
X129007281Y-95173587D01*
X129123587Y-95057281D01*
X129214967Y-94920521D01*
X129277911Y-94768560D01*
X129310000Y-94607240D01*
X129310000Y-94442760D01*
X129277911Y-94281440D01*
X129214967Y-94129479D01*
X129123587Y-93992719D01*
X129007281Y-93876413D01*
X128870521Y-93785033D01*
X128852000Y-93777361D01*
X128852000Y-92503597D01*
X130433125Y-92523361D01*
X130447089Y-92593560D01*
X130510033Y-92745521D01*
X130601413Y-92882281D01*
X130717719Y-92998587D01*
X130854479Y-93089967D01*
X131006440Y-93152911D01*
X131167760Y-93185000D01*
X131332240Y-93185000D01*
X131493560Y-93152911D01*
X131645521Y-93089967D01*
X131782281Y-92998587D01*
X131898587Y-92882281D01*
X131989967Y-92745521D01*
X132007879Y-92702278D01*
X132277812Y-92432345D01*
X132307765Y-92407763D01*
X132405863Y-92288232D01*
X132478755Y-92151859D01*
X132494058Y-92101413D01*
X132523642Y-92003887D01*
X132529236Y-91947089D01*
X132535001Y-91888560D01*
X132535001Y-91888553D01*
X132538798Y-91850000D01*
X132535001Y-91811447D01*
X132535001Y-89942760D01*
X145665000Y-89942760D01*
X145665000Y-90107240D01*
X145697089Y-90268560D01*
X145760033Y-90420521D01*
X145851413Y-90557281D01*
X145967719Y-90673587D01*
X146104479Y-90764967D01*
X146208078Y-90807879D01*
X148661201Y-93261003D01*
X148684999Y-93290001D01*
X148713997Y-93313799D01*
X148800723Y-93384974D01*
X148905521Y-93440990D01*
X148932753Y-93455546D01*
X149076014Y-93499003D01*
X149187667Y-93510000D01*
X149187677Y-93510000D01*
X149225000Y-93513676D01*
X149262323Y-93510000D01*
X149327843Y-93510000D01*
X149431440Y-93552911D01*
X149592760Y-93585000D01*
X149757240Y-93585000D01*
X149918560Y-93552911D01*
X150070521Y-93489967D01*
X150207281Y-93398587D01*
X150323587Y-93282281D01*
X150414967Y-93145521D01*
X150477911Y-92993560D01*
X150510000Y-92832240D01*
X150510000Y-92667760D01*
X150477911Y-92506440D01*
X150414967Y-92354479D01*
X150323587Y-92217719D01*
X150207281Y-92101413D01*
X150070521Y-92010033D01*
X149918560Y-91947089D01*
X149757240Y-91915000D01*
X149592760Y-91915000D01*
X149486032Y-91936230D01*
X147282879Y-89733078D01*
X147239967Y-89629479D01*
X147148587Y-89492719D01*
X147032281Y-89376413D01*
X146895521Y-89285033D01*
X146743560Y-89222089D01*
X146582240Y-89190000D01*
X146417760Y-89190000D01*
X146256440Y-89222089D01*
X146104479Y-89285033D01*
X145967719Y-89376413D01*
X145851413Y-89492719D01*
X145760033Y-89629479D01*
X145697089Y-89781440D01*
X145665000Y-89942760D01*
X132535001Y-89942760D01*
X132535001Y-89413553D01*
X132538798Y-89375000D01*
X132535001Y-89336447D01*
X132535001Y-89336440D01*
X132523642Y-89221114D01*
X132478755Y-89073141D01*
X132405863Y-88936768D01*
X132307765Y-88817237D01*
X132277817Y-88792659D01*
X126063347Y-82578190D01*
X126038764Y-82548236D01*
X125919233Y-82450138D01*
X125782860Y-82377246D01*
X125634887Y-82332359D01*
X125519561Y-82321000D01*
X125519553Y-82321000D01*
X125481000Y-82317203D01*
X125442447Y-82321000D01*
X114540217Y-82321000D01*
X114496976Y-82303089D01*
X114335656Y-82271000D01*
X114171176Y-82271000D01*
X114009856Y-82303089D01*
X113857895Y-82366033D01*
X113721135Y-82457413D01*
X113604829Y-82573719D01*
X113513449Y-82710479D01*
X113450505Y-82862440D01*
X113418416Y-83023760D01*
X113418416Y-83188240D01*
X113450505Y-83349560D01*
X113513449Y-83501521D01*
X113604829Y-83638281D01*
X113721135Y-83754587D01*
X113857895Y-83845967D01*
X114009856Y-83908911D01*
X114171176Y-83941000D01*
X114335656Y-83941000D01*
X114496976Y-83908911D01*
X114540217Y-83891000D01*
X125155843Y-83891000D01*
X130965002Y-89700160D01*
X130965001Y-91524842D01*
X130897722Y-91592121D01*
X130854479Y-91610033D01*
X130852000Y-91611689D01*
X130852000Y-91300000D01*
X130849560Y-91275224D01*
X130842333Y-91251399D01*
X130830597Y-91229443D01*
X130814803Y-91210197D01*
X130795557Y-91194403D01*
X130773601Y-91182667D01*
X130749776Y-91175440D01*
X130726587Y-91173010D01*
X128852939Y-91149589D01*
X128861543Y-89996632D01*
X128868006Y-89984541D01*
X128921471Y-89808293D01*
X128939524Y-89625001D01*
X128921471Y-89441709D01*
X128868006Y-89265460D01*
X128867014Y-89263603D01*
X128876996Y-87925948D01*
X128877000Y-87925000D01*
X128877000Y-87900000D01*
X128874560Y-87875224D01*
X128867333Y-87851399D01*
X128855597Y-87829443D01*
X128839803Y-87810197D01*
X128820557Y-87794403D01*
X128798601Y-87782667D01*
X128774776Y-87775440D01*
X128751573Y-87773010D01*
X120676573Y-87673010D01*
X120651768Y-87675143D01*
X120627856Y-87682074D01*
X120605756Y-87693538D01*
X120586316Y-87709092D01*
X120570285Y-87728140D01*
X120558278Y-87749950D01*
X120550757Y-87773683D01*
X120548001Y-87799473D01*
X120523352Y-93740000D01*
X117875910Y-93740000D01*
X106865267Y-82729358D01*
X106905990Y-82668411D01*
X107017932Y-82398158D01*
X107075000Y-82111260D01*
X107075000Y-81818740D01*
X107017932Y-81531842D01*
X106905990Y-81261589D01*
X106743475Y-81018368D01*
X106536632Y-80811525D01*
X106293411Y-80649010D01*
X106023158Y-80537068D01*
X105736260Y-80480000D01*
X105443740Y-80480000D01*
X105156842Y-80537068D01*
X104886589Y-80649010D01*
X104643368Y-80811525D01*
X104511513Y-80943380D01*
X104489502Y-80870820D01*
X104430537Y-80760506D01*
X104351185Y-80663815D01*
X104254494Y-80584463D01*
X104144180Y-80525498D01*
X104024482Y-80489188D01*
X103900000Y-80476928D01*
X102200000Y-80476928D01*
X102075518Y-80489188D01*
X101955820Y-80525498D01*
X101845506Y-80584463D01*
X101748815Y-80663815D01*
X101669463Y-80760506D01*
X101610498Y-80870820D01*
X101574188Y-80990518D01*
X101561928Y-81115000D01*
X101135000Y-81115000D01*
X101135000Y-80476019D01*
X101209042Y-79502650D01*
X101423573Y-78577102D01*
X101775635Y-77694650D01*
X102257124Y-76875612D01*
X102856962Y-76138825D01*
X103310016Y-75728740D01*
X111680000Y-75728740D01*
X111680000Y-76021260D01*
X111737068Y-76308158D01*
X111849010Y-76578411D01*
X112011525Y-76821632D01*
X112218368Y-77028475D01*
X112392760Y-77145000D01*
X112218368Y-77261525D01*
X112011525Y-77468368D01*
X111849010Y-77711589D01*
X111737068Y-77981842D01*
X111680000Y-78268740D01*
X111680000Y-78561260D01*
X111737068Y-78848158D01*
X111849010Y-79118411D01*
X112011525Y-79361632D01*
X112218368Y-79568475D01*
X112461589Y-79730990D01*
X112731842Y-79842932D01*
X113018740Y-79900000D01*
X113311260Y-79900000D01*
X113598158Y-79842932D01*
X113868411Y-79730990D01*
X114111632Y-79568475D01*
X114318475Y-79361632D01*
X114435000Y-79187240D01*
X114551525Y-79361632D01*
X114758368Y-79568475D01*
X115001589Y-79730990D01*
X115271842Y-79842932D01*
X115558740Y-79900000D01*
X115851260Y-79900000D01*
X116138158Y-79842932D01*
X116408411Y-79730990D01*
X116651632Y-79568475D01*
X116858475Y-79361632D01*
X116975000Y-79187240D01*
X117091525Y-79361632D01*
X117298368Y-79568475D01*
X117541589Y-79730990D01*
X117811842Y-79842932D01*
X118098740Y-79900000D01*
X118391260Y-79900000D01*
X118678158Y-79842932D01*
X118948411Y-79730990D01*
X119191632Y-79568475D01*
X119398475Y-79361632D01*
X119515000Y-79187240D01*
X119631525Y-79361632D01*
X119838368Y-79568475D01*
X120081589Y-79730990D01*
X120351842Y-79842932D01*
X120638740Y-79900000D01*
X120931260Y-79900000D01*
X121218158Y-79842932D01*
X121488411Y-79730990D01*
X121731632Y-79568475D01*
X121938475Y-79361632D01*
X122055000Y-79187240D01*
X122171525Y-79361632D01*
X122378368Y-79568475D01*
X122621589Y-79730990D01*
X122891842Y-79842932D01*
X123178740Y-79900000D01*
X123471260Y-79900000D01*
X123661918Y-79862075D01*
X131702653Y-87902810D01*
X131727236Y-87932764D01*
X131846767Y-88030862D01*
X131976117Y-88100000D01*
X131983140Y-88103754D01*
X132131113Y-88148642D01*
X132206026Y-88156020D01*
X132246439Y-88160000D01*
X132246444Y-88160000D01*
X132285000Y-88163797D01*
X132323556Y-88160000D01*
X143288199Y-88160000D01*
X143331440Y-88177911D01*
X143492760Y-88210000D01*
X143657240Y-88210000D01*
X143818560Y-88177911D01*
X143970521Y-88114967D01*
X144107281Y-88023587D01*
X144223587Y-87907281D01*
X144314967Y-87770521D01*
X144377911Y-87618560D01*
X144410000Y-87457240D01*
X144410000Y-87292760D01*
X144377911Y-87131440D01*
X144314967Y-86979479D01*
X144301952Y-86960000D01*
X153361447Y-86960000D01*
X153400000Y-86963797D01*
X153401421Y-86963657D01*
X184690700Y-86963657D01*
X184690700Y-87236341D01*
X184743898Y-87503784D01*
X184848249Y-87755711D01*
X184999744Y-87982439D01*
X185192560Y-88175255D01*
X185419288Y-88326750D01*
X185671215Y-88431101D01*
X185938658Y-88484299D01*
X186211342Y-88484299D01*
X186478785Y-88431101D01*
X186730712Y-88326750D01*
X186957440Y-88175255D01*
X187150256Y-87982439D01*
X187301751Y-87755711D01*
X187406102Y-87503784D01*
X187459300Y-87236341D01*
X187459300Y-86963657D01*
X187406102Y-86696214D01*
X187301751Y-86444287D01*
X187150256Y-86217559D01*
X186957440Y-86024743D01*
X186730712Y-85873248D01*
X186478785Y-85768897D01*
X186211342Y-85715699D01*
X185938658Y-85715699D01*
X185671215Y-85768897D01*
X185419288Y-85873248D01*
X185192560Y-86024743D01*
X184999744Y-86217559D01*
X184848249Y-86444287D01*
X184743898Y-86696214D01*
X184690700Y-86963657D01*
X153401421Y-86963657D01*
X153438553Y-86960000D01*
X153438561Y-86960000D01*
X153553887Y-86948641D01*
X153701860Y-86903754D01*
X153838233Y-86830862D01*
X153957764Y-86732764D01*
X153982347Y-86702810D01*
X155002811Y-85682346D01*
X155032764Y-85657764D01*
X155130862Y-85538233D01*
X155203754Y-85401860D01*
X155222519Y-85340000D01*
X155248642Y-85253887D01*
X155256020Y-85178974D01*
X155260000Y-85138561D01*
X155260000Y-85138556D01*
X155263797Y-85100000D01*
X155260000Y-85061444D01*
X155260000Y-83936801D01*
X155277911Y-83893560D01*
X155310000Y-83732240D01*
X155310000Y-83567760D01*
X155289293Y-83463657D01*
X184690700Y-83463657D01*
X184690700Y-83736341D01*
X184743898Y-84003784D01*
X184848249Y-84255711D01*
X184999744Y-84482439D01*
X185192560Y-84675255D01*
X185419288Y-84826750D01*
X185671215Y-84931101D01*
X185938658Y-84984299D01*
X186211342Y-84984299D01*
X186478785Y-84931101D01*
X186730712Y-84826750D01*
X186957440Y-84675255D01*
X187150256Y-84482439D01*
X187301751Y-84255711D01*
X187406102Y-84003784D01*
X187459300Y-83736341D01*
X187459300Y-83463657D01*
X187406102Y-83196214D01*
X187301751Y-82944287D01*
X187150256Y-82717559D01*
X186957440Y-82524743D01*
X186730712Y-82373248D01*
X186478785Y-82268897D01*
X186211342Y-82215699D01*
X185938658Y-82215699D01*
X185671215Y-82268897D01*
X185419288Y-82373248D01*
X185192560Y-82524743D01*
X184999744Y-82717559D01*
X184848249Y-82944287D01*
X184743898Y-83196214D01*
X184690700Y-83463657D01*
X155289293Y-83463657D01*
X155277911Y-83406440D01*
X155214967Y-83254479D01*
X155123587Y-83117719D01*
X155007281Y-83001413D01*
X154870521Y-82910033D01*
X154718560Y-82847089D01*
X154557240Y-82815000D01*
X154392760Y-82815000D01*
X154231440Y-82847089D01*
X154079479Y-82910033D01*
X153942719Y-83001413D01*
X153826413Y-83117719D01*
X153735033Y-83254479D01*
X153672089Y-83406440D01*
X153640000Y-83567760D01*
X153640000Y-83732240D01*
X153672089Y-83893560D01*
X153690001Y-83936803D01*
X153690000Y-84774843D01*
X153074843Y-85390000D01*
X141036801Y-85390000D01*
X140993560Y-85372089D01*
X140832240Y-85340000D01*
X140667760Y-85340000D01*
X140506440Y-85372089D01*
X140354479Y-85435033D01*
X140217719Y-85526413D01*
X140101413Y-85642719D01*
X140010033Y-85779479D01*
X139947089Y-85931440D01*
X139915000Y-86092760D01*
X139915000Y-86257240D01*
X139947089Y-86418560D01*
X140010033Y-86570521D01*
X140023048Y-86590000D01*
X132610157Y-86590000D01*
X124772075Y-78751918D01*
X124810000Y-78561260D01*
X124810000Y-78268740D01*
X124752932Y-77981842D01*
X124640990Y-77711589D01*
X124478475Y-77468368D01*
X124346620Y-77336513D01*
X124419180Y-77314502D01*
X124529494Y-77255537D01*
X124626185Y-77176185D01*
X124705537Y-77079494D01*
X124764502Y-76969180D01*
X124800812Y-76849482D01*
X124813072Y-76725000D01*
X124810000Y-76160750D01*
X124749250Y-76100000D01*
X127511928Y-76100000D01*
X127511928Y-77800000D01*
X127524188Y-77924482D01*
X127560498Y-78044180D01*
X127619463Y-78154494D01*
X127698815Y-78251185D01*
X127795506Y-78330537D01*
X127905820Y-78389502D01*
X128025518Y-78425812D01*
X128150000Y-78438072D01*
X129850000Y-78438072D01*
X129974482Y-78425812D01*
X130094180Y-78389502D01*
X130204494Y-78330537D01*
X130301185Y-78251185D01*
X130380537Y-78154494D01*
X130439502Y-78044180D01*
X130461513Y-77971620D01*
X130593368Y-78103475D01*
X130836589Y-78265990D01*
X131106842Y-78377932D01*
X131393740Y-78435000D01*
X131686260Y-78435000D01*
X131876918Y-78397075D01*
X133265000Y-79785158D01*
X133265001Y-82813197D01*
X133247089Y-82856440D01*
X133215000Y-83017760D01*
X133215000Y-83182240D01*
X133247089Y-83343560D01*
X133310033Y-83495521D01*
X133401413Y-83632281D01*
X133517719Y-83748587D01*
X133654479Y-83839967D01*
X133806440Y-83902911D01*
X133967760Y-83935000D01*
X134132240Y-83935000D01*
X134293560Y-83902911D01*
X134407905Y-83855548D01*
X134484688Y-83896589D01*
X134651511Y-83947195D01*
X134825000Y-83964282D01*
X134998490Y-83947195D01*
X135165313Y-83896589D01*
X135247774Y-83852513D01*
X135286096Y-83872997D01*
X135452919Y-83923604D01*
X135626409Y-83940690D01*
X135799899Y-83923604D01*
X135966722Y-83872997D01*
X136120468Y-83790819D01*
X136221455Y-83707941D01*
X138294397Y-81635000D01*
X149356531Y-81635000D01*
X149400000Y-81639281D01*
X149443469Y-81635000D01*
X149443477Y-81635000D01*
X149573490Y-81622195D01*
X149740313Y-81571589D01*
X149894059Y-81489411D01*
X150028817Y-81378817D01*
X150056534Y-81345044D01*
X152181040Y-79220539D01*
X152253740Y-79235000D01*
X152546260Y-79235000D01*
X152833158Y-79177932D01*
X153103411Y-79065990D01*
X153346632Y-78903475D01*
X153553475Y-78696632D01*
X153715990Y-78453411D01*
X153827932Y-78183158D01*
X153885000Y-77896260D01*
X153885000Y-77603740D01*
X153827932Y-77316842D01*
X153715990Y-77046589D01*
X153553475Y-76803368D01*
X153346632Y-76596525D01*
X153103411Y-76434010D01*
X152833158Y-76322068D01*
X152546260Y-76265000D01*
X152253740Y-76265000D01*
X151966842Y-76322068D01*
X151696589Y-76434010D01*
X151453368Y-76596525D01*
X151246525Y-76803368D01*
X151130000Y-76977760D01*
X151013475Y-76803368D01*
X150806632Y-76596525D01*
X150563411Y-76434010D01*
X150293158Y-76322068D01*
X150006260Y-76265000D01*
X149713740Y-76265000D01*
X149426842Y-76322068D01*
X149156589Y-76434010D01*
X149056699Y-76500754D01*
X148836977Y-76233023D01*
X148511881Y-75966223D01*
X148140982Y-75767974D01*
X147738533Y-75645892D01*
X147424882Y-75615000D01*
X144675118Y-75615000D01*
X144361467Y-75645892D01*
X143959018Y-75767974D01*
X143588119Y-75966223D01*
X143263023Y-76233023D01*
X143043301Y-76500754D01*
X142943411Y-76434010D01*
X142673158Y-76322068D01*
X142386260Y-76265000D01*
X142093740Y-76265000D01*
X141806842Y-76322068D01*
X141536589Y-76434010D01*
X141293368Y-76596525D01*
X141161513Y-76728380D01*
X141139502Y-76655820D01*
X141080537Y-76545506D01*
X141001185Y-76448815D01*
X140904494Y-76369463D01*
X140794180Y-76310498D01*
X140674482Y-76274188D01*
X140550000Y-76261928D01*
X138850000Y-76261928D01*
X138725518Y-76274188D01*
X138605820Y-76310498D01*
X138495506Y-76369463D01*
X138398815Y-76448815D01*
X138319463Y-76545506D01*
X138260498Y-76655820D01*
X138224188Y-76775518D01*
X138211928Y-76900000D01*
X138211928Y-78600000D01*
X138224188Y-78724482D01*
X138260498Y-78844180D01*
X138319463Y-78954494D01*
X138369119Y-79015000D01*
X137843465Y-79015000D01*
X137799999Y-79010719D01*
X137756533Y-79015000D01*
X137756523Y-79015000D01*
X137626510Y-79027805D01*
X137459687Y-79078411D01*
X137305941Y-79160589D01*
X137305939Y-79160590D01*
X137305940Y-79160590D01*
X137204953Y-79243468D01*
X137204951Y-79243470D01*
X137171183Y-79271183D01*
X137143470Y-79304951D01*
X134835000Y-81613422D01*
X134835000Y-79498552D01*
X134838797Y-79459999D01*
X134835000Y-79421446D01*
X134835000Y-79421439D01*
X134823641Y-79306113D01*
X134778754Y-79158140D01*
X134705862Y-79021767D01*
X134649422Y-78952996D01*
X134632345Y-78932187D01*
X134632342Y-78932184D01*
X134607764Y-78902236D01*
X134577817Y-78877659D01*
X134135158Y-78435000D01*
X134207002Y-78435000D01*
X134207002Y-78270156D01*
X134436890Y-78391476D01*
X134584099Y-78346825D01*
X134846920Y-78221641D01*
X135080269Y-78047588D01*
X135275178Y-77831355D01*
X135424157Y-77581252D01*
X135521481Y-77306891D01*
X135400814Y-77077000D01*
X134207000Y-77077000D01*
X134207000Y-77097000D01*
X133953000Y-77097000D01*
X133953000Y-77077000D01*
X133933000Y-77077000D01*
X133933000Y-76823000D01*
X133953000Y-76823000D01*
X133953000Y-75629845D01*
X134207000Y-75629845D01*
X134207000Y-76823000D01*
X135400814Y-76823000D01*
X135521481Y-76593109D01*
X135424157Y-76318748D01*
X135275178Y-76068645D01*
X135080269Y-75852412D01*
X134846920Y-75678359D01*
X134584099Y-75553175D01*
X134436890Y-75508524D01*
X134207000Y-75629845D01*
X133953000Y-75629845D01*
X133723110Y-75508524D01*
X133575901Y-75553175D01*
X133313080Y-75678359D01*
X133079731Y-75852412D01*
X132884822Y-76068645D01*
X132815195Y-76185534D01*
X132693475Y-76003368D01*
X132486632Y-75796525D01*
X132243411Y-75634010D01*
X131973158Y-75522068D01*
X131686260Y-75465000D01*
X131393740Y-75465000D01*
X131106842Y-75522068D01*
X130836589Y-75634010D01*
X130593368Y-75796525D01*
X130461513Y-75928380D01*
X130439502Y-75855820D01*
X130380537Y-75745506D01*
X130301185Y-75648815D01*
X130204494Y-75569463D01*
X130094180Y-75510498D01*
X129974482Y-75474188D01*
X129850000Y-75461928D01*
X128150000Y-75461928D01*
X128025518Y-75474188D01*
X127905820Y-75510498D01*
X127795506Y-75569463D01*
X127698815Y-75648815D01*
X127619463Y-75745506D01*
X127560498Y-75855820D01*
X127524188Y-75975518D01*
X127511928Y-76100000D01*
X124749250Y-76100000D01*
X124651250Y-76002000D01*
X123452000Y-76002000D01*
X123452000Y-76022000D01*
X123198000Y-76022000D01*
X123198000Y-76002000D01*
X123178000Y-76002000D01*
X123178000Y-75748000D01*
X123198000Y-75748000D01*
X123198000Y-74548750D01*
X123452000Y-74548750D01*
X123452000Y-75748000D01*
X124651250Y-75748000D01*
X124810000Y-75589250D01*
X124813072Y-75025000D01*
X124800812Y-74900518D01*
X124764502Y-74780820D01*
X124705537Y-74670506D01*
X124626185Y-74573815D01*
X124529494Y-74494463D01*
X124419180Y-74435498D01*
X124299482Y-74399188D01*
X124175000Y-74386928D01*
X123610750Y-74390000D01*
X123452000Y-74548750D01*
X123198000Y-74548750D01*
X123039250Y-74390000D01*
X122475000Y-74386928D01*
X122350518Y-74399188D01*
X122230820Y-74435498D01*
X122120506Y-74494463D01*
X122023815Y-74573815D01*
X121944463Y-74670506D01*
X121885498Y-74780820D01*
X121863487Y-74853380D01*
X121731632Y-74721525D01*
X121488411Y-74559010D01*
X121218158Y-74447068D01*
X120931260Y-74390000D01*
X120638740Y-74390000D01*
X120351842Y-74447068D01*
X120081589Y-74559010D01*
X119838368Y-74721525D01*
X119631525Y-74928368D01*
X119515000Y-75102760D01*
X119398475Y-74928368D01*
X119191632Y-74721525D01*
X118948411Y-74559010D01*
X118678158Y-74447068D01*
X118391260Y-74390000D01*
X118098740Y-74390000D01*
X117811842Y-74447068D01*
X117541589Y-74559010D01*
X117298368Y-74721525D01*
X117091525Y-74928368D01*
X116975000Y-75102760D01*
X116858475Y-74928368D01*
X116651632Y-74721525D01*
X116408411Y-74559010D01*
X116138158Y-74447068D01*
X115851260Y-74390000D01*
X115558740Y-74390000D01*
X115271842Y-74447068D01*
X115001589Y-74559010D01*
X114758368Y-74721525D01*
X114551525Y-74928368D01*
X114435000Y-75102760D01*
X114318475Y-74928368D01*
X114111632Y-74721525D01*
X113868411Y-74559010D01*
X113598158Y-74447068D01*
X113311260Y-74390000D01*
X113018740Y-74390000D01*
X112731842Y-74447068D01*
X112461589Y-74559010D01*
X112218368Y-74721525D01*
X112011525Y-74928368D01*
X111849010Y-75171589D01*
X111737068Y-75441842D01*
X111680000Y-75728740D01*
X103310016Y-75728740D01*
X103561353Y-75501241D01*
X104354071Y-74977546D01*
X105216887Y-74579782D01*
X106129934Y-74317108D01*
X107089192Y-74193374D01*
X107408958Y-74185000D01*
X184473981Y-74185000D01*
X185447350Y-74259042D01*
G37*
X185447350Y-74259042D02*
X186372898Y-74473573D01*
X187255350Y-74825635D01*
X188074388Y-75307124D01*
X188811175Y-75906962D01*
X189448759Y-76611353D01*
X189972454Y-77404071D01*
X190370218Y-78266887D01*
X190632892Y-79179934D01*
X190756626Y-80139192D01*
X190765000Y-80458958D01*
X190765001Y-101523968D01*
X190690958Y-102497350D01*
X190476427Y-103422898D01*
X190124365Y-104305350D01*
X189642874Y-105124392D01*
X189043033Y-105861181D01*
X188338644Y-106498762D01*
X187545932Y-107022453D01*
X186683113Y-107420218D01*
X185770066Y-107682892D01*
X184810808Y-107806626D01*
X184491042Y-107815000D01*
X140469384Y-107815000D01*
X140486632Y-107803475D01*
X140693475Y-107596632D01*
X140855990Y-107353411D01*
X140967932Y-107083158D01*
X141025000Y-106796260D01*
X141025000Y-106503740D01*
X140967932Y-106216842D01*
X140855990Y-105946589D01*
X140693475Y-105703368D01*
X140486632Y-105496525D01*
X140243411Y-105334010D01*
X139973158Y-105222068D01*
X139686260Y-105165000D01*
X139393740Y-105165000D01*
X139106842Y-105222068D01*
X138836589Y-105334010D01*
X138593368Y-105496525D01*
X138386525Y-105703368D01*
X138270000Y-105877760D01*
X138153475Y-105703368D01*
X137946632Y-105496525D01*
X137703411Y-105334010D01*
X137433158Y-105222068D01*
X137146260Y-105165000D01*
X136853740Y-105165000D01*
X136566842Y-105222068D01*
X136296589Y-105334010D01*
X136053368Y-105496525D01*
X135846525Y-105703368D01*
X135730000Y-105877760D01*
X135613475Y-105703368D01*
X135406632Y-105496525D01*
X135163411Y-105334010D01*
X134995640Y-105264517D01*
X135338450Y-104921707D01*
X148315000Y-104921707D01*
X148315000Y-105728294D01*
X148330700Y-105887697D01*
X148392742Y-106092220D01*
X148493492Y-106280710D01*
X148629079Y-106445922D01*
X148794291Y-106581509D01*
X148982781Y-106682259D01*
X149187304Y-106744300D01*
X149400000Y-106765249D01*
X149612697Y-106744300D01*
X149817220Y-106682259D01*
X150005710Y-106581509D01*
X150170922Y-106445922D01*
X150306509Y-106280710D01*
X150407259Y-106092220D01*
X150469300Y-105887696D01*
X150485000Y-105728293D01*
X150485000Y-104921707D01*
X154915000Y-104921707D01*
X154915000Y-105728294D01*
X154930700Y-105887697D01*
X154992742Y-106092220D01*
X155093492Y-106280710D01*
X155229079Y-106445922D01*
X155394291Y-106581509D01*
X155582781Y-106682259D01*
X155787304Y-106744300D01*
X156000000Y-106765249D01*
X156212697Y-106744300D01*
X156417220Y-106682259D01*
X156605710Y-106581509D01*
X156770922Y-106445922D01*
X156906509Y-106280710D01*
X157007259Y-106092220D01*
X157069300Y-105887696D01*
X157085000Y-105728293D01*
X157085000Y-104921706D01*
X157069300Y-104762303D01*
X157007259Y-104557780D01*
X156906509Y-104369290D01*
X156770922Y-104204078D01*
X156605710Y-104068491D01*
X156417219Y-103967741D01*
X156212696Y-103905700D01*
X156000000Y-103884751D01*
X155787303Y-103905700D01*
X155582780Y-103967741D01*
X155394290Y-104068491D01*
X155229078Y-104204078D01*
X155093491Y-104369290D01*
X154992741Y-104557781D01*
X154930700Y-104762304D01*
X154915000Y-104921707D01*
X150485000Y-104921707D01*
X150485000Y-104921706D01*
X150469300Y-104762303D01*
X150407259Y-104557780D01*
X150306509Y-104369290D01*
X150170922Y-104204078D01*
X150005710Y-104068491D01*
X149817219Y-103967741D01*
X149612696Y-103905700D01*
X149400000Y-103884751D01*
X149187303Y-103905700D01*
X148982780Y-103967741D01*
X148794290Y-104068491D01*
X148629078Y-104204078D01*
X148493491Y-104369290D01*
X148392741Y-104557781D01*
X148330700Y-104762304D01*
X148315000Y-104921707D01*
X135338450Y-104921707D01*
X137202280Y-103057878D01*
X137245521Y-103039967D01*
X137382281Y-102948587D01*
X137498587Y-102832281D01*
X137589967Y-102695521D01*
X137652911Y-102543560D01*
X137685000Y-102382240D01*
X137685000Y-102217760D01*
X137652911Y-102056440D01*
X137589967Y-101904479D01*
X137498587Y-101767719D01*
X137382281Y-101651413D01*
X137245521Y-101560033D01*
X137093560Y-101497089D01*
X136932240Y-101465000D01*
X136767760Y-101465000D01*
X136606440Y-101497089D01*
X136454479Y-101560033D01*
X136368792Y-101617287D01*
X136320521Y-101585033D01*
X136168560Y-101522089D01*
X136007240Y-101490000D01*
X135842760Y-101490000D01*
X135681440Y-101522089D01*
X135529479Y-101585033D01*
X135392719Y-101676413D01*
X135276413Y-101792719D01*
X135185033Y-101929479D01*
X135167122Y-101972720D01*
X133824843Y-103315000D01*
X119038556Y-103315000D01*
X119000000Y-103311203D01*
X118961444Y-103315000D01*
X118961439Y-103315000D01*
X118921026Y-103318980D01*
X118846113Y-103326358D01*
X118698140Y-103371246D01*
X118561767Y-103444138D01*
X118442236Y-103542236D01*
X118417655Y-103572188D01*
X116824843Y-105165000D01*
X116533740Y-105165000D01*
X116246842Y-105222068D01*
X115976589Y-105334010D01*
X115733368Y-105496525D01*
X115526525Y-105703368D01*
X115410000Y-105877760D01*
X115293475Y-105703368D01*
X115086632Y-105496525D01*
X114843411Y-105334010D01*
X114573158Y-105222068D01*
X114286260Y-105165000D01*
X113993740Y-105165000D01*
X113706842Y-105222068D01*
X113436589Y-105334010D01*
X113193368Y-105496525D01*
X113061513Y-105628380D01*
X113039502Y-105555820D01*
X112980537Y-105445506D01*
X112901185Y-105348815D01*
X112804494Y-105269463D01*
X112694180Y-105210498D01*
X112574482Y-105174188D01*
X112450000Y-105161928D01*
X111885750Y-105165000D01*
X111727000Y-105323750D01*
X111727000Y-106523000D01*
X111747000Y-106523000D01*
X111747000Y-106777000D01*
X111727000Y-106777000D01*
X111727000Y-106797000D01*
X111473000Y-106797000D01*
X111473000Y-106777000D01*
X110273750Y-106777000D01*
X110115000Y-106935750D01*
X110111928Y-107500000D01*
X110124188Y-107624482D01*
X110160498Y-107744180D01*
X110198353Y-107815000D01*
X107426019Y-107815000D01*
X106452650Y-107740958D01*
X105527102Y-107526427D01*
X104644650Y-107174365D01*
X103825608Y-106692874D01*
X103088819Y-106093033D01*
X102823579Y-105800000D01*
X110111928Y-105800000D01*
X110115000Y-106364250D01*
X110273750Y-106523000D01*
X111473000Y-106523000D01*
X111473000Y-105323750D01*
X111314250Y-105165000D01*
X110750000Y-105161928D01*
X110625518Y-105174188D01*
X110505820Y-105210498D01*
X110395506Y-105269463D01*
X110298815Y-105348815D01*
X110219463Y-105445506D01*
X110160498Y-105555820D01*
X110124188Y-105675518D01*
X110111928Y-105800000D01*
X102823579Y-105800000D01*
X102451238Y-105388644D01*
X101927547Y-104595932D01*
X101529782Y-103733113D01*
X101267108Y-102820066D01*
X101143374Y-101860808D01*
X101135000Y-101541042D01*
X101135000Y-81115000D01*
X101561928Y-81115000D01*
X101561928Y-82815000D01*
X101574188Y-82939482D01*
X101610498Y-83059180D01*
X101669463Y-83169494D01*
X101748815Y-83266185D01*
X101845506Y-83345537D01*
X101955820Y-83404502D01*
X102036466Y-83428966D01*
X101952412Y-83504731D01*
X101778359Y-83738080D01*
X101653175Y-84000901D01*
X101608524Y-84148110D01*
X101729845Y-84378000D01*
X102923000Y-84378000D01*
X102923000Y-84358000D01*
X103177000Y-84358000D01*
X103177000Y-84378000D01*
X103197000Y-84378000D01*
X103197000Y-84632000D01*
X103177000Y-84632000D01*
X103177000Y-84652000D01*
X102923000Y-84652000D01*
X102923000Y-84632000D01*
X101729845Y-84632000D01*
X101608524Y-84861890D01*
X101653175Y-85009099D01*
X101778359Y-85271920D01*
X101952412Y-85505269D01*
X102168645Y-85700178D01*
X102285534Y-85769805D01*
X102103368Y-85891525D01*
X101896525Y-86098368D01*
X101734010Y-86341589D01*
X101622068Y-86611842D01*
X101565000Y-86898740D01*
X101565000Y-87191260D01*
X101622068Y-87478158D01*
X101734010Y-87748411D01*
X101896525Y-87991632D01*
X102103368Y-88198475D01*
X102277760Y-88315000D01*
X102103368Y-88431525D01*
X101896525Y-88638368D01*
X101734010Y-88881589D01*
X101622068Y-89151842D01*
X101565000Y-89438740D01*
X101565000Y-89731260D01*
X101622068Y-90018158D01*
X101734010Y-90288411D01*
X101896525Y-90531632D01*
X102103368Y-90738475D01*
X102277760Y-90855000D01*
X102103368Y-90971525D01*
X101896525Y-91178368D01*
X101734010Y-91421589D01*
X101622068Y-91691842D01*
X101565000Y-91978740D01*
X101565000Y-92271260D01*
X101622068Y-92558158D01*
X101734010Y-92828411D01*
X101896525Y-93071632D01*
X102103368Y-93278475D01*
X102277760Y-93395000D01*
X102103368Y-93511525D01*
X101896525Y-93718368D01*
X101734010Y-93961589D01*
X101622068Y-94231842D01*
X101565000Y-94518740D01*
X101565000Y-94811260D01*
X101622068Y-95098158D01*
X101734010Y-95368411D01*
X101896525Y-95611632D01*
X102103368Y-95818475D01*
X102277760Y-95935000D01*
X102103368Y-96051525D01*
X101896525Y-96258368D01*
X101734010Y-96501589D01*
X101622068Y-96771842D01*
X101565000Y-97058740D01*
X101565000Y-97351260D01*
X101622068Y-97638158D01*
X101734010Y-97908411D01*
X101896525Y-98151632D01*
X102103368Y-98358475D01*
X102277760Y-98475000D01*
X102103368Y-98591525D01*
X101896525Y-98798368D01*
X101734010Y-99041589D01*
X101622068Y-99311842D01*
X101565000Y-99598740D01*
X101565000Y-99891260D01*
X101622068Y-100178158D01*
X101734010Y-100448411D01*
X101896525Y-100691632D01*
X102103368Y-100898475D01*
X102346589Y-101060990D01*
X102616842Y-101172932D01*
X102903740Y-101230000D01*
X103196260Y-101230000D01*
X103483158Y-101172932D01*
X103753411Y-101060990D01*
X103996632Y-100898475D01*
X104203475Y-100691632D01*
X104320000Y-100517240D01*
X104436525Y-100691632D01*
X104643368Y-100898475D01*
X104886589Y-101060990D01*
X105156842Y-101172932D01*
X105443740Y-101230000D01*
X105736260Y-101230000D01*
X106023158Y-101172932D01*
X106293411Y-101060990D01*
X106536632Y-100898475D01*
X106743475Y-100691632D01*
X106899108Y-100458711D01*
X109118212Y-102677816D01*
X109142790Y-102707764D01*
X109172738Y-102732342D01*
X109172741Y-102732345D01*
X109179916Y-102738233D01*
X109262321Y-102805862D01*
X109385572Y-102871740D01*
X109398694Y-102878754D01*
X109546667Y-102923642D01*
X109621580Y-102931020D01*
X109661993Y-102935000D01*
X109661998Y-102935000D01*
X109700554Y-102938797D01*
X109739109Y-102935000D01*
X133593070Y-102935000D01*
X133631623Y-102938797D01*
X133670176Y-102935000D01*
X133670184Y-102935000D01*
X133785510Y-102923641D01*
X133933483Y-102878754D01*
X134069856Y-102805862D01*
X134189387Y-102707764D01*
X134213970Y-102677810D01*
X134425401Y-102466379D01*
X134455354Y-102441797D01*
X134553452Y-102322266D01*
X134626344Y-102185893D01*
X134654398Y-102093411D01*
X134671231Y-102037921D01*
X134673662Y-102013234D01*
X134682590Y-101922594D01*
X134682590Y-101922587D01*
X134686387Y-101884034D01*
X134685973Y-101879826D01*
X134700501Y-101844751D01*
X134732590Y-101683431D01*
X134732590Y-101518951D01*
X134700501Y-101357631D01*
X134637557Y-101205670D01*
X134546177Y-101068910D01*
X134429871Y-100952604D01*
X134293111Y-100861224D01*
X134141150Y-100798280D01*
X134024116Y-100775000D01*
X149984509Y-100775000D01*
X150006423Y-100997499D01*
X150071324Y-101211447D01*
X150176716Y-101408623D01*
X150318551Y-101581449D01*
X150491377Y-101723284D01*
X150688553Y-101828676D01*
X150902501Y-101893577D01*
X151069248Y-101910000D01*
X160104869Y-101910000D01*
X161786679Y-103591811D01*
X161818898Y-103753785D01*
X161923249Y-104005712D01*
X162074744Y-104232440D01*
X162267560Y-104425256D01*
X162494288Y-104576751D01*
X162746215Y-104681102D01*
X163013658Y-104734300D01*
X163286342Y-104734300D01*
X163553785Y-104681102D01*
X163805712Y-104576751D01*
X164032440Y-104425256D01*
X164225256Y-104232440D01*
X164376751Y-104005712D01*
X164481102Y-103753785D01*
X164534300Y-103486342D01*
X164534300Y-103213658D01*
X165265701Y-103213658D01*
X165265701Y-103486342D01*
X165318899Y-103753785D01*
X165423250Y-104005712D01*
X165574745Y-104232440D01*
X165767561Y-104425256D01*
X165994289Y-104576751D01*
X166246216Y-104681102D01*
X166513659Y-104734300D01*
X166786343Y-104734300D01*
X167053786Y-104681102D01*
X167305713Y-104576751D01*
X167532441Y-104425256D01*
X167725257Y-104232440D01*
X167876752Y-104005712D01*
X167981103Y-103753785D01*
X168034301Y-103486342D01*
X168034301Y-103238658D01*
X172890700Y-103238658D01*
X172890700Y-103511342D01*
X172943898Y-103778785D01*
X173048249Y-104030712D01*
X173199744Y-104257440D01*
X173392560Y-104450256D01*
X173619288Y-104601751D01*
X173871215Y-104706102D01*
X174138658Y-104759300D01*
X174411342Y-104759300D01*
X174678785Y-104706102D01*
X174930712Y-104601751D01*
X175157440Y-104450256D01*
X175350256Y-104257440D01*
X175501751Y-104030712D01*
X175606102Y-103778785D01*
X175659300Y-103511342D01*
X175659300Y-103238658D01*
X176390701Y-103238658D01*
X176390701Y-103511342D01*
X176443899Y-103778785D01*
X176548250Y-104030712D01*
X176699745Y-104257440D01*
X176892561Y-104450256D01*
X177119289Y-104601751D01*
X177371216Y-104706102D01*
X177638659Y-104759300D01*
X177911343Y-104759300D01*
X178178786Y-104706102D01*
X178430713Y-104601751D01*
X178657441Y-104450256D01*
X178850257Y-104257440D01*
X179001752Y-104030712D01*
X179106103Y-103778785D01*
X179159301Y-103511342D01*
X179159301Y-103238658D01*
X179890701Y-103238658D01*
X179890701Y-103511342D01*
X179943899Y-103778785D01*
X180048250Y-104030712D01*
X180199745Y-104257440D01*
X180392561Y-104450256D01*
X180619289Y-104601751D01*
X180871216Y-104706102D01*
X181138659Y-104759300D01*
X181411343Y-104759300D01*
X181678786Y-104706102D01*
X181930713Y-104601751D01*
X182157441Y-104450256D01*
X182350257Y-104257440D01*
X182501752Y-104030712D01*
X182606103Y-103778785D01*
X182659301Y-103511342D01*
X182659301Y-103238658D01*
X182606103Y-102971215D01*
X182501752Y-102719288D01*
X182350257Y-102492560D01*
X182157441Y-102299744D01*
X181930713Y-102148249D01*
X181678786Y-102043898D01*
X181411343Y-101990700D01*
X181138659Y-101990700D01*
X180871216Y-102043898D01*
X180619289Y-102148249D01*
X180392561Y-102299744D01*
X180199745Y-102492560D01*
X180048250Y-102719288D01*
X179943899Y-102971215D01*
X179890701Y-103238658D01*
X179159301Y-103238658D01*
X179106103Y-102971215D01*
X179001752Y-102719288D01*
X178850257Y-102492560D01*
X178657441Y-102299744D01*
X178430713Y-102148249D01*
X178178786Y-102043898D01*
X177911343Y-101990700D01*
X177638659Y-101990700D01*
X177371216Y-102043898D01*
X177119289Y-102148249D01*
X176892561Y-102299744D01*
X176699745Y-102492560D01*
X176548250Y-102719288D01*
X176443899Y-102971215D01*
X176390701Y-103238658D01*
X175659300Y-103238658D01*
X175606102Y-102971215D01*
X175501751Y-102719288D01*
X175350256Y-102492560D01*
X175157440Y-102299744D01*
X174930712Y-102148249D01*
X174678785Y-102043898D01*
X174411342Y-101990700D01*
X174138658Y-101990700D01*
X173871215Y-102043898D01*
X173619288Y-102148249D01*
X173392560Y-102299744D01*
X173199744Y-102492560D01*
X173048249Y-102719288D01*
X172943898Y-102971215D01*
X172890700Y-103238658D01*
X168034301Y-103238658D01*
X168034301Y-103213658D01*
X167981103Y-102946215D01*
X167876752Y-102694288D01*
X167725257Y-102467560D01*
X167532441Y-102274744D01*
X167305713Y-102123249D01*
X167053786Y-102018898D01*
X166786343Y-101965700D01*
X166513659Y-101965700D01*
X166246216Y-102018898D01*
X165994289Y-102123249D01*
X165767561Y-102274744D01*
X165574745Y-102467560D01*
X165423250Y-102694288D01*
X165318899Y-102946215D01*
X165265701Y-103213658D01*
X164534300Y-103213658D01*
X164481102Y-102946215D01*
X164376751Y-102694288D01*
X164225256Y-102467560D01*
X164032440Y-102274744D01*
X163805712Y-102123249D01*
X163553785Y-102018898D01*
X163391811Y-101986679D01*
X161416996Y-100011865D01*
X161381449Y-99968551D01*
X161208623Y-99826716D01*
X161011447Y-99721324D01*
X160797499Y-99656423D01*
X160630752Y-99640000D01*
X160630751Y-99640000D01*
X160575000Y-99634509D01*
X160519249Y-99640000D01*
X151069248Y-99640000D01*
X150902501Y-99656423D01*
X150688553Y-99721324D01*
X150491377Y-99826716D01*
X150318551Y-99968551D01*
X150176716Y-100141377D01*
X150071324Y-100338553D01*
X150006423Y-100552501D01*
X149984509Y-100775000D01*
X134024116Y-100775000D01*
X133979830Y-100766191D01*
X133815350Y-100766191D01*
X133654030Y-100798280D01*
X133617909Y-100813242D01*
X133518559Y-100772090D01*
X133357239Y-100740001D01*
X133192759Y-100740001D01*
X133031439Y-100772090D01*
X133003364Y-100783719D01*
X133002911Y-100781440D01*
X132939967Y-100629479D01*
X132848587Y-100492719D01*
X132732281Y-100376413D01*
X132595521Y-100285033D01*
X132443560Y-100222089D01*
X132282240Y-100190000D01*
X132117760Y-100190000D01*
X131956440Y-100222089D01*
X131913199Y-100240000D01*
X130307110Y-100240000D01*
X130268554Y-100236203D01*
X130229999Y-100240000D01*
X130229993Y-100240000D01*
X130205616Y-100242401D01*
X116019640Y-100242401D01*
X113127239Y-97350000D01*
X135360960Y-97350000D01*
X135365007Y-97391090D01*
X135365007Y-97432233D01*
X135373034Y-97472585D01*
X135377082Y-97513689D01*
X135389072Y-97553216D01*
X135397096Y-97593553D01*
X135412834Y-97631548D01*
X135424828Y-97671087D01*
X135444304Y-97707524D01*
X135460040Y-97745514D01*
X135482886Y-97779706D01*
X135502364Y-97816146D01*
X135528576Y-97848085D01*
X135551420Y-97882274D01*
X135580495Y-97911349D01*
X135606709Y-97943291D01*
X135613294Y-97948695D01*
X135615000Y-97966019D01*
X135615000Y-98007240D01*
X135623042Y-98047668D01*
X135627082Y-98088689D01*
X135639048Y-98128136D01*
X135647089Y-98168560D01*
X135662861Y-98206638D01*
X135674828Y-98246087D01*
X135694260Y-98282442D01*
X135710033Y-98320521D01*
X135732933Y-98354793D01*
X135752364Y-98391146D01*
X135778513Y-98423009D01*
X135801413Y-98457281D01*
X135830559Y-98486427D01*
X135856709Y-98518291D01*
X135888573Y-98544441D01*
X135917719Y-98573587D01*
X135951991Y-98596487D01*
X135983854Y-98622636D01*
X136020207Y-98642067D01*
X136054479Y-98664967D01*
X136092558Y-98680740D01*
X136128913Y-98700172D01*
X136168362Y-98712139D01*
X136206440Y-98727911D01*
X136246864Y-98735952D01*
X136286311Y-98747918D01*
X136327332Y-98751958D01*
X136367760Y-98760000D01*
X163807240Y-98760000D01*
X163847668Y-98751958D01*
X163888689Y-98747918D01*
X163928136Y-98735952D01*
X163968560Y-98727911D01*
X164006638Y-98712139D01*
X164046087Y-98700172D01*
X164082442Y-98680740D01*
X164120521Y-98664967D01*
X164154793Y-98642067D01*
X164191146Y-98622636D01*
X164223009Y-98596487D01*
X164257281Y-98573587D01*
X164286427Y-98544441D01*
X164318291Y-98518291D01*
X164344441Y-98486427D01*
X164373587Y-98457281D01*
X164396487Y-98423009D01*
X164422636Y-98391146D01*
X164442067Y-98354793D01*
X164464967Y-98320521D01*
X164480740Y-98282442D01*
X164500172Y-98246087D01*
X164512139Y-98206638D01*
X164527911Y-98168560D01*
X164535952Y-98128136D01*
X164547918Y-98088689D01*
X164551958Y-98047668D01*
X164560000Y-98007240D01*
X164560000Y-97966019D01*
X164564040Y-97925000D01*
X164560000Y-97883981D01*
X164560000Y-97842760D01*
X164551958Y-97802332D01*
X164547918Y-97761311D01*
X164535952Y-97721864D01*
X164527911Y-97681440D01*
X164512139Y-97643362D01*
X164500172Y-97603913D01*
X164480740Y-97567558D01*
X164464967Y-97529479D01*
X164442067Y-97495207D01*
X164422636Y-97458854D01*
X164396487Y-97426991D01*
X164373587Y-97392719D01*
X164344441Y-97363573D01*
X164318291Y-97331709D01*
X164286427Y-97305559D01*
X164257281Y-97276413D01*
X164223009Y-97253513D01*
X164191146Y-97227364D01*
X164154793Y-97207933D01*
X164120521Y-97185033D01*
X164082442Y-97169260D01*
X164046087Y-97149828D01*
X164006638Y-97137861D01*
X163968560Y-97122089D01*
X163928136Y-97114048D01*
X163888689Y-97102082D01*
X163847668Y-97098042D01*
X163807240Y-97090000D01*
X163254614Y-97090000D01*
X163252911Y-97081440D01*
X163237134Y-97043350D01*
X163225171Y-97003914D01*
X163205744Y-96967569D01*
X163189967Y-96929479D01*
X163167063Y-96895201D01*
X163147636Y-96858855D01*
X163121492Y-96826998D01*
X163098587Y-96792719D01*
X163069433Y-96763565D01*
X163043290Y-96731710D01*
X163011435Y-96705567D01*
X162982281Y-96676413D01*
X162948002Y-96653508D01*
X162916145Y-96627364D01*
X162879799Y-96607937D01*
X162845521Y-96585033D01*
X162807431Y-96569256D01*
X162771086Y-96549829D01*
X162731650Y-96537866D01*
X162693560Y-96522089D01*
X162653121Y-96514045D01*
X162613687Y-96502083D01*
X162572680Y-96498044D01*
X162532240Y-96490000D01*
X162491007Y-96490000D01*
X162449999Y-96485961D01*
X162408991Y-96490000D01*
X162367760Y-96490000D01*
X162327321Y-96498044D01*
X162286312Y-96502083D01*
X162246877Y-96514046D01*
X162242078Y-96515000D01*
X136282282Y-96515000D01*
X136282247Y-96514993D01*
X136241025Y-96514993D01*
X136200007Y-96510953D01*
X136158989Y-96514993D01*
X136117767Y-96514993D01*
X136077338Y-96523035D01*
X136036319Y-96527075D01*
X135996874Y-96539040D01*
X135956447Y-96547082D01*
X135918367Y-96562855D01*
X135878921Y-96574821D01*
X135842569Y-96594251D01*
X135804486Y-96610026D01*
X135770210Y-96632929D01*
X135733862Y-96652357D01*
X135702003Y-96678503D01*
X135667726Y-96701406D01*
X135638573Y-96730559D01*
X135606709Y-96756709D01*
X135580561Y-96788571D01*
X135551420Y-96817712D01*
X135528526Y-96851976D01*
X135502364Y-96883854D01*
X135482924Y-96920224D01*
X135460040Y-96954472D01*
X135444278Y-96992524D01*
X135424828Y-97028913D01*
X135412850Y-97068399D01*
X135397096Y-97106433D01*
X135389064Y-97146811D01*
X135377082Y-97186311D01*
X135373036Y-97227388D01*
X135365007Y-97267753D01*
X135365007Y-97308910D01*
X135360960Y-97350000D01*
X113127239Y-97350000D01*
X111327239Y-95550000D01*
X130610476Y-95550000D01*
X130628529Y-95733292D01*
X130681993Y-95909540D01*
X130768814Y-96071972D01*
X130885656Y-96214344D01*
X131028028Y-96331186D01*
X131190460Y-96418007D01*
X131366708Y-96471471D01*
X131504068Y-96485000D01*
X170954068Y-96485000D01*
X171000000Y-96489524D01*
X171045932Y-96485000D01*
X171183292Y-96471471D01*
X171359540Y-96418007D01*
X171521972Y-96331186D01*
X171664344Y-96214344D01*
X171693630Y-96178659D01*
X177408631Y-90463658D01*
X184690700Y-90463658D01*
X184690700Y-90736342D01*
X184743898Y-91003785D01*
X184848249Y-91255712D01*
X184999744Y-91482440D01*
X185192560Y-91675256D01*
X185419288Y-91826751D01*
X185671215Y-91931102D01*
X185938658Y-91984300D01*
X186211342Y-91984300D01*
X186478785Y-91931102D01*
X186730712Y-91826751D01*
X186957440Y-91675256D01*
X187150256Y-91482440D01*
X187301751Y-91255712D01*
X187406102Y-91003785D01*
X187459300Y-90736342D01*
X187459300Y-90463658D01*
X187406102Y-90196215D01*
X187301751Y-89944288D01*
X187150256Y-89717560D01*
X186957440Y-89524744D01*
X186730712Y-89373249D01*
X186478785Y-89268898D01*
X186211342Y-89215700D01*
X185938658Y-89215700D01*
X185671215Y-89268898D01*
X185419288Y-89373249D01*
X185192560Y-89524744D01*
X184999744Y-89717560D01*
X184848249Y-89944288D01*
X184743898Y-90196215D01*
X184690700Y-90463658D01*
X177408631Y-90463658D01*
X179043623Y-88828666D01*
X179131185Y-88721972D01*
X179218007Y-88559541D01*
X179271472Y-88383292D01*
X179289524Y-88200000D01*
X179271472Y-88016708D01*
X179218007Y-87840460D01*
X179131185Y-87678029D01*
X179014344Y-87535656D01*
X178871971Y-87418815D01*
X178709540Y-87331993D01*
X178533292Y-87278528D01*
X178350000Y-87260476D01*
X178166708Y-87278528D01*
X177990459Y-87331993D01*
X177828028Y-87418815D01*
X177721334Y-87506377D01*
X170612711Y-94615000D01*
X131504068Y-94615000D01*
X131366708Y-94628529D01*
X131190460Y-94681993D01*
X131028028Y-94768814D01*
X130885656Y-94885656D01*
X130768814Y-95028028D01*
X130681993Y-95190460D01*
X130628529Y-95366708D01*
X130610476Y-95550000D01*
X111327239Y-95550000D01*
X107374428Y-91597190D01*
X107349845Y-91567236D01*
X107230314Y-91469138D01*
X107093941Y-91396246D01*
X106945968Y-91351359D01*
X106852942Y-91342196D01*
X106743475Y-91178368D01*
X106536632Y-90971525D01*
X106354466Y-90849805D01*
X106471355Y-90780178D01*
X106687588Y-90585269D01*
X106861641Y-90351920D01*
X106986825Y-90089099D01*
X107031476Y-89941890D01*
X106910155Y-89712000D01*
X105717000Y-89712000D01*
X105717000Y-89732000D01*
X105463000Y-89732000D01*
X105463000Y-89712000D01*
X105443000Y-89712000D01*
X105443000Y-89458000D01*
X105463000Y-89458000D01*
X105463000Y-89438000D01*
X105717000Y-89438000D01*
X105717000Y-89458000D01*
X106910155Y-89458000D01*
X107031476Y-89228110D01*
X106986825Y-89080901D01*
X106861641Y-88818080D01*
X106687588Y-88584731D01*
X106471355Y-88389822D01*
X106354466Y-88320195D01*
X106536632Y-88198475D01*
X106743475Y-87991632D01*
X106905990Y-87748411D01*
X107017932Y-87478158D01*
X107075000Y-87191260D01*
X107075000Y-86898740D01*
X107017932Y-86611842D01*
X106905990Y-86341589D01*
X106743475Y-86098368D01*
X106536632Y-85891525D01*
X106362240Y-85775000D01*
X106536632Y-85658475D01*
X106743475Y-85451632D01*
X106905990Y-85208411D01*
X106969845Y-85054250D01*
X116968410Y-95052816D01*
X116992988Y-95082764D01*
X117022936Y-95107342D01*
X117022939Y-95107345D01*
X117052311Y-95131450D01*
X117112519Y-95180862D01*
X117248892Y-95253754D01*
X117362424Y-95288194D01*
X117396864Y-95298641D01*
X117411242Y-95300057D01*
X117512191Y-95310000D01*
X117512198Y-95310000D01*
X117550751Y-95313797D01*
X117589304Y-95310000D01*
X128188199Y-95310000D01*
X128231440Y-95327911D01*
X128392760Y-95360000D01*
X128557240Y-95360000D01*
X128718560Y-95327911D01*
X128870521Y-95264967D01*
X129007281Y-95173587D01*
X129123587Y-95057281D01*
X129214967Y-94920521D01*
X129277911Y-94768560D01*
X129310000Y-94607240D01*
X129310000Y-94442760D01*
X129277911Y-94281440D01*
X129214967Y-94129479D01*
X129123587Y-93992719D01*
X129007281Y-93876413D01*
X128870521Y-93785033D01*
X128852000Y-93777361D01*
X128852000Y-92503597D01*
X130433125Y-92523361D01*
X130447089Y-92593560D01*
X130510033Y-92745521D01*
X130601413Y-92882281D01*
X130717719Y-92998587D01*
X130854479Y-93089967D01*
X131006440Y-93152911D01*
X131167760Y-93185000D01*
X131332240Y-93185000D01*
X131493560Y-93152911D01*
X131645521Y-93089967D01*
X131782281Y-92998587D01*
X131898587Y-92882281D01*
X131989967Y-92745521D01*
X132007879Y-92702278D01*
X132277812Y-92432345D01*
X132307765Y-92407763D01*
X132405863Y-92288232D01*
X132478755Y-92151859D01*
X132494058Y-92101413D01*
X132523642Y-92003887D01*
X132529236Y-91947089D01*
X132535001Y-91888560D01*
X132535001Y-91888553D01*
X132538798Y-91850000D01*
X132535001Y-91811447D01*
X132535001Y-89942760D01*
X145665000Y-89942760D01*
X145665000Y-90107240D01*
X145697089Y-90268560D01*
X145760033Y-90420521D01*
X145851413Y-90557281D01*
X145967719Y-90673587D01*
X146104479Y-90764967D01*
X146208078Y-90807879D01*
X148661201Y-93261003D01*
X148684999Y-93290001D01*
X148713997Y-93313799D01*
X148800723Y-93384974D01*
X148905521Y-93440990D01*
X148932753Y-93455546D01*
X149076014Y-93499003D01*
X149187667Y-93510000D01*
X149187677Y-93510000D01*
X149225000Y-93513676D01*
X149262323Y-93510000D01*
X149327843Y-93510000D01*
X149431440Y-93552911D01*
X149592760Y-93585000D01*
X149757240Y-93585000D01*
X149918560Y-93552911D01*
X150070521Y-93489967D01*
X150207281Y-93398587D01*
X150323587Y-93282281D01*
X150414967Y-93145521D01*
X150477911Y-92993560D01*
X150510000Y-92832240D01*
X150510000Y-92667760D01*
X150477911Y-92506440D01*
X150414967Y-92354479D01*
X150323587Y-92217719D01*
X150207281Y-92101413D01*
X150070521Y-92010033D01*
X149918560Y-91947089D01*
X149757240Y-91915000D01*
X149592760Y-91915000D01*
X149486032Y-91936230D01*
X147282879Y-89733078D01*
X147239967Y-89629479D01*
X147148587Y-89492719D01*
X147032281Y-89376413D01*
X146895521Y-89285033D01*
X146743560Y-89222089D01*
X146582240Y-89190000D01*
X146417760Y-89190000D01*
X146256440Y-89222089D01*
X146104479Y-89285033D01*
X145967719Y-89376413D01*
X145851413Y-89492719D01*
X145760033Y-89629479D01*
X145697089Y-89781440D01*
X145665000Y-89942760D01*
X132535001Y-89942760D01*
X132535001Y-89413553D01*
X132538798Y-89375000D01*
X132535001Y-89336447D01*
X132535001Y-89336440D01*
X132523642Y-89221114D01*
X132478755Y-89073141D01*
X132405863Y-88936768D01*
X132307765Y-88817237D01*
X132277817Y-88792659D01*
X126063347Y-82578190D01*
X126038764Y-82548236D01*
X125919233Y-82450138D01*
X125782860Y-82377246D01*
X125634887Y-82332359D01*
X125519561Y-82321000D01*
X125519553Y-82321000D01*
X125481000Y-82317203D01*
X125442447Y-82321000D01*
X114540217Y-82321000D01*
X114496976Y-82303089D01*
X114335656Y-82271000D01*
X114171176Y-82271000D01*
X114009856Y-82303089D01*
X113857895Y-82366033D01*
X113721135Y-82457413D01*
X113604829Y-82573719D01*
X113513449Y-82710479D01*
X113450505Y-82862440D01*
X113418416Y-83023760D01*
X113418416Y-83188240D01*
X113450505Y-83349560D01*
X113513449Y-83501521D01*
X113604829Y-83638281D01*
X113721135Y-83754587D01*
X113857895Y-83845967D01*
X114009856Y-83908911D01*
X114171176Y-83941000D01*
X114335656Y-83941000D01*
X114496976Y-83908911D01*
X114540217Y-83891000D01*
X125155843Y-83891000D01*
X130965002Y-89700160D01*
X130965001Y-91524842D01*
X130897722Y-91592121D01*
X130854479Y-91610033D01*
X130852000Y-91611689D01*
X130852000Y-91300000D01*
X130849560Y-91275224D01*
X130842333Y-91251399D01*
X130830597Y-91229443D01*
X130814803Y-91210197D01*
X130795557Y-91194403D01*
X130773601Y-91182667D01*
X130749776Y-91175440D01*
X130726587Y-91173010D01*
X128852939Y-91149589D01*
X128861543Y-89996632D01*
X128868006Y-89984541D01*
X128921471Y-89808293D01*
X128939524Y-89625001D01*
X128921471Y-89441709D01*
X128868006Y-89265460D01*
X128867014Y-89263603D01*
X128876996Y-87925948D01*
X128877000Y-87925000D01*
X128877000Y-87900000D01*
X128874560Y-87875224D01*
X128867333Y-87851399D01*
X128855597Y-87829443D01*
X128839803Y-87810197D01*
X128820557Y-87794403D01*
X128798601Y-87782667D01*
X128774776Y-87775440D01*
X128751573Y-87773010D01*
X120676573Y-87673010D01*
X120651768Y-87675143D01*
X120627856Y-87682074D01*
X120605756Y-87693538D01*
X120586316Y-87709092D01*
X120570285Y-87728140D01*
X120558278Y-87749950D01*
X120550757Y-87773683D01*
X120548001Y-87799473D01*
X120523352Y-93740000D01*
X117875910Y-93740000D01*
X106865267Y-82729358D01*
X106905990Y-82668411D01*
X107017932Y-82398158D01*
X107075000Y-82111260D01*
X107075000Y-81818740D01*
X107017932Y-81531842D01*
X106905990Y-81261589D01*
X106743475Y-81018368D01*
X106536632Y-80811525D01*
X106293411Y-80649010D01*
X106023158Y-80537068D01*
X105736260Y-80480000D01*
X105443740Y-80480000D01*
X105156842Y-80537068D01*
X104886589Y-80649010D01*
X104643368Y-80811525D01*
X104511513Y-80943380D01*
X104489502Y-80870820D01*
X104430537Y-80760506D01*
X104351185Y-80663815D01*
X104254494Y-80584463D01*
X104144180Y-80525498D01*
X104024482Y-80489188D01*
X103900000Y-80476928D01*
X102200000Y-80476928D01*
X102075518Y-80489188D01*
X101955820Y-80525498D01*
X101845506Y-80584463D01*
X101748815Y-80663815D01*
X101669463Y-80760506D01*
X101610498Y-80870820D01*
X101574188Y-80990518D01*
X101561928Y-81115000D01*
X101135000Y-81115000D01*
X101135000Y-80476019D01*
X101209042Y-79502650D01*
X101423573Y-78577102D01*
X101775635Y-77694650D01*
X102257124Y-76875612D01*
X102856962Y-76138825D01*
X103310016Y-75728740D01*
X111680000Y-75728740D01*
X111680000Y-76021260D01*
X111737068Y-76308158D01*
X111849010Y-76578411D01*
X112011525Y-76821632D01*
X112218368Y-77028475D01*
X112392760Y-77145000D01*
X112218368Y-77261525D01*
X112011525Y-77468368D01*
X111849010Y-77711589D01*
X111737068Y-77981842D01*
X111680000Y-78268740D01*
X111680000Y-78561260D01*
X111737068Y-78848158D01*
X111849010Y-79118411D01*
X112011525Y-79361632D01*
X112218368Y-79568475D01*
X112461589Y-79730990D01*
X112731842Y-79842932D01*
X113018740Y-79900000D01*
X113311260Y-79900000D01*
X113598158Y-79842932D01*
X113868411Y-79730990D01*
X114111632Y-79568475D01*
X114318475Y-79361632D01*
X114435000Y-79187240D01*
X114551525Y-79361632D01*
X114758368Y-79568475D01*
X115001589Y-79730990D01*
X115271842Y-79842932D01*
X115558740Y-79900000D01*
X115851260Y-79900000D01*
X116138158Y-79842932D01*
X116408411Y-79730990D01*
X116651632Y-79568475D01*
X116858475Y-79361632D01*
X116975000Y-79187240D01*
X117091525Y-79361632D01*
X117298368Y-79568475D01*
X117541589Y-79730990D01*
X117811842Y-79842932D01*
X118098740Y-79900000D01*
X118391260Y-79900000D01*
X118678158Y-79842932D01*
X118948411Y-79730990D01*
X119191632Y-79568475D01*
X119398475Y-79361632D01*
X119515000Y-79187240D01*
X119631525Y-79361632D01*
X119838368Y-79568475D01*
X120081589Y-79730990D01*
X120351842Y-79842932D01*
X120638740Y-79900000D01*
X120931260Y-79900000D01*
X121218158Y-79842932D01*
X121488411Y-79730990D01*
X121731632Y-79568475D01*
X121938475Y-79361632D01*
X122055000Y-79187240D01*
X122171525Y-79361632D01*
X122378368Y-79568475D01*
X122621589Y-79730990D01*
X122891842Y-79842932D01*
X123178740Y-79900000D01*
X123471260Y-79900000D01*
X123661918Y-79862075D01*
X131702653Y-87902810D01*
X131727236Y-87932764D01*
X131846767Y-88030862D01*
X131976117Y-88100000D01*
X131983140Y-88103754D01*
X132131113Y-88148642D01*
X132206026Y-88156020D01*
X132246439Y-88160000D01*
X132246444Y-88160000D01*
X132285000Y-88163797D01*
X132323556Y-88160000D01*
X143288199Y-88160000D01*
X143331440Y-88177911D01*
X143492760Y-88210000D01*
X143657240Y-88210000D01*
X143818560Y-88177911D01*
X143970521Y-88114967D01*
X144107281Y-88023587D01*
X144223587Y-87907281D01*
X144314967Y-87770521D01*
X144377911Y-87618560D01*
X144410000Y-87457240D01*
X144410000Y-87292760D01*
X144377911Y-87131440D01*
X144314967Y-86979479D01*
X144301952Y-86960000D01*
X153361447Y-86960000D01*
X153400000Y-86963797D01*
X153401421Y-86963657D01*
X184690700Y-86963657D01*
X184690700Y-87236341D01*
X184743898Y-87503784D01*
X184848249Y-87755711D01*
X184999744Y-87982439D01*
X185192560Y-88175255D01*
X185419288Y-88326750D01*
X185671215Y-88431101D01*
X185938658Y-88484299D01*
X186211342Y-88484299D01*
X186478785Y-88431101D01*
X186730712Y-88326750D01*
X186957440Y-88175255D01*
X187150256Y-87982439D01*
X187301751Y-87755711D01*
X187406102Y-87503784D01*
X187459300Y-87236341D01*
X187459300Y-86963657D01*
X187406102Y-86696214D01*
X187301751Y-86444287D01*
X187150256Y-86217559D01*
X186957440Y-86024743D01*
X186730712Y-85873248D01*
X186478785Y-85768897D01*
X186211342Y-85715699D01*
X185938658Y-85715699D01*
X185671215Y-85768897D01*
X185419288Y-85873248D01*
X185192560Y-86024743D01*
X184999744Y-86217559D01*
X184848249Y-86444287D01*
X184743898Y-86696214D01*
X184690700Y-86963657D01*
X153401421Y-86963657D01*
X153438553Y-86960000D01*
X153438561Y-86960000D01*
X153553887Y-86948641D01*
X153701860Y-86903754D01*
X153838233Y-86830862D01*
X153957764Y-86732764D01*
X153982347Y-86702810D01*
X155002811Y-85682346D01*
X155032764Y-85657764D01*
X155130862Y-85538233D01*
X155203754Y-85401860D01*
X155222519Y-85340000D01*
X155248642Y-85253887D01*
X155256020Y-85178974D01*
X155260000Y-85138561D01*
X155260000Y-85138556D01*
X155263797Y-85100000D01*
X155260000Y-85061444D01*
X155260000Y-83936801D01*
X155277911Y-83893560D01*
X155310000Y-83732240D01*
X155310000Y-83567760D01*
X155289293Y-83463657D01*
X184690700Y-83463657D01*
X184690700Y-83736341D01*
X184743898Y-84003784D01*
X184848249Y-84255711D01*
X184999744Y-84482439D01*
X185192560Y-84675255D01*
X185419288Y-84826750D01*
X185671215Y-84931101D01*
X185938658Y-84984299D01*
X186211342Y-84984299D01*
X186478785Y-84931101D01*
X186730712Y-84826750D01*
X186957440Y-84675255D01*
X187150256Y-84482439D01*
X187301751Y-84255711D01*
X187406102Y-84003784D01*
X187459300Y-83736341D01*
X187459300Y-83463657D01*
X187406102Y-83196214D01*
X187301751Y-82944287D01*
X187150256Y-82717559D01*
X186957440Y-82524743D01*
X186730712Y-82373248D01*
X186478785Y-82268897D01*
X186211342Y-82215699D01*
X185938658Y-82215699D01*
X185671215Y-82268897D01*
X185419288Y-82373248D01*
X185192560Y-82524743D01*
X184999744Y-82717559D01*
X184848249Y-82944287D01*
X184743898Y-83196214D01*
X184690700Y-83463657D01*
X155289293Y-83463657D01*
X155277911Y-83406440D01*
X155214967Y-83254479D01*
X155123587Y-83117719D01*
X155007281Y-83001413D01*
X154870521Y-82910033D01*
X154718560Y-82847089D01*
X154557240Y-82815000D01*
X154392760Y-82815000D01*
X154231440Y-82847089D01*
X154079479Y-82910033D01*
X153942719Y-83001413D01*
X153826413Y-83117719D01*
X153735033Y-83254479D01*
X153672089Y-83406440D01*
X153640000Y-83567760D01*
X153640000Y-83732240D01*
X153672089Y-83893560D01*
X153690001Y-83936803D01*
X153690000Y-84774843D01*
X153074843Y-85390000D01*
X141036801Y-85390000D01*
X140993560Y-85372089D01*
X140832240Y-85340000D01*
X140667760Y-85340000D01*
X140506440Y-85372089D01*
X140354479Y-85435033D01*
X140217719Y-85526413D01*
X140101413Y-85642719D01*
X140010033Y-85779479D01*
X139947089Y-85931440D01*
X139915000Y-86092760D01*
X139915000Y-86257240D01*
X139947089Y-86418560D01*
X140010033Y-86570521D01*
X140023048Y-86590000D01*
X132610157Y-86590000D01*
X124772075Y-78751918D01*
X124810000Y-78561260D01*
X124810000Y-78268740D01*
X124752932Y-77981842D01*
X124640990Y-77711589D01*
X124478475Y-77468368D01*
X124346620Y-77336513D01*
X124419180Y-77314502D01*
X124529494Y-77255537D01*
X124626185Y-77176185D01*
X124705537Y-77079494D01*
X124764502Y-76969180D01*
X124800812Y-76849482D01*
X124813072Y-76725000D01*
X124810000Y-76160750D01*
X124749250Y-76100000D01*
X127511928Y-76100000D01*
X127511928Y-77800000D01*
X127524188Y-77924482D01*
X127560498Y-78044180D01*
X127619463Y-78154494D01*
X127698815Y-78251185D01*
X127795506Y-78330537D01*
X127905820Y-78389502D01*
X128025518Y-78425812D01*
X128150000Y-78438072D01*
X129850000Y-78438072D01*
X129974482Y-78425812D01*
X130094180Y-78389502D01*
X130204494Y-78330537D01*
X130301185Y-78251185D01*
X130380537Y-78154494D01*
X130439502Y-78044180D01*
X130461513Y-77971620D01*
X130593368Y-78103475D01*
X130836589Y-78265990D01*
X131106842Y-78377932D01*
X131393740Y-78435000D01*
X131686260Y-78435000D01*
X131876918Y-78397075D01*
X133265000Y-79785158D01*
X133265001Y-82813197D01*
X133247089Y-82856440D01*
X133215000Y-83017760D01*
X133215000Y-83182240D01*
X133247089Y-83343560D01*
X133310033Y-83495521D01*
X133401413Y-83632281D01*
X133517719Y-83748587D01*
X133654479Y-83839967D01*
X133806440Y-83902911D01*
X133967760Y-83935000D01*
X134132240Y-83935000D01*
X134293560Y-83902911D01*
X134407905Y-83855548D01*
X134484688Y-83896589D01*
X134651511Y-83947195D01*
X134825000Y-83964282D01*
X134998490Y-83947195D01*
X135165313Y-83896589D01*
X135247774Y-83852513D01*
X135286096Y-83872997D01*
X135452919Y-83923604D01*
X135626409Y-83940690D01*
X135799899Y-83923604D01*
X135966722Y-83872997D01*
X136120468Y-83790819D01*
X136221455Y-83707941D01*
X138294397Y-81635000D01*
X149356531Y-81635000D01*
X149400000Y-81639281D01*
X149443469Y-81635000D01*
X149443477Y-81635000D01*
X149573490Y-81622195D01*
X149740313Y-81571589D01*
X149894059Y-81489411D01*
X150028817Y-81378817D01*
X150056534Y-81345044D01*
X152181040Y-79220539D01*
X152253740Y-79235000D01*
X152546260Y-79235000D01*
X152833158Y-79177932D01*
X153103411Y-79065990D01*
X153346632Y-78903475D01*
X153553475Y-78696632D01*
X153715990Y-78453411D01*
X153827932Y-78183158D01*
X153885000Y-77896260D01*
X153885000Y-77603740D01*
X153827932Y-77316842D01*
X153715990Y-77046589D01*
X153553475Y-76803368D01*
X153346632Y-76596525D01*
X153103411Y-76434010D01*
X152833158Y-76322068D01*
X152546260Y-76265000D01*
X152253740Y-76265000D01*
X151966842Y-76322068D01*
X151696589Y-76434010D01*
X151453368Y-76596525D01*
X151246525Y-76803368D01*
X151130000Y-76977760D01*
X151013475Y-76803368D01*
X150806632Y-76596525D01*
X150563411Y-76434010D01*
X150293158Y-76322068D01*
X150006260Y-76265000D01*
X149713740Y-76265000D01*
X149426842Y-76322068D01*
X149156589Y-76434010D01*
X149056699Y-76500754D01*
X148836977Y-76233023D01*
X148511881Y-75966223D01*
X148140982Y-75767974D01*
X147738533Y-75645892D01*
X147424882Y-75615000D01*
X144675118Y-75615000D01*
X144361467Y-75645892D01*
X143959018Y-75767974D01*
X143588119Y-75966223D01*
X143263023Y-76233023D01*
X143043301Y-76500754D01*
X142943411Y-76434010D01*
X142673158Y-76322068D01*
X142386260Y-76265000D01*
X142093740Y-76265000D01*
X141806842Y-76322068D01*
X141536589Y-76434010D01*
X141293368Y-76596525D01*
X141161513Y-76728380D01*
X141139502Y-76655820D01*
X141080537Y-76545506D01*
X141001185Y-76448815D01*
X140904494Y-76369463D01*
X140794180Y-76310498D01*
X140674482Y-76274188D01*
X140550000Y-76261928D01*
X138850000Y-76261928D01*
X138725518Y-76274188D01*
X138605820Y-76310498D01*
X138495506Y-76369463D01*
X138398815Y-76448815D01*
X138319463Y-76545506D01*
X138260498Y-76655820D01*
X138224188Y-76775518D01*
X138211928Y-76900000D01*
X138211928Y-78600000D01*
X138224188Y-78724482D01*
X138260498Y-78844180D01*
X138319463Y-78954494D01*
X138369119Y-79015000D01*
X137843465Y-79015000D01*
X137799999Y-79010719D01*
X137756533Y-79015000D01*
X137756523Y-79015000D01*
X137626510Y-79027805D01*
X137459687Y-79078411D01*
X137305941Y-79160589D01*
X137305939Y-79160590D01*
X137305940Y-79160590D01*
X137204953Y-79243468D01*
X137204951Y-79243470D01*
X137171183Y-79271183D01*
X137143470Y-79304951D01*
X134835000Y-81613422D01*
X134835000Y-79498552D01*
X134838797Y-79459999D01*
X134835000Y-79421446D01*
X134835000Y-79421439D01*
X134823641Y-79306113D01*
X134778754Y-79158140D01*
X134705862Y-79021767D01*
X134649422Y-78952996D01*
X134632345Y-78932187D01*
X134632342Y-78932184D01*
X134607764Y-78902236D01*
X134577817Y-78877659D01*
X134135158Y-78435000D01*
X134207002Y-78435000D01*
X134207002Y-78270156D01*
X134436890Y-78391476D01*
X134584099Y-78346825D01*
X134846920Y-78221641D01*
X135080269Y-78047588D01*
X135275178Y-77831355D01*
X135424157Y-77581252D01*
X135521481Y-77306891D01*
X135400814Y-77077000D01*
X134207000Y-77077000D01*
X134207000Y-77097000D01*
X133953000Y-77097000D01*
X133953000Y-77077000D01*
X133933000Y-77077000D01*
X133933000Y-76823000D01*
X133953000Y-76823000D01*
X133953000Y-75629845D01*
X134207000Y-75629845D01*
X134207000Y-76823000D01*
X135400814Y-76823000D01*
X135521481Y-76593109D01*
X135424157Y-76318748D01*
X135275178Y-76068645D01*
X135080269Y-75852412D01*
X134846920Y-75678359D01*
X134584099Y-75553175D01*
X134436890Y-75508524D01*
X134207000Y-75629845D01*
X133953000Y-75629845D01*
X133723110Y-75508524D01*
X133575901Y-75553175D01*
X133313080Y-75678359D01*
X133079731Y-75852412D01*
X132884822Y-76068645D01*
X132815195Y-76185534D01*
X132693475Y-76003368D01*
X132486632Y-75796525D01*
X132243411Y-75634010D01*
X131973158Y-75522068D01*
X131686260Y-75465000D01*
X131393740Y-75465000D01*
X131106842Y-75522068D01*
X130836589Y-75634010D01*
X130593368Y-75796525D01*
X130461513Y-75928380D01*
X130439502Y-75855820D01*
X130380537Y-75745506D01*
X130301185Y-75648815D01*
X130204494Y-75569463D01*
X130094180Y-75510498D01*
X129974482Y-75474188D01*
X129850000Y-75461928D01*
X128150000Y-75461928D01*
X128025518Y-75474188D01*
X127905820Y-75510498D01*
X127795506Y-75569463D01*
X127698815Y-75648815D01*
X127619463Y-75745506D01*
X127560498Y-75855820D01*
X127524188Y-75975518D01*
X127511928Y-76100000D01*
X124749250Y-76100000D01*
X124651250Y-76002000D01*
X123452000Y-76002000D01*
X123452000Y-76022000D01*
X123198000Y-76022000D01*
X123198000Y-76002000D01*
X123178000Y-76002000D01*
X123178000Y-75748000D01*
X123198000Y-75748000D01*
X123198000Y-74548750D01*
X123452000Y-74548750D01*
X123452000Y-75748000D01*
X124651250Y-75748000D01*
X124810000Y-75589250D01*
X124813072Y-75025000D01*
X124800812Y-74900518D01*
X124764502Y-74780820D01*
X124705537Y-74670506D01*
X124626185Y-74573815D01*
X124529494Y-74494463D01*
X124419180Y-74435498D01*
X124299482Y-74399188D01*
X124175000Y-74386928D01*
X123610750Y-74390000D01*
X123452000Y-74548750D01*
X123198000Y-74548750D01*
X123039250Y-74390000D01*
X122475000Y-74386928D01*
X122350518Y-74399188D01*
X122230820Y-74435498D01*
X122120506Y-74494463D01*
X122023815Y-74573815D01*
X121944463Y-74670506D01*
X121885498Y-74780820D01*
X121863487Y-74853380D01*
X121731632Y-74721525D01*
X121488411Y-74559010D01*
X121218158Y-74447068D01*
X120931260Y-74390000D01*
X120638740Y-74390000D01*
X120351842Y-74447068D01*
X120081589Y-74559010D01*
X119838368Y-74721525D01*
X119631525Y-74928368D01*
X119515000Y-75102760D01*
X119398475Y-74928368D01*
X119191632Y-74721525D01*
X118948411Y-74559010D01*
X118678158Y-74447068D01*
X118391260Y-74390000D01*
X118098740Y-74390000D01*
X117811842Y-74447068D01*
X117541589Y-74559010D01*
X117298368Y-74721525D01*
X117091525Y-74928368D01*
X116975000Y-75102760D01*
X116858475Y-74928368D01*
X116651632Y-74721525D01*
X116408411Y-74559010D01*
X116138158Y-74447068D01*
X115851260Y-74390000D01*
X115558740Y-74390000D01*
X115271842Y-74447068D01*
X115001589Y-74559010D01*
X114758368Y-74721525D01*
X114551525Y-74928368D01*
X114435000Y-75102760D01*
X114318475Y-74928368D01*
X114111632Y-74721525D01*
X113868411Y-74559010D01*
X113598158Y-74447068D01*
X113311260Y-74390000D01*
X113018740Y-74390000D01*
X112731842Y-74447068D01*
X112461589Y-74559010D01*
X112218368Y-74721525D01*
X112011525Y-74928368D01*
X111849010Y-75171589D01*
X111737068Y-75441842D01*
X111680000Y-75728740D01*
X103310016Y-75728740D01*
X103561353Y-75501241D01*
X104354071Y-74977546D01*
X105216887Y-74579782D01*
X106129934Y-74317108D01*
X107089192Y-74193374D01*
X107408958Y-74185000D01*
X184473981Y-74185000D01*
X185447350Y-74259042D01*
%TD*%
M02*
