(module Battery (layer F.Cu) (tedit 5F034989)
  (fp_text reference G*** (at 0.5715 -11.684) (layer Eco1.User) hide
    (effects (font (size 1.524 1.524) (thickness 0.3)))
  )
  (fp_text value LOGO (at 0.7239 -13.5636) (layer Eco1.User) hide
    (effects (font (size 1.524 1.524) (thickness 0.3)))
  )
  (fp_poly (pts (xy 11.07807 -6.28918) (xy 11.495357 -6.013814) (xy 11.833733 -5.647681) (xy 12.006395 -5.360855)
    (xy 12.16025 -5.04825) (xy 12.16025 5.04825) (xy 12.006395 5.360854) (xy 11.73301 5.77616)
    (xy 11.36649 6.114924) (xy 11.07807 6.289179) (xy 10.76325 6.44525) (xy 1.11125 6.459573)
    (xy -0.185771 6.461442) (xy -1.361928 6.462971) (xy -2.423359 6.464099) (xy -3.376201 6.464766)
    (xy -4.22659 6.464909) (xy -4.980662 6.464468) (xy -5.644556 6.463382) (xy -6.224407 6.461589)
    (xy -6.726352 6.459028) (xy -7.156528 6.455638) (xy -7.521071 6.451358) (xy -7.826119 6.446125)
    (xy -8.077808 6.43988) (xy -8.282274 6.432561) (xy -8.445656 6.424106) (xy -8.574088 6.414454)
    (xy -8.673709 6.403545) (xy -8.750654 6.391316) (xy -8.81106 6.377707) (xy -8.861065 6.362656)
    (xy -8.86889 6.359979) (xy -9.314563 6.144328) (xy -9.680556 5.839984) (xy -9.953448 5.459858)
    (xy -10.063505 5.21053) (xy -10.121301 4.950776) (xy -10.153077 4.571518) (xy -10.16 4.214766)
    (xy -10.16 3.4925) (xy -10.620375 3.492145) (xy -11.095405 3.460413) (xy -11.471747 3.361694)
    (xy -11.76239 3.189486) (xy -11.980319 2.937283) (xy -12.072642 2.764877) (xy -12.102179 2.69144)
    (xy -12.126295 2.605328) (xy -12.145532 2.493667) (xy -12.160435 2.343581) (xy -12.171545 2.142196)
    (xy -12.179406 1.876638) (xy -12.184559 1.534031) (xy -12.187549 1.101501) (xy -12.188917 0.566174)
    (xy -12.189211 0) (xy -12.188957 -0.424487) (xy -9.16309 -0.424487) (xy -9.16301 0.001908)
    (xy -9.162692 0.899399) (xy -9.162041 1.678667) (xy -9.160846 2.348489) (xy -9.158893 2.917644)
    (xy -9.155973 3.394909) (xy -9.151871 3.78906) (xy -9.146377 4.108875) (xy -9.139278 4.363133)
    (xy -9.130363 4.560609) (xy -9.119419 4.710081) (xy -9.106235 4.820327) (xy -9.090598 4.900125)
    (xy -9.072296 4.95825) (xy -9.051118 5.003482) (xy -9.041823 5.019882) (xy -8.900958 5.190531)
    (xy -8.718369 5.332696) (xy -8.700491 5.342693) (xy -8.667012 5.358692) (xy -8.625246 5.373181)
    (xy -8.569063 5.386235) (xy -8.492332 5.397929) (xy -8.388924 5.408336) (xy -8.252708 5.417532)
    (xy -8.077554 5.42559) (xy -7.85733 5.432586) (xy -7.585908 5.438594) (xy -7.257156 5.443688)
    (xy -6.864945 5.447943) (xy -6.403143 5.451434) (xy -5.865621 5.454234) (xy -5.246248 5.456418)
    (xy -4.538893 5.458062) (xy -3.737427 5.459239) (xy -2.835719 5.460023) (xy -1.827639 5.46049)
    (xy -0.707056 5.460714) (xy 0.532161 5.460769) (xy 1.015009 5.460762) (xy 2.297737 5.460705)
    (xy 3.459593 5.460546) (xy 4.506706 5.460207) (xy 5.445204 5.459607) (xy 6.281215 5.458667)
    (xy 7.020866 5.457306) (xy 7.670288 5.455445) (xy 8.235607 5.453004) (xy 8.722951 5.449904)
    (xy 9.13845 5.446063) (xy 9.488232 5.441403) (xy 9.778424 5.435843) (xy 10.015155 5.429303)
    (xy 10.204553 5.421705) (xy 10.352746 5.412967) (xy 10.465863 5.403011) (xy 10.550032 5.391756)
    (xy 10.611381 5.379122) (xy 10.656038 5.365029) (xy 10.690132 5.349398) (xy 10.716205 5.334343)
    (xy 10.895732 5.188121) (xy 11.044997 5.008214) (xy 11.049343 5.001205) (xy 11.072882 4.959483)
    (xy 11.093298 4.911028) (xy 11.110811 4.847032) (xy 11.125645 4.758685) (xy 11.138022 4.637179)
    (xy 11.148163 4.473704) (xy 11.156291 4.259453) (xy 11.162629 3.985617) (xy 11.167398 3.643385)
    (xy 11.170821 3.223951) (xy 11.17312 2.718504) (xy 11.174517 2.118236) (xy 11.175235 1.414339)
    (xy 11.175495 0.598003) (xy 11.175525 0) (xy 11.175443 -0.894519) (xy 11.175049 -1.670847)
    (xy 11.17412 -2.337792) (xy 11.172436 -2.904164) (xy 11.169772 -3.37877) (xy 11.165907 -3.770421)
    (xy 11.160619 -4.087925) (xy 11.153685 -4.340091) (xy 11.144884 -4.535727) (xy 11.133992 -4.683643)
    (xy 11.120788 -4.792646) (xy 11.10505 -4.871547) (xy 11.086555 -4.929153) (xy 11.06508 -4.974274)
    (xy 11.049343 -5.001206) (xy 10.903121 -5.180733) (xy 10.723214 -5.329998) (xy 10.716205 -5.334344)
    (xy 10.686333 -5.351391) (xy 10.651279 -5.36683) (xy 10.604914 -5.38074) (xy 10.54111 -5.393202)
    (xy 10.453738 -5.404294) (xy 10.33667 -5.414098) (xy 10.183779 -5.422692) (xy 9.988935 -5.430157)
    (xy 9.746011 -5.436573) (xy 9.448878 -5.442019) (xy 9.091409 -5.446575) (xy 8.667474 -5.450321)
    (xy 8.170946 -5.453337) (xy 7.595696 -5.455703) (xy 6.935596 -5.457498) (xy 6.184518 -5.458804)
    (xy 5.336334 -5.459698) (xy 4.384916 -5.460262) (xy 3.324134 -5.460575) (xy 2.147861 -5.460716)
    (xy 1.015009 -5.460763) (xy -0.269015 -5.460751) (xy -1.432169 -5.460597) (xy -2.480584 -5.460228)
    (xy -3.42039 -5.459567) (xy -4.257718 -5.458542) (xy -4.998697 -5.457078) (xy -5.649459 -5.455099)
    (xy -6.216133 -5.452532) (xy -6.70485 -5.449302) (xy -7.12174 -5.445335) (xy -7.472934 -5.440556)
    (xy -7.764562 -5.43489) (xy -8.002754 -5.428263) (xy -8.19364 -5.420601) (xy -8.343352 -5.411829)
    (xy -8.45802 -5.401872) (xy -8.543773 -5.390656) (xy -8.606742 -5.378107) (xy -8.653057 -5.36415)
    (xy -8.68885 -5.348711) (xy -8.700491 -5.342694) (xy -8.883461 -5.206854) (xy -9.032856 -5.034367)
    (xy -9.042937 -5.017974) (xy -9.065521 -4.975371) (xy -9.085111 -4.923978) (xy -9.101916 -4.855012)
    (xy -9.116147 -4.75969) (xy -9.128014 -4.629227) (xy -9.137727 -4.454841) (xy -9.145495 -4.227748)
    (xy -9.15153 -3.939164) (xy -9.156041 -3.580307) (xy -9.159238 -3.142392) (xy -9.161331 -2.616636)
    (xy -9.162531 -1.994255) (xy -9.163047 -1.266467) (xy -9.16309 -0.424487) (xy -12.188957 -0.424487)
    (xy -12.18883 -0.636039) (xy -12.187321 -1.157945) (xy -12.184138 -1.578585) (xy -12.178736 -1.910825)
    (xy -12.170568 -2.167532) (xy -12.159089 -2.36157) (xy -12.143752 -2.505807) (xy -12.124012 -2.61311)
    (xy -12.099322 -2.696343) (xy -12.071983 -2.76225) (xy -11.882715 -3.06887) (xy -11.631726 -3.286861)
    (xy -11.304943 -3.423581) (xy -10.888294 -3.486386) (xy -10.675086 -3.4925) (xy -10.170093 -3.492501)
    (xy -10.149172 -4.302125) (xy -10.137449 -4.652803) (xy -10.120245 -4.906496) (xy -10.092786 -5.093219)
    (xy -10.050295 -5.242984) (xy -9.988 -5.385807) (xy -9.97159 -5.418441) (xy -9.71767 -5.787753)
    (xy -9.372086 -6.103595) (xy -9.024773 -6.30953) (xy -8.73125 -6.44525) (xy 10.76325 -6.44525)
    (xy 11.07807 -6.28918)) (layer F.SilkS) (width 0.01))
  (fp_poly (pts (xy -1.27 4.953) (xy -4.699 4.953) (xy -4.699 -4.953) (xy -1.27 -4.953)
    (xy -1.27 4.953)) (layer F.SilkS) (width 0.01))
  (fp_poly (pts (xy 2.7305 4.953) (xy -0.6985 4.953) (xy -0.6985 -4.953) (xy 2.7305 -4.953)
    (xy 2.7305 4.953)) (layer F.SilkS) (width 0.01))
  (fp_poly (pts (xy 6.6675 4.953) (xy 3.2385 4.953) (xy 3.2385 -4.953) (xy 6.6675 -4.953)
    (xy 6.6675 4.953)) (layer F.SilkS) (width 0.01))
  (fp_poly (pts (xy 9.317763 -4.9525) (xy 9.697898 -4.950214) (xy 9.982773 -4.944968) (xy 10.188259 -4.935586)
    (xy 10.330225 -4.920892) (xy 10.42454 -4.899711) (xy 10.487075 -4.870867) (xy 10.533698 -4.833186)
    (xy 10.541 -4.826) (xy 10.564903 -4.799489) (xy 10.585602 -4.76528) (xy 10.603328 -4.714618)
    (xy 10.618311 -4.638747) (xy 10.630782 -4.528911) (xy 10.640971 -4.376353) (xy 10.649108 -4.172317)
    (xy 10.655424 -3.908047) (xy 10.660149 -3.574787) (xy 10.663513 -3.16378) (xy 10.665748 -2.666272)
    (xy 10.667084 -2.073505) (xy 10.66775 -1.376723) (xy 10.667978 -0.56717) (xy 10.668 0)
    (xy 10.667929 0.884486) (xy 10.667564 1.650729) (xy 10.666674 2.307483) (xy 10.665028 2.863507)
    (xy 10.662397 3.327555) (xy 10.658549 3.708384) (xy 10.653254 4.014749) (xy 10.646282 4.255408)
    (xy 10.637403 4.439116) (xy 10.626386 4.57463) (xy 10.613 4.670705) (xy 10.597015 4.736097)
    (xy 10.578201 4.779564) (xy 10.556328 4.80986) (xy 10.541 4.826) (xy 10.49548 4.865261)
    (xy 10.436682 4.895488) (xy 10.348734 4.917859) (xy 10.215768 4.933547) (xy 10.021913 4.943729)
    (xy 9.7513 4.94958) (xy 9.38806 4.952275) (xy 8.916323 4.95299) (xy 8.8265 4.953)
    (xy 7.239 4.953) (xy 7.239 -4.953) (xy 8.8265 -4.953) (xy 9.317763 -4.9525)) (layer F.SilkS) (width 0.01))
)
