(module CONV_IES0105S24 (layer F.Cu) (tedit 5EBD3F16)
  (fp_text reference REF** (at -0.825 -8.135) (layer F.SilkS)
    (effects (font (size 1 1) (thickness 0.015)))
  )
  (fp_text value CONV_IES0105S24 (at 5.525 8.135) (layer F.Fab)
    (effects (font (size 1 1) (thickness 0.015)))
  )
  (fp_line (start -4.25 4.624) (end -4.25 6.6) (layer F.SilkS) (width 0.127))
  (fp_line (start -4.25 6.6) (end 4.25 6.6) (layer F.SilkS) (width 0.127))
  (fp_line (start 4.25 6.6) (end 4.25 4.624) (layer F.SilkS) (width 0.127))
  (fp_line (start 4.25 -4.624) (end 4.25 -6.6) (layer F.SilkS) (width 0.127))
  (fp_line (start 4.25 -6.6) (end -4.25 -6.6) (layer F.SilkS) (width 0.127))
  (fp_line (start -4.25 -6.6) (end -4.25 -4.624) (layer F.SilkS) (width 0.127))
  (fp_line (start -4.25 6.6) (end 4.25 6.6) (layer F.Fab) (width 0.127))
  (fp_line (start 4.25 6.6) (end 4.25 -6.6) (layer F.Fab) (width 0.127))
  (fp_line (start 4.25 -6.6) (end -4.25 -6.6) (layer F.Fab) (width 0.127))
  (fp_line (start -4.25 -6.6) (end -4.25 6.6) (layer F.Fab) (width 0.127))
  (fp_line (start -6.35 -6.85) (end 6.35 -6.85) (layer F.CrtYd) (width 0.05))
  (fp_line (start 6.35 -6.85) (end 6.35 6.85) (layer F.CrtYd) (width 0.05))
  (fp_line (start 6.35 6.85) (end -6.35 6.85) (layer F.CrtYd) (width 0.05))
  (fp_line (start -6.35 6.85) (end -6.35 -6.85) (layer F.CrtYd) (width 0.05))
  (fp_circle (center -6.75 -3.81) (end -6.65 -3.81) (layer F.SilkS) (width 0.2))
  (fp_circle (center -6.75 -3.81) (end -6.65 -3.81) (layer F.Fab) (width 0.2))
  (fp_line (start -4.25 -0.4565) (end -4.25 2.996) (layer F.SilkS) (width 0.127))
  (fp_line (start 4.25 2.996) (end 4.25 -2.996) (layer F.SilkS) (width 0.127))
  (pad 1 smd rect (at -4.955 -3.81) (size 2.29 1) (layers F.Cu F.Paste F.Mask))
  (pad 2 smd rect (at -4.955 -1.27) (size 2.29 1) (layers F.Cu F.Paste F.Mask))
  (pad 4 smd rect (at -4.955 3.81) (size 2.29 1) (layers F.Cu F.Paste F.Mask))
  (pad 5 smd rect (at 4.955 3.81) (size 2.29 1) (layers F.Cu F.Paste F.Mask))
  (pad 8 smd rect (at 4.955 -3.81) (size 2.29 1) (layers F.Cu F.Paste F.Mask))
)
